EESchema Schematic File Version 2
LIBS:power
LIBS:device
LIBS:transistors
LIBS:conn
LIBS:linear
LIBS:regul
LIBS:74xx
LIBS:cmos4000
LIBS:adc-dac
LIBS:memory
LIBS:xilinx
LIBS:microcontrollers
LIBS:dsp
LIBS:microchip
LIBS:analog_switches
LIBS:motorola
LIBS:texas
LIBS:intel
LIBS:audio
LIBS:interface
LIBS:digital-audio
LIBS:philips
LIBS:display
LIBS:cypress
LIBS:siliconi
LIBS:opto
LIBS:atmel
LIBS:contrib
LIBS:valves
LIBS:AnabatHPF2-cache
EELAYER 25 0
EELAYER END
$Descr A4 11693 8268
encoding utf-8
Sheet 1 1
Title ""
Date ""
Rev ""
Comp ""
Comment1 ""
Comment2 ""
Comment3 ""
Comment4 ""
$EndDescr
$Comp
L R R2
U 1 1 582D0203
P 3200 2250
F 0 "R2" V 3280 2250 50  0000 C CNN
F 1 "33k" V 3200 2250 50  0000 C CNN
F 2 "Resistors_SMD:R_0603" V 3130 2250 50  0001 C CNN
F 3 "" H 3200 2250 50  0000 C CNN
	1    3200 2250
	1    0    0    -1  
$EndComp
$Comp
L R R4
U 1 1 582D0314
P 5700 1700
F 0 "R4" V 5780 1700 50  0000 C CNN
F 1 "10.248k" V 5700 1700 50  0000 C CNN
F 2 "Resistors_SMD:R_0603" V 5630 1700 50  0001 C CNN
F 3 "" H 5700 1700 50  0000 C CNN
	1    5700 1700
	0    1    1    0   
$EndComp
$Comp
L R R5
U 1 1 582D03A5
P 3450 4000
F 0 "R5" V 3530 4000 50  0000 C CNN
F 1 "15.005k" V 3450 4000 50  0000 C CNN
F 2 "Resistors_SMD:R_0603" V 3380 4000 50  0001 C CNN
F 3 "" H 3450 4000 50  0000 C CNN
	1    3450 4000
	1    0    0    -1  
$EndComp
$Comp
L R R7
U 1 1 582D043C
P 5600 4000
F 0 "R7" V 5680 4000 50  0000 C CNN
F 1 "40.998k" V 5600 4000 50  0000 C CNN
F 2 "Resistors_SMD:R_0603" V 5530 4000 50  0001 C CNN
F 3 "" H 5600 4000 50  0000 C CNN
	1    5600 4000
	1    0    0    -1  
$EndComp
$Comp
L R R3
U 1 1 582D0FF1
P 5600 2250
F 0 "R3" V 5680 2250 50  0000 C CNN
F 1 "10.986k" V 5600 2250 50  0000 C CNN
F 2 "Resistors_SMD:R_0603" V 5530 2250 50  0001 C CNN
F 3 "" H 5600 2250 50  0000 C CNN
	1    5600 2250
	1    0    0    -1  
$EndComp
$Comp
L R R6
U 1 1 582D0FF7
P 3550 3450
F 0 "R6" V 3630 3450 50  0000 C CNN
F 1 "7.503k" V 3550 3450 50  0000 C CNN
F 2 "Resistors_SMD:R_0603" V 3480 3450 50  0001 C CNN
F 3 "" H 3550 3450 50  0000 C CNN
	1    3550 3450
	0    1    1    0   
$EndComp
$Comp
L R R8
U 1 1 582D0FFD
P 5650 3450
F 0 "R8" V 5730 3450 50  0000 C CNN
F 1 "2.746k" V 5650 3450 50  0000 C CNN
F 2 "Resistors_SMD:R_0603" V 5580 3450 50  0001 C CNN
F 3 "" H 5650 3450 50  0000 C CNN
	1    5650 3450
	0    1    1    0   
$EndComp
$Comp
L R R9
U 1 1 582D1003
P 4700 5050
F 0 "R9" V 4780 5050 50  0000 C CNN
F 1 "10k" V 4700 5050 50  0000 C CNN
F 2 "Resistors_SMD:R_0603" V 4630 5050 50  0001 C CNN
F 3 "" H 4700 5050 50  0000 C CNN
	1    4700 5050
	1    0    0    -1  
$EndComp
$Comp
L C C4
U 1 1 582D10C5
P 4850 2000
F 0 "C4" H 4875 2100 50  0000 L CNN
F 1 "1n" H 4875 1900 50  0000 L CNN
F 2 "Capacitors_SMD:C_0603" H 4888 1850 50  0001 C CNN
F 3 "" H 4850 2000 50  0000 C CNN
	1    4850 2000
	0    -1   -1   0   
$EndComp
$Comp
L C C5
U 1 1 582D1100
P 5350 2000
F 0 "C5" H 5375 2100 50  0000 L CNN
F 1 "1n" H 5375 1900 50  0000 L CNN
F 2 "Capacitors_SMD:C_0603" H 5388 1850 50  0001 C CNN
F 3 "" H 5350 2000 50  0000 C CNN
	1    5350 2000
	0    -1   -1   0   
$EndComp
$Comp
L C C7
U 1 1 582D1163
P 3200 3750
F 0 "C7" H 3225 3850 50  0000 L CNN
F 1 "1n" H 3225 3650 50  0000 L CNN
F 2 "Capacitors_SMD:C_0603" H 3238 3600 50  0001 C CNN
F 3 "" H 3200 3750 50  0000 C CNN
	1    3200 3750
	0    -1   -1   0   
$EndComp
$Comp
L C C3
U 1 1 582D12F8
P 4150 1650
F 0 "C3" H 4175 1750 50  0000 L CNN
F 1 "100n" H 4175 1550 50  0000 L CNN
F 2 "Capacitors_SMD:C_0603" H 4188 1500 50  0001 C CNN
F 3 "" H 4150 1650 50  0000 C CNN
	1    4150 1650
	1    0    0    -1  
$EndComp
$Comp
L C C6
U 1 1 582D12FE
P 2700 3750
F 0 "C6" H 2725 3850 50  0000 L CNN
F 1 "1n" H 2725 3650 50  0000 L CNN
F 2 "Capacitors_SMD:C_0603" H 2738 3600 50  0001 C CNN
F 3 "" H 2700 3750 50  0000 C CNN
	1    2700 3750
	0    -1   -1   0   
$EndComp
$Comp
L C C9
U 1 1 582D1304
P 5350 3750
F 0 "C9" H 5375 3850 50  0000 L CNN
F 1 "1n" H 5375 3650 50  0000 L CNN
F 2 "Capacitors_SMD:C_0603" H 5388 3600 50  0001 C CNN
F 3 "" H 5350 3750 50  0000 C CNN
	1    5350 3750
	0    -1   -1   0   
$EndComp
$Comp
L C C8
U 1 1 582D130A
P 4850 3750
F 0 "C8" H 4875 3850 50  0000 L CNN
F 1 "1n" H 4875 3650 50  0000 L CNN
F 2 "Capacitors_SMD:C_0603" H 4888 3600 50  0001 C CNN
F 3 "" H 4850 3750 50  0000 C CNN
	1    4850 3750
	0    -1   -1   0   
$EndComp
$Comp
L C C11
U 1 1 582D1310
P 4950 5350
F 0 "C11" H 4975 5450 50  0000 L CNN
F 1 "100n" H 4975 5250 50  0000 L CNN
F 2 "Capacitors_SMD:C_0603" H 4988 5200 50  0001 C CNN
F 3 "" H 4950 5350 50  0000 C CNN
	1    4950 5350
	1    0    0    -1  
$EndComp
$Comp
L CP1 C10
U 1 1 582D1390
P 4350 5200
F 0 "C10" H 4375 5300 50  0000 L CNN
F 1 "1u" H 4375 5100 50  0000 L CNN
F 2 "Capacitors_Tantalum_SMD:CP_Tantalum_Case-A_EIA-3216-18_Reflow" H 4350 5200 50  0001 C CNN
F 3 "" H 4350 5200 50  0000 C CNN
	1    4350 5200
	1    0    0    -1  
$EndComp
$Comp
L VCC #PWR01
U 1 1 582D1480
P 4100 5350
F 0 "#PWR01" H 4100 5200 50  0001 C CNN
F 1 "VCC" H 4100 5500 50  0000 C CNN
F 2 "" H 4100 5350 50  0000 C CNN
F 3 "" H 4100 5350 50  0000 C CNN
	1    4100 5350
	-1   0    0    1   
$EndComp
$Comp
L GND #PWR02
U 1 1 582D14F8
P 3700 5350
F 0 "#PWR02" H 3700 5100 50  0001 C CNN
F 1 "GND" H 3700 5200 50  0000 C CNN
F 2 "" H 3700 5350 50  0000 C CNN
F 3 "" H 3700 5350 50  0000 C CNN
	1    3700 5350
	1    0    0    -1  
$EndComp
$Comp
L PWR_FLAG #FLG03
U 1 1 582DA536
P 4100 5150
F 0 "#FLG03" H 4100 5245 50  0001 C CNN
F 1 "PWR_FLAG" H 4100 5330 50  0000 C CNN
F 2 "" H 4100 5150 50  0000 C CNN
F 3 "" H 4100 5150 50  0000 C CNN
	1    4100 5150
	1    0    0    -1  
$EndComp
$Comp
L PWR_FLAG #FLG04
U 1 1 582DA57C
P 3700 5150
F 0 "#FLG04" H 3700 5245 50  0001 C CNN
F 1 "PWR_FLAG" H 3700 5330 50  0000 C CNN
F 2 "" H 3700 5150 50  0000 C CNN
F 3 "" H 3700 5150 50  0000 C CNN
	1    3700 5150
	1    0    0    -1  
$EndComp
Wire Wire Line
	3700 5150 3700 5350
Wire Wire Line
	4100 5150 4100 5350
$Comp
L VCC #PWR05
U 1 1 582DA7F0
P 4350 4900
F 0 "#PWR05" H 4350 4750 50  0001 C CNN
F 1 "VCC" H 4350 5050 50  0000 C CNN
F 2 "" H 4350 4900 50  0000 C CNN
F 3 "" H 4350 4900 50  0000 C CNN
	1    4350 4900
	1    0    0    -1  
$EndComp
$Comp
L GND #PWR06
U 1 1 582DA846
P 4350 5500
F 0 "#PWR06" H 4350 5250 50  0001 C CNN
F 1 "GND" H 4350 5350 50  0000 C CNN
F 2 "" H 4350 5500 50  0000 C CNN
F 3 "" H 4350 5500 50  0000 C CNN
	1    4350 5500
	1    0    0    -1  
$EndComp
Wire Wire Line
	4700 5200 5150 5200
Wire Wire Line
	4350 5500 4950 5500
Connection ~ 4700 5500
Wire Wire Line
	4350 4900 4700 4900
Wire Wire Line
	4350 4900 4350 5050
Wire Wire Line
	4350 5350 4350 5500
Connection ~ 4950 5200
Text GLabel 2990 2000 0    60   Input ~ 0
Input
Wire Wire Line
	2990 2000 3600 2000
Wire Wire Line
	3600 2200 3600 2700
Wire Wire Line
	4200 2100 4450 2100
Wire Wire Line
	3100 2600 3200 2600
Wire Wire Line
	3200 2400 3200 2900
$Comp
L VCC #PWR07
U 1 1 582DE732
P 3800 1500
F 0 "#PWR07" H 3800 1350 50  0001 C CNN
F 1 "VCC" H 3800 1650 50  0000 C CNN
F 2 "" H 3800 1500 50  0000 C CNN
F 3 "" H 3800 1500 50  0000 C CNN
	1    3800 1500
	1    0    0    -1  
$EndComp
Wire Wire Line
	3800 1500 3800 1800
$Comp
L GND #PWR08
U 1 1 582DE7AA
P 3800 2450
F 0 "#PWR08" H 3800 2200 50  0001 C CNN
F 1 "GND" H 3800 2300 50  0000 C CNN
F 2 "" H 3800 2450 50  0000 C CNN
F 3 "" H 3800 2450 50  0000 C CNN
	1    3800 2450
	1    0    0    -1  
$EndComp
Wire Wire Line
	3800 2400 3800 2450
$Comp
L GND #PWR09
U 1 1 582DFC97
P 4150 1800
F 0 "#PWR09" H 4150 1550 50  0001 C CNN
F 1 "GND" H 4150 1650 50  0000 C CNN
F 2 "" H 4150 1800 50  0000 C CNN
F 3 "" H 4150 1800 50  0000 C CNN
	1    4150 1800
	1    0    0    -1  
$EndComp
Wire Wire Line
	3800 1500 4150 1500
Wire Wire Line
	5750 2200 5750 2450
Wire Wire Line
	5750 2450 6400 2450
Wire Wire Line
	6400 2450 6400 1700
Wire Wire Line
	6350 2100 6550 2100
Wire Wire Line
	6400 1700 5850 1700
Connection ~ 6400 2100
Wire Wire Line
	5000 2000 5200 2000
Wire Wire Line
	5500 2000 5750 2000
Wire Wire Line
	5600 2100 5600 2000
Connection ~ 5600 2000
Wire Wire Line
	5550 1700 5100 1700
Wire Wire Line
	5100 1700 5100 2000
Connection ~ 5100 2000
Wire Wire Line
	4450 2100 4450 2000
Wire Wire Line
	4450 2000 4700 2000
Wire Wire Line
	3600 3950 3600 4350
Wire Wire Line
	3600 4350 4250 4350
Wire Wire Line
	4250 4350 4250 3450
Wire Wire Line
	4200 3850 4400 3850
Wire Wire Line
	6350 3850 6550 3850
Wire Wire Line
	6400 3450 6400 4200
Wire Wire Line
	6400 4200 5750 4200
Wire Wire Line
	5750 4200 5750 3950
Wire Wire Line
	5500 3750 5750 3750
Wire Wire Line
	5600 3850 5600 3750
Connection ~ 5600 3750
Wire Wire Line
	3350 3750 3600 3750
Wire Wire Line
	3450 3850 3450 3750
Connection ~ 3450 3750
Wire Wire Line
	3450 4150 3450 4450
Wire Wire Line
	5000 3750 5200 3750
Wire Wire Line
	5800 3450 6400 3450
Connection ~ 6400 3850
Wire Wire Line
	5500 3450 5100 3450
Wire Wire Line
	5100 3450 5100 3750
Connection ~ 5100 3750
Wire Wire Line
	2850 3750 3050 3750
Wire Wire Line
	4250 3450 3700 3450
Connection ~ 4250 3850
Wire Wire Line
	3400 3450 2950 3450
Wire Wire Line
	2950 3450 2950 3750
Connection ~ 2950 3750
Text GLabel 6550 2100 2    60   Input ~ 0
A
Text GLabel 2450 3750 0    60   Input ~ 0
A
Text GLabel 6550 3850 2    60   Input ~ 0
Output
Wire Wire Line
	4400 3850 4400 3750
Wire Wire Line
	4400 3750 4700 3750
Wire Wire Line
	2450 3750 2550 3750
$Comp
L R R10
U 1 1 582D04A5
P 4700 5350
F 0 "R10" V 4780 5350 50  0000 C CNN
F 1 "10k" V 4700 5350 50  0000 C CNN
F 2 "Resistors_SMD:R_0603" V 4630 5350 50  0001 C CNN
F 3 "" H 4700 5350 50  0000 C CNN
	1    4700 5350
	1    0    0    -1  
$EndComp
$Comp
L GND #PWR010
U 1 1 582F0D00
P 2800 5450
F 0 "#PWR010" H 2800 5200 50  0001 C CNN
F 1 "GND" H 2800 5300 50  0000 C CNN
F 2 "" H 2800 5450 50  0000 C CNN
F 3 "" H 2800 5450 50  0000 C CNN
	1    2800 5450
	1    0    0    -1  
$EndComp
$Comp
L GND #PWR011
U 1 1 582F0D80
P 6140 5750
F 0 "#PWR011" H 6140 5500 50  0001 C CNN
F 1 "GND" H 6140 5600 50  0000 C CNN
F 2 "" H 6140 5750 50  0000 C CNN
F 3 "" H 6140 5750 50  0000 C CNN
	1    6140 5750
	1    0    0    -1  
$EndComp
Text GLabel 2800 5050 1    60   Input ~ 0
HV
Text GLabel 6250 5560 0    60   Input ~ 0
HV
$Comp
L VCC #PWR012
U 1 1 582F10AE
P 3050 5050
F 0 "#PWR012" H 3050 4900 50  0001 C CNN
F 1 "VCC" H 3050 5200 50  0000 C CNN
F 2 "" H 3050 5050 50  0000 C CNN
F 3 "" H 3050 5050 50  0000 C CNN
	1    3050 5050
	1    0    0    -1  
$EndComp
$Comp
L VCC #PWR013
U 1 1 582F10F8
P 6260 5090
F 0 "#PWR013" H 6260 4940 50  0001 C CNN
F 1 "VCC" V 6260 5300 50  0000 C CNN
F 2 "" H 6260 5090 50  0000 C CNN
F 3 "" H 6260 5090 50  0000 C CNN
	1    6260 5090
	0    -1   -1   0   
$EndComp
Text GLabel 2850 5300 2    60   Input ~ 0
Input
Text GLabel 6350 5310 0    60   Input ~ 0
Output
Wire Wire Line
	2700 5100 2800 5100
Wire Wire Line
	2800 5100 2800 5050
Wire Wire Line
	2700 5400 2800 5400
Wire Wire Line
	2800 5400 2800 5450
Wire Wire Line
	2700 5300 2850 5300
Wire Wire Line
	2700 5200 3050 5200
Wire Wire Line
	3050 5200 3050 5050
Text GLabel 5150 5200 2    60   Input ~ 0
Von2
Text GLabel 3250 4250 0    60   Input ~ 0
Von2
Text GLabel 3100 2600 0    60   Input ~ 0
Von2
Wire Wire Line
	3250 4250 3450 4250
$Comp
L C C13
U 1 1 582FA7B9
P 5750 2700
F 0 "C13" H 5775 2800 50  0000 L CNN
F 1 "100n" H 5775 2600 50  0000 L CNN
F 2 "Capacitors_SMD:C_0603" H 5788 2550 50  0001 C CNN
F 3 "" H 5750 2700 50  0000 C CNN
	1    5750 2700
	0    -1   -1   0   
$EndComp
$Comp
L C C12
U 1 1 582FAAA5
P 5750 4450
F 0 "C12" H 5775 4550 50  0000 L CNN
F 1 "100n" H 5775 4350 50  0000 L CNN
F 2 "Capacitors_SMD:C_0603" H 5788 4300 50  0001 C CNN
F 3 "" H 5750 4450 50  0000 C CNN
	1    5750 4450
	0    -1   -1   0   
$EndComp
$Comp
L GND #PWR014
U 1 1 582FABA5
P 6100 4450
F 0 "#PWR014" H 6100 4200 50  0001 C CNN
F 1 "GND" H 6100 4300 50  0000 C CNN
F 2 "" H 6100 4450 50  0000 C CNN
F 3 "" H 6100 4450 50  0000 C CNN
	1    6100 4450
	1    0    0    -1  
$EndComp
$Comp
L GND #PWR015
U 1 1 582FAC2D
P 6000 2700
F 0 "#PWR015" H 6000 2450 50  0001 C CNN
F 1 "GND" H 6000 2550 50  0000 C CNN
F 2 "" H 6000 2700 50  0000 C CNN
F 3 "" H 6000 2700 50  0000 C CNN
	1    6000 2700
	1    0    0    -1  
$EndComp
Wire Wire Line
	3200 2900 5600 2900
Wire Wire Line
	5600 2900 5600 2400
Connection ~ 3200 2600
Wire Wire Line
	5600 4150 5600 4450
Wire Wire Line
	5600 4450 3450 4450
Connection ~ 3450 4250
Wire Wire Line
	5900 2700 6000 2700
Wire Wire Line
	5900 4450 6100 4450
Connection ~ 5600 2700
Connection ~ 5600 4450
$Comp
L TLC082D U1
U 1 1 58C1F959
P 3900 2100
F 0 "U1" H 3900 2300 50  0000 L CNN
F 1 "TLC082D" H 3900 1900 50  0000 L CNN
F 2 "Housings_SOIC:SOIC-8_3.9x4.9mm_Pitch1.27mm" H 3850 2200 50  0001 C CNN
F 3 "" H 3950 2300 50  0000 C CNN
	1    3900 2100
	1    0    0    -1  
$EndComp
$Comp
L TLC082D U1
U 2 1 58C1FD4E
P 6050 2100
F 0 "U1" H 6050 2300 50  0000 L CNN
F 1 "TLC082D" H 6050 1900 50  0000 L CNN
F 2 "Housings_SOIC:SOIC-8_3.9x4.9mm_Pitch1.27mm" H 6000 2200 50  0001 C CNN
F 3 "" H 6100 2300 50  0000 C CNN
	2    6050 2100
	1    0    0    -1  
$EndComp
$Comp
L TLC082D U2
U 1 1 58C1FDD7
P 3900 3850
F 0 "U2" H 3900 4050 50  0000 L CNN
F 1 "TLC082D" H 3900 3650 50  0000 L CNN
F 2 "Housings_SOIC:SOIC-8_3.9x4.9mm_Pitch1.27mm" H 3850 3950 50  0001 C CNN
F 3 "" H 3950 4050 50  0000 C CNN
	1    3900 3850
	1    0    0    -1  
$EndComp
$Comp
L TLC082D U2
U 2 1 58C1FEBE
P 6050 3850
F 0 "U2" H 6050 4050 50  0000 L CNN
F 1 "TLC082D" H 6050 3650 50  0000 L CNN
F 2 "Housings_SOIC:SOIC-8_3.9x4.9mm_Pitch1.27mm" H 6000 3950 50  0001 C CNN
F 3 "" H 6100 4050 50  0000 C CNN
	2    6050 3850
	1    0    0    -1  
$EndComp
$Comp
L GND #PWR016
U 1 1 58C207D3
P 3800 4150
F 0 "#PWR016" H 3800 3900 50  0001 C CNN
F 1 "GND" H 3800 4000 50  0000 C CNN
F 2 "" H 3800 4150 50  0000 C CNN
F 3 "" H 3800 4150 50  0000 C CNN
	1    3800 4150
	1    0    0    -1  
$EndComp
$Comp
L C C14
U 1 1 58C20CE3
P 4500 3350
F 0 "C14" H 4525 3450 50  0000 L CNN
F 1 "100n" H 4525 3250 50  0000 L CNN
F 2 "Capacitors_SMD:C_0603" H 4538 3200 50  0001 C CNN
F 3 "" H 4500 3350 50  0000 C CNN
	1    4500 3350
	1    0    0    -1  
$EndComp
Wire Wire Line
	3800 3550 3800 3200
Wire Wire Line
	3800 3200 4500 3200
$Comp
L GND #PWR017
U 1 1 58C20EAC
P 4500 3500
F 0 "#PWR017" H 4500 3250 50  0001 C CNN
F 1 "GND" H 4500 3350 50  0000 C CNN
F 2 "" H 4500 3500 50  0000 C CNN
F 3 "" H 4500 3500 50  0000 C CNN
	1    4500 3500
	1    0    0    -1  
$EndComp
$Comp
L VCC #PWR018
U 1 1 58C215AA
P 3800 3200
F 0 "#PWR018" H 3800 3050 50  0001 C CNN
F 1 "VCC" H 3800 3350 50  0000 C CNN
F 2 "" H 3800 3200 50  0000 C CNN
F 3 "" H 3800 3200 50  0000 C CNN
	1    3800 3200
	1    0    0    -1  
$EndComp
$Comp
L R R11
U 1 1 58C21D03
P 4450 2250
F 0 "R11" V 4530 2250 50  0000 C CNN
F 1 "68k" V 4450 2250 50  0000 C CNN
F 2 "Resistors_SMD:R_0603" V 4380 2250 50  0001 C CNN
F 3 "" H 4450 2250 50  0000 C CNN
	1    4450 2250
	1    0    0    -1  
$EndComp
$Comp
L R R12
U 1 1 58C21DF6
P 4700 2700
F 0 "R12" V 4780 2700 50  0000 C CNN
F 1 "68k" V 4700 2700 50  0000 C CNN
F 2 "Resistors_SMD:R_0603" V 4630 2700 50  0001 C CNN
F 3 "" H 4700 2700 50  0000 C CNN
	1    4700 2700
	0    1    1    0   
$EndComp
Wire Wire Line
	3600 2700 4550 2700
Wire Wire Line
	4850 2700 4950 2700
Wire Wire Line
	4950 2700 4950 2900
Connection ~ 4950 2900
Wire Wire Line
	4450 2400 4450 2700
Connection ~ 4450 2700
$Comp
L Din8 P2
U 1 1 58C2F777
P 7300 5250
F 0 "P2" H 7345 5610 60  0000 C CNN
F 1 "Din8" H 7090 4950 60  0000 C CNN
F 2 "CJCfootprint:Din8_270" H 7300 5250 60  0001 C CNN
F 3 "" H 7300 5250 60  0001 C CNN
	1    7300 5250
	1    0    0    -1  
$EndComp
$Comp
L CONN_01X04 P1
U 1 1 582F089C
P 2500 5250
F 0 "P1" H 2500 5500 50  0000 C CNN
F 1 "CONN_01X04" V 2600 5250 50  0000 C CNN
F 2 "Pin_Headers:Pin_Header_Straight_1x04_Pitch2.54mm" H 2500 5250 50  0001 C CNN
F 3 "" H 2500 5250 50  0000 C CNN
	1    2500 5250
	-1   0    0    1   
$EndComp
Wire Wire Line
	7750 5200 7890 5200
Wire Wire Line
	7890 5200 7890 5650
Wire Wire Line
	7890 5650 6650 5650
Wire Wire Line
	6650 5560 6250 5560
Wire Wire Line
	7750 5050 8000 5050
Wire Wire Line
	8000 5050 8000 5750
Wire Wire Line
	8000 5750 6140 5750
Wire Wire Line
	6650 5650 6650 5560
Wire Wire Line
	6260 5090 6360 5090
Wire Wire Line
	6360 5090 6360 4950
Wire Wire Line
	6360 4950 6850 4950
Wire Wire Line
	6350 5310 6550 5310
Wire Wire Line
	6550 5310 6550 5100
Wire Wire Line
	6550 5100 6850 5100
NoConn ~ 7750 5350
NoConn ~ 7750 5500
NoConn ~ 6850 5400
NoConn ~ 6850 5250
Wire Wire Line
	3200 2100 3200 2000
Connection ~ 3200 2000
$EndSCHEMATC
