G04 (created by PCBNEW (2013-07-07 BZR 4022)-stable) date 10/22/2014 12:40:17 PM*
%MOIN*%
G04 Gerber Fmt 3.4, Leading zero omitted, Abs format*
%FSLAX34Y34*%
G01*
G70*
G90*
G04 APERTURE LIST*
%ADD10C,0.00393701*%
%ADD11R,0.06X0.06*%
%ADD12C,0.06*%
%ADD13C,0.035*%
%ADD14C,0.01*%
G04 APERTURE END LIST*
G54D10*
G54D11*
X27500Y-15250D03*
G54D12*
X28500Y-15250D03*
X27500Y-16250D03*
X28500Y-16250D03*
X27500Y-17250D03*
X28500Y-17250D03*
X27500Y-18250D03*
X28500Y-18250D03*
X27500Y-19250D03*
X28500Y-19250D03*
X27500Y-20250D03*
X28500Y-20250D03*
X27500Y-21250D03*
X28500Y-21250D03*
X27500Y-22250D03*
X28500Y-22250D03*
G54D11*
X38500Y-28500D03*
G54D12*
X37500Y-28500D03*
X38500Y-27500D03*
X37500Y-27500D03*
X38500Y-26500D03*
X37500Y-26500D03*
X38500Y-25500D03*
X37500Y-25500D03*
X38500Y-24500D03*
X37500Y-24500D03*
G54D11*
X38500Y-12500D03*
G54D12*
X37500Y-12500D03*
X38500Y-11500D03*
X37500Y-11500D03*
X38500Y-10500D03*
X37500Y-10500D03*
X38500Y-9500D03*
X37500Y-9500D03*
X38500Y-8500D03*
X37500Y-8500D03*
G54D11*
X34500Y-28500D03*
G54D12*
X34500Y-27500D03*
X35500Y-28500D03*
X35500Y-27500D03*
G54D11*
X34500Y-9500D03*
G54D12*
X34500Y-8500D03*
X35500Y-9500D03*
X35500Y-8500D03*
G54D11*
X13500Y-9500D03*
G54D12*
X13500Y-8500D03*
X14500Y-9500D03*
X14500Y-8500D03*
X15500Y-9500D03*
X15500Y-8500D03*
X16500Y-9500D03*
X16500Y-8500D03*
X17500Y-9500D03*
X17500Y-8500D03*
X18500Y-9500D03*
X18500Y-8500D03*
X19500Y-9500D03*
X19500Y-8500D03*
X20500Y-9500D03*
X20500Y-8500D03*
X21500Y-9500D03*
X21500Y-8500D03*
X22500Y-9500D03*
X22500Y-8500D03*
G54D11*
X13500Y-28500D03*
G54D12*
X13500Y-27500D03*
X14500Y-28500D03*
X14500Y-27500D03*
X15500Y-28500D03*
X15500Y-27500D03*
X16500Y-28500D03*
X16500Y-27500D03*
X17500Y-28500D03*
X17500Y-27500D03*
X18500Y-28500D03*
X18500Y-27500D03*
X19500Y-28500D03*
X19500Y-27500D03*
X20500Y-28500D03*
X20500Y-27500D03*
X21500Y-28500D03*
X21500Y-27500D03*
X22500Y-28500D03*
X22500Y-27500D03*
G54D11*
X22500Y-26250D03*
G54D12*
X23500Y-26250D03*
X24500Y-26250D03*
X25500Y-26250D03*
X26500Y-26250D03*
X27500Y-26250D03*
G54D11*
X31300Y-28000D03*
X29700Y-28000D03*
G54D13*
X35250Y-15550D03*
X21250Y-13500D03*
X29050Y-13300D03*
X31750Y-16050D03*
X31750Y-17250D03*
X36550Y-15800D03*
X32800Y-24300D03*
X32600Y-25550D03*
X37100Y-16350D03*
X23750Y-10000D03*
X17050Y-23200D03*
X18500Y-16200D03*
X18500Y-17100D03*
X31150Y-21300D03*
X31200Y-13550D03*
X34900Y-24450D03*
X38050Y-16350D03*
X34200Y-22800D03*
X37600Y-15800D03*
X23150Y-12000D03*
X24250Y-13300D03*
X23700Y-12750D03*
X24200Y-13900D03*
X31100Y-14400D03*
X33700Y-16600D03*
X26100Y-11550D03*
G54D10*
G36*
X39120Y-29120D02*
X39050Y-29120D01*
X39050Y-27391D01*
X39050Y-27390D01*
X39050Y-26499D01*
X39050Y-26391D01*
X39050Y-26390D01*
X39050Y-25499D01*
X39050Y-25391D01*
X39050Y-25390D01*
X39050Y-24499D01*
X39050Y-24391D01*
X39050Y-11391D01*
X39050Y-11390D01*
X39050Y-10499D01*
X39050Y-10391D01*
X39050Y-10390D01*
X39050Y-9499D01*
X39050Y-9391D01*
X39050Y-9390D01*
X39050Y-8499D01*
X39050Y-8391D01*
X39050Y-8390D01*
X39050Y-7950D01*
X38499Y-7950D01*
X38391Y-7949D01*
X38390Y-7950D01*
X37499Y-7950D01*
X37391Y-7949D01*
X37390Y-7950D01*
X36950Y-7950D01*
X36950Y-8500D01*
X36949Y-8608D01*
X36950Y-8609D01*
X36950Y-9500D01*
X36949Y-9608D01*
X36950Y-9609D01*
X36950Y-10500D01*
X36949Y-10608D01*
X36950Y-10609D01*
X36950Y-11500D01*
X36949Y-11608D01*
X36950Y-11609D01*
X36950Y-12500D01*
X36949Y-12608D01*
X36950Y-12609D01*
X36950Y-13050D01*
X37500Y-13050D01*
X37608Y-13050D01*
X37609Y-13050D01*
X38200Y-13050D01*
X38249Y-13050D01*
X38849Y-13050D01*
X38849Y-13050D01*
X39050Y-13050D01*
X39050Y-12799D01*
X39050Y-12750D01*
X39050Y-12150D01*
X39050Y-12150D01*
X39050Y-11499D01*
X39050Y-11391D01*
X39050Y-24391D01*
X39050Y-24390D01*
X39050Y-23950D01*
X38499Y-23950D01*
X38475Y-23949D01*
X38475Y-16265D01*
X38410Y-16109D01*
X38291Y-15989D01*
X38134Y-15925D01*
X38008Y-15924D01*
X38024Y-15884D01*
X38025Y-15715D01*
X37960Y-15559D01*
X37841Y-15439D01*
X37684Y-15375D01*
X37515Y-15374D01*
X37359Y-15439D01*
X37239Y-15558D01*
X37175Y-15715D01*
X37174Y-15884D01*
X37193Y-15928D01*
X37184Y-15925D01*
X37015Y-15924D01*
X36946Y-15953D01*
X36974Y-15884D01*
X36975Y-15715D01*
X36910Y-15559D01*
X36791Y-15439D01*
X36634Y-15375D01*
X36465Y-15374D01*
X36309Y-15439D01*
X36189Y-15558D01*
X36125Y-15715D01*
X36124Y-15884D01*
X36189Y-16040D01*
X36308Y-16160D01*
X36465Y-16224D01*
X36634Y-16225D01*
X36703Y-16196D01*
X36675Y-16265D01*
X36674Y-16434D01*
X36739Y-16590D01*
X36858Y-16710D01*
X37015Y-16774D01*
X37184Y-16775D01*
X37340Y-16710D01*
X37460Y-16591D01*
X37524Y-16434D01*
X37525Y-16265D01*
X37506Y-16221D01*
X37515Y-16224D01*
X37641Y-16225D01*
X37625Y-16265D01*
X37624Y-16434D01*
X37689Y-16590D01*
X37808Y-16710D01*
X37965Y-16774D01*
X38134Y-16775D01*
X38290Y-16710D01*
X38410Y-16591D01*
X38474Y-16434D01*
X38475Y-16265D01*
X38475Y-23949D01*
X38391Y-23949D01*
X38390Y-23950D01*
X37499Y-23950D01*
X37391Y-23949D01*
X37390Y-23950D01*
X36950Y-23950D01*
X36950Y-24500D01*
X36949Y-24608D01*
X36950Y-24609D01*
X36950Y-25500D01*
X36949Y-25608D01*
X36950Y-25609D01*
X36950Y-26500D01*
X36949Y-26608D01*
X36950Y-26609D01*
X36950Y-27500D01*
X36949Y-27608D01*
X36950Y-27609D01*
X36950Y-28500D01*
X36949Y-28608D01*
X36950Y-28609D01*
X36950Y-29050D01*
X37500Y-29050D01*
X37608Y-29050D01*
X37609Y-29050D01*
X38200Y-29050D01*
X38249Y-29050D01*
X38849Y-29050D01*
X38849Y-29050D01*
X39050Y-29050D01*
X39050Y-28799D01*
X39050Y-28750D01*
X39050Y-28150D01*
X39050Y-28150D01*
X39050Y-27499D01*
X39050Y-27391D01*
X39050Y-29120D01*
X36050Y-29120D01*
X36050Y-28391D01*
X36050Y-28390D01*
X36050Y-27499D01*
X36050Y-27391D01*
X36050Y-9391D01*
X36050Y-9390D01*
X36050Y-8499D01*
X36050Y-8391D01*
X36050Y-8390D01*
X36050Y-7950D01*
X35499Y-7950D01*
X35391Y-7949D01*
X35390Y-7950D01*
X34499Y-7950D01*
X34391Y-7949D01*
X34390Y-7950D01*
X33950Y-7950D01*
X33950Y-8500D01*
X33949Y-8608D01*
X33950Y-8609D01*
X33950Y-9200D01*
X33949Y-9249D01*
X33949Y-9849D01*
X33950Y-9849D01*
X33950Y-10050D01*
X34200Y-10050D01*
X34249Y-10050D01*
X34849Y-10050D01*
X34849Y-10050D01*
X35500Y-10050D01*
X35608Y-10050D01*
X35609Y-10050D01*
X36050Y-10050D01*
X36050Y-9499D01*
X36050Y-9391D01*
X36050Y-27391D01*
X36050Y-27390D01*
X36050Y-26950D01*
X35675Y-26950D01*
X35675Y-15465D01*
X35610Y-15309D01*
X35491Y-15189D01*
X35334Y-15125D01*
X35165Y-15124D01*
X35009Y-15189D01*
X34889Y-15308D01*
X34825Y-15465D01*
X34824Y-15634D01*
X34889Y-15790D01*
X35008Y-15910D01*
X35165Y-15974D01*
X35334Y-15975D01*
X35490Y-15910D01*
X35610Y-15791D01*
X35674Y-15634D01*
X35675Y-15465D01*
X35675Y-26950D01*
X35499Y-26950D01*
X35391Y-26949D01*
X35390Y-26950D01*
X35325Y-26950D01*
X35325Y-24365D01*
X35260Y-24209D01*
X35141Y-24089D01*
X34984Y-24025D01*
X34815Y-24024D01*
X34659Y-24089D01*
X34625Y-24123D01*
X34625Y-22715D01*
X34560Y-22559D01*
X34441Y-22439D01*
X34284Y-22375D01*
X34115Y-22374D01*
X33959Y-22439D01*
X33839Y-22558D01*
X33775Y-22715D01*
X33774Y-22884D01*
X33839Y-23040D01*
X33958Y-23160D01*
X34115Y-23224D01*
X34284Y-23225D01*
X34440Y-23160D01*
X34560Y-23041D01*
X34624Y-22884D01*
X34625Y-22715D01*
X34625Y-24123D01*
X34539Y-24208D01*
X34475Y-24365D01*
X34474Y-24534D01*
X34539Y-24690D01*
X34658Y-24810D01*
X34815Y-24874D01*
X34984Y-24875D01*
X35140Y-24810D01*
X35260Y-24691D01*
X35324Y-24534D01*
X35325Y-24365D01*
X35325Y-26950D01*
X34499Y-26950D01*
X34391Y-26949D01*
X34390Y-26950D01*
X33950Y-26950D01*
X33950Y-27500D01*
X33949Y-27608D01*
X33950Y-27609D01*
X33950Y-28200D01*
X33949Y-28249D01*
X33949Y-28849D01*
X33950Y-28849D01*
X33950Y-29050D01*
X34200Y-29050D01*
X34249Y-29050D01*
X34849Y-29050D01*
X34849Y-29050D01*
X35500Y-29050D01*
X35608Y-29050D01*
X35609Y-29050D01*
X36050Y-29050D01*
X36050Y-28499D01*
X36050Y-28391D01*
X36050Y-29120D01*
X33225Y-29120D01*
X33225Y-24215D01*
X33160Y-24059D01*
X33041Y-23939D01*
X32884Y-23875D01*
X32715Y-23874D01*
X32559Y-23939D01*
X32439Y-24058D01*
X32375Y-24215D01*
X32374Y-24384D01*
X32439Y-24540D01*
X32558Y-24660D01*
X32715Y-24724D01*
X32884Y-24725D01*
X33040Y-24660D01*
X33160Y-24541D01*
X33224Y-24384D01*
X33225Y-24215D01*
X33225Y-29120D01*
X33025Y-29120D01*
X33025Y-25465D01*
X32960Y-25309D01*
X32841Y-25189D01*
X32684Y-25125D01*
X32515Y-25124D01*
X32359Y-25189D01*
X32239Y-25308D01*
X32175Y-25465D01*
X32175Y-17165D01*
X32175Y-15965D01*
X32110Y-15809D01*
X31991Y-15689D01*
X31834Y-15625D01*
X31665Y-15624D01*
X31625Y-15641D01*
X31625Y-13465D01*
X31560Y-13309D01*
X31441Y-13189D01*
X31284Y-13125D01*
X31115Y-13124D01*
X30959Y-13189D01*
X30839Y-13308D01*
X30775Y-13465D01*
X30774Y-13634D01*
X30839Y-13790D01*
X30958Y-13910D01*
X31115Y-13974D01*
X31284Y-13975D01*
X31440Y-13910D01*
X31560Y-13791D01*
X31624Y-13634D01*
X31625Y-13465D01*
X31625Y-15641D01*
X31525Y-15683D01*
X31525Y-14315D01*
X31460Y-14159D01*
X31341Y-14039D01*
X31184Y-13975D01*
X31015Y-13974D01*
X30859Y-14039D01*
X30739Y-14158D01*
X30675Y-14315D01*
X30674Y-14484D01*
X30739Y-14640D01*
X30858Y-14760D01*
X31015Y-14824D01*
X31184Y-14825D01*
X31340Y-14760D01*
X31460Y-14641D01*
X31524Y-14484D01*
X31525Y-14315D01*
X31525Y-15683D01*
X31509Y-15689D01*
X31389Y-15808D01*
X31325Y-15965D01*
X31324Y-16134D01*
X31389Y-16290D01*
X31508Y-16410D01*
X31665Y-16474D01*
X31834Y-16475D01*
X31990Y-16410D01*
X32110Y-16291D01*
X32174Y-16134D01*
X32175Y-15965D01*
X32175Y-17165D01*
X32110Y-17009D01*
X31991Y-16889D01*
X31834Y-16825D01*
X31665Y-16824D01*
X31509Y-16889D01*
X31389Y-17008D01*
X31325Y-17165D01*
X31324Y-17334D01*
X31389Y-17490D01*
X31508Y-17610D01*
X31665Y-17674D01*
X31834Y-17675D01*
X31990Y-17610D01*
X32110Y-17491D01*
X32174Y-17334D01*
X32175Y-17165D01*
X32175Y-25465D01*
X32174Y-25634D01*
X32239Y-25790D01*
X32358Y-25910D01*
X32515Y-25974D01*
X32684Y-25975D01*
X32840Y-25910D01*
X32960Y-25791D01*
X33024Y-25634D01*
X33025Y-25465D01*
X33025Y-29120D01*
X31850Y-29120D01*
X31850Y-28250D01*
X31850Y-27650D01*
X31812Y-27558D01*
X31741Y-27488D01*
X31649Y-27450D01*
X31575Y-27449D01*
X31575Y-21215D01*
X31510Y-21059D01*
X31391Y-20939D01*
X31234Y-20875D01*
X31065Y-20874D01*
X30909Y-20939D01*
X30789Y-21058D01*
X30725Y-21215D01*
X30724Y-21384D01*
X30789Y-21540D01*
X30908Y-21660D01*
X31065Y-21724D01*
X31234Y-21725D01*
X31390Y-21660D01*
X31510Y-21541D01*
X31574Y-21384D01*
X31575Y-21215D01*
X31575Y-27449D01*
X31550Y-27449D01*
X30950Y-27449D01*
X30858Y-27487D01*
X30788Y-27558D01*
X30750Y-27650D01*
X30749Y-27749D01*
X30749Y-28349D01*
X30787Y-28441D01*
X30858Y-28511D01*
X30950Y-28549D01*
X31049Y-28550D01*
X31649Y-28550D01*
X31741Y-28512D01*
X31811Y-28441D01*
X31849Y-28349D01*
X31850Y-28250D01*
X31850Y-29120D01*
X30250Y-29120D01*
X30250Y-28250D01*
X30250Y-27650D01*
X30212Y-27558D01*
X30141Y-27488D01*
X30049Y-27450D01*
X29950Y-27449D01*
X29475Y-27449D01*
X29475Y-13215D01*
X29410Y-13059D01*
X29291Y-12939D01*
X29134Y-12875D01*
X28965Y-12874D01*
X28809Y-12939D01*
X28689Y-13058D01*
X28625Y-13215D01*
X28624Y-13384D01*
X28689Y-13540D01*
X28808Y-13660D01*
X28965Y-13724D01*
X29134Y-13725D01*
X29290Y-13660D01*
X29410Y-13541D01*
X29474Y-13384D01*
X29475Y-13215D01*
X29475Y-27449D01*
X29350Y-27449D01*
X29258Y-27487D01*
X29188Y-27558D01*
X29150Y-27650D01*
X29149Y-27749D01*
X29149Y-28349D01*
X29187Y-28441D01*
X29258Y-28511D01*
X29350Y-28549D01*
X29449Y-28550D01*
X30049Y-28550D01*
X30141Y-28512D01*
X30211Y-28441D01*
X30249Y-28349D01*
X30250Y-28250D01*
X30250Y-29120D01*
X29054Y-29120D01*
X29054Y-22331D01*
X29050Y-22238D01*
X29050Y-21141D01*
X28966Y-20938D01*
X28950Y-20922D01*
X28950Y-20577D01*
X28965Y-20561D01*
X29049Y-20359D01*
X29050Y-20141D01*
X28966Y-19938D01*
X28950Y-19922D01*
X28950Y-19577D01*
X28965Y-19561D01*
X29049Y-19359D01*
X29050Y-19141D01*
X28966Y-18938D01*
X28950Y-18922D01*
X28950Y-18577D01*
X28965Y-18561D01*
X29049Y-18359D01*
X29050Y-18141D01*
X28966Y-17938D01*
X28950Y-17922D01*
X28950Y-17577D01*
X28965Y-17561D01*
X29049Y-17359D01*
X29050Y-17141D01*
X28966Y-16938D01*
X28950Y-16922D01*
X28950Y-16577D01*
X28965Y-16561D01*
X29049Y-16359D01*
X29050Y-16141D01*
X28966Y-15938D01*
X28950Y-15922D01*
X28950Y-15577D01*
X28965Y-15561D01*
X29049Y-15359D01*
X29050Y-15141D01*
X28966Y-14938D01*
X28950Y-14922D01*
X28950Y-14800D01*
X28827Y-14800D01*
X28811Y-14784D01*
X28609Y-14700D01*
X28391Y-14699D01*
X28188Y-14783D01*
X28172Y-14800D01*
X28003Y-14800D01*
X27941Y-14738D01*
X27849Y-14700D01*
X27750Y-14699D01*
X27612Y-14700D01*
X27550Y-14762D01*
X27550Y-15200D01*
X27557Y-15200D01*
X27557Y-15300D01*
X27550Y-15300D01*
X27550Y-15307D01*
X27450Y-15307D01*
X27450Y-15300D01*
X27450Y-15200D01*
X27450Y-14762D01*
X27387Y-14700D01*
X27249Y-14699D01*
X27150Y-14700D01*
X27058Y-14738D01*
X26987Y-14808D01*
X26949Y-14900D01*
X26950Y-15137D01*
X27012Y-15200D01*
X27450Y-15200D01*
X27450Y-15300D01*
X27012Y-15300D01*
X26950Y-15362D01*
X26949Y-15599D01*
X26987Y-15691D01*
X27050Y-15753D01*
X27050Y-15922D01*
X27034Y-15938D01*
X26950Y-16140D01*
X26949Y-16358D01*
X27033Y-16561D01*
X27050Y-16577D01*
X27050Y-16922D01*
X27034Y-16938D01*
X26950Y-17140D01*
X26949Y-17358D01*
X27033Y-17561D01*
X27050Y-17577D01*
X27050Y-17922D01*
X27034Y-17938D01*
X26950Y-18140D01*
X26949Y-18358D01*
X27033Y-18561D01*
X27050Y-18577D01*
X27050Y-18922D01*
X27034Y-18938D01*
X26950Y-19140D01*
X26949Y-19358D01*
X27033Y-19561D01*
X27050Y-19577D01*
X27050Y-19922D01*
X27034Y-19938D01*
X26950Y-20140D01*
X26949Y-20358D01*
X27033Y-20561D01*
X27050Y-20577D01*
X27050Y-20922D01*
X27034Y-20938D01*
X26950Y-21140D01*
X26949Y-21358D01*
X27033Y-21561D01*
X27050Y-21577D01*
X27050Y-21922D01*
X27034Y-21938D01*
X26950Y-22140D01*
X26949Y-22358D01*
X27033Y-22561D01*
X27050Y-22577D01*
X27050Y-22700D01*
X27172Y-22700D01*
X27188Y-22715D01*
X27390Y-22799D01*
X27608Y-22800D01*
X27811Y-22716D01*
X27827Y-22700D01*
X28050Y-22700D01*
X28050Y-22546D01*
X28114Y-22565D01*
X28429Y-22250D01*
X28114Y-21934D01*
X28050Y-21953D01*
X28050Y-21800D01*
X28203Y-21800D01*
X28184Y-21864D01*
X28500Y-22179D01*
X28815Y-21864D01*
X28796Y-21800D01*
X28950Y-21800D01*
X28950Y-21577D01*
X28965Y-21561D01*
X29049Y-21359D01*
X29050Y-21141D01*
X29050Y-22238D01*
X29043Y-22113D01*
X28981Y-21962D01*
X28885Y-21934D01*
X28570Y-22250D01*
X28885Y-22565D01*
X28981Y-22537D01*
X29054Y-22331D01*
X29054Y-29120D01*
X28815Y-29120D01*
X28815Y-22635D01*
X28500Y-22320D01*
X28184Y-22635D01*
X28212Y-22731D01*
X28418Y-22804D01*
X28636Y-22793D01*
X28787Y-22731D01*
X28815Y-22635D01*
X28815Y-29120D01*
X28050Y-29120D01*
X28050Y-26141D01*
X28050Y-26140D01*
X28050Y-25700D01*
X27499Y-25700D01*
X27391Y-25699D01*
X27390Y-25700D01*
X26499Y-25700D01*
X26391Y-25699D01*
X26390Y-25700D01*
X25499Y-25700D01*
X25391Y-25699D01*
X25390Y-25700D01*
X24675Y-25700D01*
X24675Y-13215D01*
X24610Y-13059D01*
X24491Y-12939D01*
X24334Y-12875D01*
X24175Y-12874D01*
X24175Y-9915D01*
X24110Y-9759D01*
X23991Y-9639D01*
X23834Y-9575D01*
X23665Y-9574D01*
X23509Y-9639D01*
X23389Y-9758D01*
X23325Y-9915D01*
X23324Y-10084D01*
X23389Y-10240D01*
X23508Y-10360D01*
X23665Y-10424D01*
X23834Y-10425D01*
X23990Y-10360D01*
X24110Y-10241D01*
X24174Y-10084D01*
X24175Y-9915D01*
X24175Y-12874D01*
X24165Y-12874D01*
X24096Y-12903D01*
X24124Y-12834D01*
X24125Y-12665D01*
X24060Y-12509D01*
X23941Y-12389D01*
X23784Y-12325D01*
X23615Y-12324D01*
X23575Y-12341D01*
X23575Y-11915D01*
X23510Y-11759D01*
X23391Y-11639D01*
X23234Y-11575D01*
X23065Y-11574D01*
X23050Y-11581D01*
X23050Y-9391D01*
X23050Y-9390D01*
X23050Y-8499D01*
X23050Y-8391D01*
X23050Y-8390D01*
X23050Y-7950D01*
X22499Y-7950D01*
X22391Y-7949D01*
X22390Y-7950D01*
X21499Y-7950D01*
X21391Y-7949D01*
X21390Y-7950D01*
X20499Y-7950D01*
X20391Y-7949D01*
X20390Y-7950D01*
X19499Y-7950D01*
X19391Y-7949D01*
X19390Y-7950D01*
X18499Y-7950D01*
X18391Y-7949D01*
X18390Y-7950D01*
X17499Y-7950D01*
X17391Y-7949D01*
X17390Y-7950D01*
X16499Y-7950D01*
X16391Y-7949D01*
X16390Y-7950D01*
X15499Y-7950D01*
X15391Y-7949D01*
X15390Y-7950D01*
X14499Y-7950D01*
X14391Y-7949D01*
X14390Y-7950D01*
X13499Y-7950D01*
X13391Y-7949D01*
X13390Y-7950D01*
X12950Y-7950D01*
X12950Y-8500D01*
X12949Y-8608D01*
X12950Y-8609D01*
X12950Y-9200D01*
X12949Y-9249D01*
X12949Y-9849D01*
X12950Y-9849D01*
X12950Y-10050D01*
X13200Y-10050D01*
X13249Y-10050D01*
X13849Y-10050D01*
X13849Y-10050D01*
X14500Y-10050D01*
X14608Y-10050D01*
X14609Y-10050D01*
X15500Y-10050D01*
X15608Y-10050D01*
X15609Y-10050D01*
X16500Y-10050D01*
X16608Y-10050D01*
X16609Y-10050D01*
X17500Y-10050D01*
X17608Y-10050D01*
X17609Y-10050D01*
X18500Y-10050D01*
X18608Y-10050D01*
X18609Y-10050D01*
X19500Y-10050D01*
X19608Y-10050D01*
X19609Y-10050D01*
X20500Y-10050D01*
X20608Y-10050D01*
X20609Y-10050D01*
X21500Y-10050D01*
X21608Y-10050D01*
X21609Y-10050D01*
X22500Y-10050D01*
X22608Y-10050D01*
X22609Y-10050D01*
X23050Y-10050D01*
X23050Y-9499D01*
X23050Y-9391D01*
X23050Y-11581D01*
X22909Y-11639D01*
X22789Y-11758D01*
X22725Y-11915D01*
X22724Y-12084D01*
X22789Y-12240D01*
X22908Y-12360D01*
X23065Y-12424D01*
X23234Y-12425D01*
X23390Y-12360D01*
X23510Y-12241D01*
X23574Y-12084D01*
X23575Y-11915D01*
X23575Y-12341D01*
X23459Y-12389D01*
X23339Y-12508D01*
X23275Y-12665D01*
X23274Y-12834D01*
X23339Y-12990D01*
X23458Y-13110D01*
X23615Y-13174D01*
X23784Y-13175D01*
X23853Y-13146D01*
X23825Y-13215D01*
X23824Y-13384D01*
X23889Y-13540D01*
X23924Y-13574D01*
X23839Y-13658D01*
X23775Y-13815D01*
X23774Y-13984D01*
X23839Y-14140D01*
X23958Y-14260D01*
X24115Y-14324D01*
X24284Y-14325D01*
X24440Y-14260D01*
X24560Y-14141D01*
X24624Y-13984D01*
X24625Y-13815D01*
X24560Y-13659D01*
X24525Y-13625D01*
X24610Y-13541D01*
X24674Y-13384D01*
X24675Y-13215D01*
X24675Y-25700D01*
X24499Y-25700D01*
X24391Y-25699D01*
X24390Y-25700D01*
X23499Y-25700D01*
X23391Y-25699D01*
X23390Y-25700D01*
X22799Y-25700D01*
X22750Y-25699D01*
X22150Y-25699D01*
X22150Y-25700D01*
X21950Y-25700D01*
X21950Y-25950D01*
X21949Y-25999D01*
X21949Y-26599D01*
X21950Y-26599D01*
X21950Y-26800D01*
X22200Y-26800D01*
X22249Y-26800D01*
X22849Y-26800D01*
X22849Y-26800D01*
X23500Y-26800D01*
X23608Y-26800D01*
X23609Y-26800D01*
X24500Y-26800D01*
X24608Y-26800D01*
X24609Y-26800D01*
X25500Y-26800D01*
X25608Y-26800D01*
X25609Y-26800D01*
X26500Y-26800D01*
X26608Y-26800D01*
X26609Y-26800D01*
X27500Y-26800D01*
X27608Y-26800D01*
X27609Y-26800D01*
X28050Y-26800D01*
X28050Y-26249D01*
X28050Y-26141D01*
X28050Y-29120D01*
X23050Y-29120D01*
X23050Y-28391D01*
X23050Y-28390D01*
X23050Y-27499D01*
X23050Y-27391D01*
X23050Y-27390D01*
X23050Y-26950D01*
X22499Y-26950D01*
X22391Y-26949D01*
X22390Y-26950D01*
X21675Y-26950D01*
X21675Y-13415D01*
X21610Y-13259D01*
X21491Y-13139D01*
X21334Y-13075D01*
X21165Y-13074D01*
X21009Y-13139D01*
X20889Y-13258D01*
X20825Y-13415D01*
X20824Y-13584D01*
X20889Y-13740D01*
X21008Y-13860D01*
X21165Y-13924D01*
X21334Y-13925D01*
X21490Y-13860D01*
X21610Y-13741D01*
X21674Y-13584D01*
X21675Y-13415D01*
X21675Y-26950D01*
X21499Y-26950D01*
X21391Y-26949D01*
X21390Y-26950D01*
X20499Y-26950D01*
X20391Y-26949D01*
X20390Y-26950D01*
X19499Y-26950D01*
X19391Y-26949D01*
X19390Y-26950D01*
X18925Y-26950D01*
X18925Y-17015D01*
X18925Y-16115D01*
X18860Y-15959D01*
X18741Y-15839D01*
X18584Y-15775D01*
X18415Y-15774D01*
X18259Y-15839D01*
X18139Y-15958D01*
X18075Y-16115D01*
X18074Y-16284D01*
X18139Y-16440D01*
X18258Y-16560D01*
X18415Y-16624D01*
X18584Y-16625D01*
X18740Y-16560D01*
X18860Y-16441D01*
X18924Y-16284D01*
X18925Y-16115D01*
X18925Y-17015D01*
X18860Y-16859D01*
X18741Y-16739D01*
X18584Y-16675D01*
X18415Y-16674D01*
X18259Y-16739D01*
X18139Y-16858D01*
X18075Y-17015D01*
X18074Y-17184D01*
X18139Y-17340D01*
X18258Y-17460D01*
X18415Y-17524D01*
X18584Y-17525D01*
X18740Y-17460D01*
X18860Y-17341D01*
X18924Y-17184D01*
X18925Y-17015D01*
X18925Y-26950D01*
X18499Y-26950D01*
X18391Y-26949D01*
X18390Y-26950D01*
X17499Y-26950D01*
X17475Y-26949D01*
X17475Y-23115D01*
X17410Y-22959D01*
X17291Y-22839D01*
X17134Y-22775D01*
X16965Y-22774D01*
X16809Y-22839D01*
X16689Y-22958D01*
X16625Y-23115D01*
X16624Y-23284D01*
X16689Y-23440D01*
X16808Y-23560D01*
X16965Y-23624D01*
X17134Y-23625D01*
X17290Y-23560D01*
X17410Y-23441D01*
X17474Y-23284D01*
X17475Y-23115D01*
X17475Y-26949D01*
X17391Y-26949D01*
X17390Y-26950D01*
X16499Y-26950D01*
X16391Y-26949D01*
X16390Y-26950D01*
X15499Y-26950D01*
X15391Y-26949D01*
X15390Y-26950D01*
X14950Y-26950D01*
X14950Y-27203D01*
X14885Y-27184D01*
X14815Y-27255D01*
X14815Y-27114D01*
X14787Y-27018D01*
X14581Y-26945D01*
X14363Y-26956D01*
X14212Y-27018D01*
X14184Y-27114D01*
X14500Y-27429D01*
X14815Y-27114D01*
X14815Y-27255D01*
X14570Y-27500D01*
X14885Y-27815D01*
X14950Y-27796D01*
X14950Y-28203D01*
X14885Y-28184D01*
X14815Y-28255D01*
X14815Y-28114D01*
X14787Y-28018D01*
X14739Y-28001D01*
X14787Y-27981D01*
X14815Y-27885D01*
X14500Y-27570D01*
X14184Y-27885D01*
X14212Y-27981D01*
X14260Y-27998D01*
X14212Y-28018D01*
X14184Y-28114D01*
X14500Y-28429D01*
X14815Y-28114D01*
X14815Y-28255D01*
X14570Y-28500D01*
X14885Y-28815D01*
X14950Y-28796D01*
X14950Y-29050D01*
X15500Y-29050D01*
X15608Y-29050D01*
X15609Y-29050D01*
X16500Y-29050D01*
X16608Y-29050D01*
X16609Y-29050D01*
X17500Y-29050D01*
X17608Y-29050D01*
X17609Y-29050D01*
X18500Y-29050D01*
X18608Y-29050D01*
X18609Y-29050D01*
X19500Y-29050D01*
X19608Y-29050D01*
X19609Y-29050D01*
X20500Y-29050D01*
X20608Y-29050D01*
X20609Y-29050D01*
X21500Y-29050D01*
X21608Y-29050D01*
X21609Y-29050D01*
X22500Y-29050D01*
X22608Y-29050D01*
X22609Y-29050D01*
X23050Y-29050D01*
X23050Y-28499D01*
X23050Y-28391D01*
X23050Y-29120D01*
X14815Y-29120D01*
X14815Y-28885D01*
X14500Y-28570D01*
X14429Y-28641D01*
X14429Y-28500D01*
X14114Y-28184D01*
X14050Y-28203D01*
X14050Y-28150D01*
X14050Y-28150D01*
X14050Y-27796D01*
X14114Y-27815D01*
X14429Y-27500D01*
X14114Y-27184D01*
X14050Y-27203D01*
X14050Y-26950D01*
X13499Y-26950D01*
X13391Y-26949D01*
X13390Y-26950D01*
X12950Y-26950D01*
X12950Y-27500D01*
X12949Y-27608D01*
X12950Y-27609D01*
X12950Y-28200D01*
X12949Y-28249D01*
X12949Y-28849D01*
X12950Y-28849D01*
X12950Y-29050D01*
X13200Y-29050D01*
X13249Y-29050D01*
X13849Y-29050D01*
X13849Y-29050D01*
X14050Y-29050D01*
X14050Y-28799D01*
X14050Y-28796D01*
X14114Y-28815D01*
X14429Y-28500D01*
X14429Y-28641D01*
X14184Y-28885D01*
X14212Y-28981D01*
X14418Y-29054D01*
X14636Y-29043D01*
X14787Y-28981D01*
X14815Y-28885D01*
X14815Y-29120D01*
X12879Y-29120D01*
X12879Y-26879D01*
X14200Y-26879D01*
X14306Y-26858D01*
X14394Y-26800D01*
X14550Y-26800D01*
X14550Y-10200D01*
X14394Y-10200D01*
X14306Y-10141D01*
X14200Y-10120D01*
X12879Y-10120D01*
X12879Y-7879D01*
X39120Y-7879D01*
X39120Y-29120D01*
X39120Y-29120D01*
G37*
G54D14*
X39120Y-29120D02*
X39050Y-29120D01*
X39050Y-27391D01*
X39050Y-27390D01*
X39050Y-26499D01*
X39050Y-26391D01*
X39050Y-26390D01*
X39050Y-25499D01*
X39050Y-25391D01*
X39050Y-25390D01*
X39050Y-24499D01*
X39050Y-24391D01*
X39050Y-11391D01*
X39050Y-11390D01*
X39050Y-10499D01*
X39050Y-10391D01*
X39050Y-10390D01*
X39050Y-9499D01*
X39050Y-9391D01*
X39050Y-9390D01*
X39050Y-8499D01*
X39050Y-8391D01*
X39050Y-8390D01*
X39050Y-7950D01*
X38499Y-7950D01*
X38391Y-7949D01*
X38390Y-7950D01*
X37499Y-7950D01*
X37391Y-7949D01*
X37390Y-7950D01*
X36950Y-7950D01*
X36950Y-8500D01*
X36949Y-8608D01*
X36950Y-8609D01*
X36950Y-9500D01*
X36949Y-9608D01*
X36950Y-9609D01*
X36950Y-10500D01*
X36949Y-10608D01*
X36950Y-10609D01*
X36950Y-11500D01*
X36949Y-11608D01*
X36950Y-11609D01*
X36950Y-12500D01*
X36949Y-12608D01*
X36950Y-12609D01*
X36950Y-13050D01*
X37500Y-13050D01*
X37608Y-13050D01*
X37609Y-13050D01*
X38200Y-13050D01*
X38249Y-13050D01*
X38849Y-13050D01*
X38849Y-13050D01*
X39050Y-13050D01*
X39050Y-12799D01*
X39050Y-12750D01*
X39050Y-12150D01*
X39050Y-12150D01*
X39050Y-11499D01*
X39050Y-11391D01*
X39050Y-24391D01*
X39050Y-24390D01*
X39050Y-23950D01*
X38499Y-23950D01*
X38475Y-23949D01*
X38475Y-16265D01*
X38410Y-16109D01*
X38291Y-15989D01*
X38134Y-15925D01*
X38008Y-15924D01*
X38024Y-15884D01*
X38025Y-15715D01*
X37960Y-15559D01*
X37841Y-15439D01*
X37684Y-15375D01*
X37515Y-15374D01*
X37359Y-15439D01*
X37239Y-15558D01*
X37175Y-15715D01*
X37174Y-15884D01*
X37193Y-15928D01*
X37184Y-15925D01*
X37015Y-15924D01*
X36946Y-15953D01*
X36974Y-15884D01*
X36975Y-15715D01*
X36910Y-15559D01*
X36791Y-15439D01*
X36634Y-15375D01*
X36465Y-15374D01*
X36309Y-15439D01*
X36189Y-15558D01*
X36125Y-15715D01*
X36124Y-15884D01*
X36189Y-16040D01*
X36308Y-16160D01*
X36465Y-16224D01*
X36634Y-16225D01*
X36703Y-16196D01*
X36675Y-16265D01*
X36674Y-16434D01*
X36739Y-16590D01*
X36858Y-16710D01*
X37015Y-16774D01*
X37184Y-16775D01*
X37340Y-16710D01*
X37460Y-16591D01*
X37524Y-16434D01*
X37525Y-16265D01*
X37506Y-16221D01*
X37515Y-16224D01*
X37641Y-16225D01*
X37625Y-16265D01*
X37624Y-16434D01*
X37689Y-16590D01*
X37808Y-16710D01*
X37965Y-16774D01*
X38134Y-16775D01*
X38290Y-16710D01*
X38410Y-16591D01*
X38474Y-16434D01*
X38475Y-16265D01*
X38475Y-23949D01*
X38391Y-23949D01*
X38390Y-23950D01*
X37499Y-23950D01*
X37391Y-23949D01*
X37390Y-23950D01*
X36950Y-23950D01*
X36950Y-24500D01*
X36949Y-24608D01*
X36950Y-24609D01*
X36950Y-25500D01*
X36949Y-25608D01*
X36950Y-25609D01*
X36950Y-26500D01*
X36949Y-26608D01*
X36950Y-26609D01*
X36950Y-27500D01*
X36949Y-27608D01*
X36950Y-27609D01*
X36950Y-28500D01*
X36949Y-28608D01*
X36950Y-28609D01*
X36950Y-29050D01*
X37500Y-29050D01*
X37608Y-29050D01*
X37609Y-29050D01*
X38200Y-29050D01*
X38249Y-29050D01*
X38849Y-29050D01*
X38849Y-29050D01*
X39050Y-29050D01*
X39050Y-28799D01*
X39050Y-28750D01*
X39050Y-28150D01*
X39050Y-28150D01*
X39050Y-27499D01*
X39050Y-27391D01*
X39050Y-29120D01*
X36050Y-29120D01*
X36050Y-28391D01*
X36050Y-28390D01*
X36050Y-27499D01*
X36050Y-27391D01*
X36050Y-9391D01*
X36050Y-9390D01*
X36050Y-8499D01*
X36050Y-8391D01*
X36050Y-8390D01*
X36050Y-7950D01*
X35499Y-7950D01*
X35391Y-7949D01*
X35390Y-7950D01*
X34499Y-7950D01*
X34391Y-7949D01*
X34390Y-7950D01*
X33950Y-7950D01*
X33950Y-8500D01*
X33949Y-8608D01*
X33950Y-8609D01*
X33950Y-9200D01*
X33949Y-9249D01*
X33949Y-9849D01*
X33950Y-9849D01*
X33950Y-10050D01*
X34200Y-10050D01*
X34249Y-10050D01*
X34849Y-10050D01*
X34849Y-10050D01*
X35500Y-10050D01*
X35608Y-10050D01*
X35609Y-10050D01*
X36050Y-10050D01*
X36050Y-9499D01*
X36050Y-9391D01*
X36050Y-27391D01*
X36050Y-27390D01*
X36050Y-26950D01*
X35675Y-26950D01*
X35675Y-15465D01*
X35610Y-15309D01*
X35491Y-15189D01*
X35334Y-15125D01*
X35165Y-15124D01*
X35009Y-15189D01*
X34889Y-15308D01*
X34825Y-15465D01*
X34824Y-15634D01*
X34889Y-15790D01*
X35008Y-15910D01*
X35165Y-15974D01*
X35334Y-15975D01*
X35490Y-15910D01*
X35610Y-15791D01*
X35674Y-15634D01*
X35675Y-15465D01*
X35675Y-26950D01*
X35499Y-26950D01*
X35391Y-26949D01*
X35390Y-26950D01*
X35325Y-26950D01*
X35325Y-24365D01*
X35260Y-24209D01*
X35141Y-24089D01*
X34984Y-24025D01*
X34815Y-24024D01*
X34659Y-24089D01*
X34625Y-24123D01*
X34625Y-22715D01*
X34560Y-22559D01*
X34441Y-22439D01*
X34284Y-22375D01*
X34115Y-22374D01*
X33959Y-22439D01*
X33839Y-22558D01*
X33775Y-22715D01*
X33774Y-22884D01*
X33839Y-23040D01*
X33958Y-23160D01*
X34115Y-23224D01*
X34284Y-23225D01*
X34440Y-23160D01*
X34560Y-23041D01*
X34624Y-22884D01*
X34625Y-22715D01*
X34625Y-24123D01*
X34539Y-24208D01*
X34475Y-24365D01*
X34474Y-24534D01*
X34539Y-24690D01*
X34658Y-24810D01*
X34815Y-24874D01*
X34984Y-24875D01*
X35140Y-24810D01*
X35260Y-24691D01*
X35324Y-24534D01*
X35325Y-24365D01*
X35325Y-26950D01*
X34499Y-26950D01*
X34391Y-26949D01*
X34390Y-26950D01*
X33950Y-26950D01*
X33950Y-27500D01*
X33949Y-27608D01*
X33950Y-27609D01*
X33950Y-28200D01*
X33949Y-28249D01*
X33949Y-28849D01*
X33950Y-28849D01*
X33950Y-29050D01*
X34200Y-29050D01*
X34249Y-29050D01*
X34849Y-29050D01*
X34849Y-29050D01*
X35500Y-29050D01*
X35608Y-29050D01*
X35609Y-29050D01*
X36050Y-29050D01*
X36050Y-28499D01*
X36050Y-28391D01*
X36050Y-29120D01*
X33225Y-29120D01*
X33225Y-24215D01*
X33160Y-24059D01*
X33041Y-23939D01*
X32884Y-23875D01*
X32715Y-23874D01*
X32559Y-23939D01*
X32439Y-24058D01*
X32375Y-24215D01*
X32374Y-24384D01*
X32439Y-24540D01*
X32558Y-24660D01*
X32715Y-24724D01*
X32884Y-24725D01*
X33040Y-24660D01*
X33160Y-24541D01*
X33224Y-24384D01*
X33225Y-24215D01*
X33225Y-29120D01*
X33025Y-29120D01*
X33025Y-25465D01*
X32960Y-25309D01*
X32841Y-25189D01*
X32684Y-25125D01*
X32515Y-25124D01*
X32359Y-25189D01*
X32239Y-25308D01*
X32175Y-25465D01*
X32175Y-17165D01*
X32175Y-15965D01*
X32110Y-15809D01*
X31991Y-15689D01*
X31834Y-15625D01*
X31665Y-15624D01*
X31625Y-15641D01*
X31625Y-13465D01*
X31560Y-13309D01*
X31441Y-13189D01*
X31284Y-13125D01*
X31115Y-13124D01*
X30959Y-13189D01*
X30839Y-13308D01*
X30775Y-13465D01*
X30774Y-13634D01*
X30839Y-13790D01*
X30958Y-13910D01*
X31115Y-13974D01*
X31284Y-13975D01*
X31440Y-13910D01*
X31560Y-13791D01*
X31624Y-13634D01*
X31625Y-13465D01*
X31625Y-15641D01*
X31525Y-15683D01*
X31525Y-14315D01*
X31460Y-14159D01*
X31341Y-14039D01*
X31184Y-13975D01*
X31015Y-13974D01*
X30859Y-14039D01*
X30739Y-14158D01*
X30675Y-14315D01*
X30674Y-14484D01*
X30739Y-14640D01*
X30858Y-14760D01*
X31015Y-14824D01*
X31184Y-14825D01*
X31340Y-14760D01*
X31460Y-14641D01*
X31524Y-14484D01*
X31525Y-14315D01*
X31525Y-15683D01*
X31509Y-15689D01*
X31389Y-15808D01*
X31325Y-15965D01*
X31324Y-16134D01*
X31389Y-16290D01*
X31508Y-16410D01*
X31665Y-16474D01*
X31834Y-16475D01*
X31990Y-16410D01*
X32110Y-16291D01*
X32174Y-16134D01*
X32175Y-15965D01*
X32175Y-17165D01*
X32110Y-17009D01*
X31991Y-16889D01*
X31834Y-16825D01*
X31665Y-16824D01*
X31509Y-16889D01*
X31389Y-17008D01*
X31325Y-17165D01*
X31324Y-17334D01*
X31389Y-17490D01*
X31508Y-17610D01*
X31665Y-17674D01*
X31834Y-17675D01*
X31990Y-17610D01*
X32110Y-17491D01*
X32174Y-17334D01*
X32175Y-17165D01*
X32175Y-25465D01*
X32174Y-25634D01*
X32239Y-25790D01*
X32358Y-25910D01*
X32515Y-25974D01*
X32684Y-25975D01*
X32840Y-25910D01*
X32960Y-25791D01*
X33024Y-25634D01*
X33025Y-25465D01*
X33025Y-29120D01*
X31850Y-29120D01*
X31850Y-28250D01*
X31850Y-27650D01*
X31812Y-27558D01*
X31741Y-27488D01*
X31649Y-27450D01*
X31575Y-27449D01*
X31575Y-21215D01*
X31510Y-21059D01*
X31391Y-20939D01*
X31234Y-20875D01*
X31065Y-20874D01*
X30909Y-20939D01*
X30789Y-21058D01*
X30725Y-21215D01*
X30724Y-21384D01*
X30789Y-21540D01*
X30908Y-21660D01*
X31065Y-21724D01*
X31234Y-21725D01*
X31390Y-21660D01*
X31510Y-21541D01*
X31574Y-21384D01*
X31575Y-21215D01*
X31575Y-27449D01*
X31550Y-27449D01*
X30950Y-27449D01*
X30858Y-27487D01*
X30788Y-27558D01*
X30750Y-27650D01*
X30749Y-27749D01*
X30749Y-28349D01*
X30787Y-28441D01*
X30858Y-28511D01*
X30950Y-28549D01*
X31049Y-28550D01*
X31649Y-28550D01*
X31741Y-28512D01*
X31811Y-28441D01*
X31849Y-28349D01*
X31850Y-28250D01*
X31850Y-29120D01*
X30250Y-29120D01*
X30250Y-28250D01*
X30250Y-27650D01*
X30212Y-27558D01*
X30141Y-27488D01*
X30049Y-27450D01*
X29950Y-27449D01*
X29475Y-27449D01*
X29475Y-13215D01*
X29410Y-13059D01*
X29291Y-12939D01*
X29134Y-12875D01*
X28965Y-12874D01*
X28809Y-12939D01*
X28689Y-13058D01*
X28625Y-13215D01*
X28624Y-13384D01*
X28689Y-13540D01*
X28808Y-13660D01*
X28965Y-13724D01*
X29134Y-13725D01*
X29290Y-13660D01*
X29410Y-13541D01*
X29474Y-13384D01*
X29475Y-13215D01*
X29475Y-27449D01*
X29350Y-27449D01*
X29258Y-27487D01*
X29188Y-27558D01*
X29150Y-27650D01*
X29149Y-27749D01*
X29149Y-28349D01*
X29187Y-28441D01*
X29258Y-28511D01*
X29350Y-28549D01*
X29449Y-28550D01*
X30049Y-28550D01*
X30141Y-28512D01*
X30211Y-28441D01*
X30249Y-28349D01*
X30250Y-28250D01*
X30250Y-29120D01*
X29054Y-29120D01*
X29054Y-22331D01*
X29050Y-22238D01*
X29050Y-21141D01*
X28966Y-20938D01*
X28950Y-20922D01*
X28950Y-20577D01*
X28965Y-20561D01*
X29049Y-20359D01*
X29050Y-20141D01*
X28966Y-19938D01*
X28950Y-19922D01*
X28950Y-19577D01*
X28965Y-19561D01*
X29049Y-19359D01*
X29050Y-19141D01*
X28966Y-18938D01*
X28950Y-18922D01*
X28950Y-18577D01*
X28965Y-18561D01*
X29049Y-18359D01*
X29050Y-18141D01*
X28966Y-17938D01*
X28950Y-17922D01*
X28950Y-17577D01*
X28965Y-17561D01*
X29049Y-17359D01*
X29050Y-17141D01*
X28966Y-16938D01*
X28950Y-16922D01*
X28950Y-16577D01*
X28965Y-16561D01*
X29049Y-16359D01*
X29050Y-16141D01*
X28966Y-15938D01*
X28950Y-15922D01*
X28950Y-15577D01*
X28965Y-15561D01*
X29049Y-15359D01*
X29050Y-15141D01*
X28966Y-14938D01*
X28950Y-14922D01*
X28950Y-14800D01*
X28827Y-14800D01*
X28811Y-14784D01*
X28609Y-14700D01*
X28391Y-14699D01*
X28188Y-14783D01*
X28172Y-14800D01*
X28003Y-14800D01*
X27941Y-14738D01*
X27849Y-14700D01*
X27750Y-14699D01*
X27612Y-14700D01*
X27550Y-14762D01*
X27550Y-15200D01*
X27557Y-15200D01*
X27557Y-15300D01*
X27550Y-15300D01*
X27550Y-15307D01*
X27450Y-15307D01*
X27450Y-15300D01*
X27450Y-15200D01*
X27450Y-14762D01*
X27387Y-14700D01*
X27249Y-14699D01*
X27150Y-14700D01*
X27058Y-14738D01*
X26987Y-14808D01*
X26949Y-14900D01*
X26950Y-15137D01*
X27012Y-15200D01*
X27450Y-15200D01*
X27450Y-15300D01*
X27012Y-15300D01*
X26950Y-15362D01*
X26949Y-15599D01*
X26987Y-15691D01*
X27050Y-15753D01*
X27050Y-15922D01*
X27034Y-15938D01*
X26950Y-16140D01*
X26949Y-16358D01*
X27033Y-16561D01*
X27050Y-16577D01*
X27050Y-16922D01*
X27034Y-16938D01*
X26950Y-17140D01*
X26949Y-17358D01*
X27033Y-17561D01*
X27050Y-17577D01*
X27050Y-17922D01*
X27034Y-17938D01*
X26950Y-18140D01*
X26949Y-18358D01*
X27033Y-18561D01*
X27050Y-18577D01*
X27050Y-18922D01*
X27034Y-18938D01*
X26950Y-19140D01*
X26949Y-19358D01*
X27033Y-19561D01*
X27050Y-19577D01*
X27050Y-19922D01*
X27034Y-19938D01*
X26950Y-20140D01*
X26949Y-20358D01*
X27033Y-20561D01*
X27050Y-20577D01*
X27050Y-20922D01*
X27034Y-20938D01*
X26950Y-21140D01*
X26949Y-21358D01*
X27033Y-21561D01*
X27050Y-21577D01*
X27050Y-21922D01*
X27034Y-21938D01*
X26950Y-22140D01*
X26949Y-22358D01*
X27033Y-22561D01*
X27050Y-22577D01*
X27050Y-22700D01*
X27172Y-22700D01*
X27188Y-22715D01*
X27390Y-22799D01*
X27608Y-22800D01*
X27811Y-22716D01*
X27827Y-22700D01*
X28050Y-22700D01*
X28050Y-22546D01*
X28114Y-22565D01*
X28429Y-22250D01*
X28114Y-21934D01*
X28050Y-21953D01*
X28050Y-21800D01*
X28203Y-21800D01*
X28184Y-21864D01*
X28500Y-22179D01*
X28815Y-21864D01*
X28796Y-21800D01*
X28950Y-21800D01*
X28950Y-21577D01*
X28965Y-21561D01*
X29049Y-21359D01*
X29050Y-21141D01*
X29050Y-22238D01*
X29043Y-22113D01*
X28981Y-21962D01*
X28885Y-21934D01*
X28570Y-22250D01*
X28885Y-22565D01*
X28981Y-22537D01*
X29054Y-22331D01*
X29054Y-29120D01*
X28815Y-29120D01*
X28815Y-22635D01*
X28500Y-22320D01*
X28184Y-22635D01*
X28212Y-22731D01*
X28418Y-22804D01*
X28636Y-22793D01*
X28787Y-22731D01*
X28815Y-22635D01*
X28815Y-29120D01*
X28050Y-29120D01*
X28050Y-26141D01*
X28050Y-26140D01*
X28050Y-25700D01*
X27499Y-25700D01*
X27391Y-25699D01*
X27390Y-25700D01*
X26499Y-25700D01*
X26391Y-25699D01*
X26390Y-25700D01*
X25499Y-25700D01*
X25391Y-25699D01*
X25390Y-25700D01*
X24675Y-25700D01*
X24675Y-13215D01*
X24610Y-13059D01*
X24491Y-12939D01*
X24334Y-12875D01*
X24175Y-12874D01*
X24175Y-9915D01*
X24110Y-9759D01*
X23991Y-9639D01*
X23834Y-9575D01*
X23665Y-9574D01*
X23509Y-9639D01*
X23389Y-9758D01*
X23325Y-9915D01*
X23324Y-10084D01*
X23389Y-10240D01*
X23508Y-10360D01*
X23665Y-10424D01*
X23834Y-10425D01*
X23990Y-10360D01*
X24110Y-10241D01*
X24174Y-10084D01*
X24175Y-9915D01*
X24175Y-12874D01*
X24165Y-12874D01*
X24096Y-12903D01*
X24124Y-12834D01*
X24125Y-12665D01*
X24060Y-12509D01*
X23941Y-12389D01*
X23784Y-12325D01*
X23615Y-12324D01*
X23575Y-12341D01*
X23575Y-11915D01*
X23510Y-11759D01*
X23391Y-11639D01*
X23234Y-11575D01*
X23065Y-11574D01*
X23050Y-11581D01*
X23050Y-9391D01*
X23050Y-9390D01*
X23050Y-8499D01*
X23050Y-8391D01*
X23050Y-8390D01*
X23050Y-7950D01*
X22499Y-7950D01*
X22391Y-7949D01*
X22390Y-7950D01*
X21499Y-7950D01*
X21391Y-7949D01*
X21390Y-7950D01*
X20499Y-7950D01*
X20391Y-7949D01*
X20390Y-7950D01*
X19499Y-7950D01*
X19391Y-7949D01*
X19390Y-7950D01*
X18499Y-7950D01*
X18391Y-7949D01*
X18390Y-7950D01*
X17499Y-7950D01*
X17391Y-7949D01*
X17390Y-7950D01*
X16499Y-7950D01*
X16391Y-7949D01*
X16390Y-7950D01*
X15499Y-7950D01*
X15391Y-7949D01*
X15390Y-7950D01*
X14499Y-7950D01*
X14391Y-7949D01*
X14390Y-7950D01*
X13499Y-7950D01*
X13391Y-7949D01*
X13390Y-7950D01*
X12950Y-7950D01*
X12950Y-8500D01*
X12949Y-8608D01*
X12950Y-8609D01*
X12950Y-9200D01*
X12949Y-9249D01*
X12949Y-9849D01*
X12950Y-9849D01*
X12950Y-10050D01*
X13200Y-10050D01*
X13249Y-10050D01*
X13849Y-10050D01*
X13849Y-10050D01*
X14500Y-10050D01*
X14608Y-10050D01*
X14609Y-10050D01*
X15500Y-10050D01*
X15608Y-10050D01*
X15609Y-10050D01*
X16500Y-10050D01*
X16608Y-10050D01*
X16609Y-10050D01*
X17500Y-10050D01*
X17608Y-10050D01*
X17609Y-10050D01*
X18500Y-10050D01*
X18608Y-10050D01*
X18609Y-10050D01*
X19500Y-10050D01*
X19608Y-10050D01*
X19609Y-10050D01*
X20500Y-10050D01*
X20608Y-10050D01*
X20609Y-10050D01*
X21500Y-10050D01*
X21608Y-10050D01*
X21609Y-10050D01*
X22500Y-10050D01*
X22608Y-10050D01*
X22609Y-10050D01*
X23050Y-10050D01*
X23050Y-9499D01*
X23050Y-9391D01*
X23050Y-11581D01*
X22909Y-11639D01*
X22789Y-11758D01*
X22725Y-11915D01*
X22724Y-12084D01*
X22789Y-12240D01*
X22908Y-12360D01*
X23065Y-12424D01*
X23234Y-12425D01*
X23390Y-12360D01*
X23510Y-12241D01*
X23574Y-12084D01*
X23575Y-11915D01*
X23575Y-12341D01*
X23459Y-12389D01*
X23339Y-12508D01*
X23275Y-12665D01*
X23274Y-12834D01*
X23339Y-12990D01*
X23458Y-13110D01*
X23615Y-13174D01*
X23784Y-13175D01*
X23853Y-13146D01*
X23825Y-13215D01*
X23824Y-13384D01*
X23889Y-13540D01*
X23924Y-13574D01*
X23839Y-13658D01*
X23775Y-13815D01*
X23774Y-13984D01*
X23839Y-14140D01*
X23958Y-14260D01*
X24115Y-14324D01*
X24284Y-14325D01*
X24440Y-14260D01*
X24560Y-14141D01*
X24624Y-13984D01*
X24625Y-13815D01*
X24560Y-13659D01*
X24525Y-13625D01*
X24610Y-13541D01*
X24674Y-13384D01*
X24675Y-13215D01*
X24675Y-25700D01*
X24499Y-25700D01*
X24391Y-25699D01*
X24390Y-25700D01*
X23499Y-25700D01*
X23391Y-25699D01*
X23390Y-25700D01*
X22799Y-25700D01*
X22750Y-25699D01*
X22150Y-25699D01*
X22150Y-25700D01*
X21950Y-25700D01*
X21950Y-25950D01*
X21949Y-25999D01*
X21949Y-26599D01*
X21950Y-26599D01*
X21950Y-26800D01*
X22200Y-26800D01*
X22249Y-26800D01*
X22849Y-26800D01*
X22849Y-26800D01*
X23500Y-26800D01*
X23608Y-26800D01*
X23609Y-26800D01*
X24500Y-26800D01*
X24608Y-26800D01*
X24609Y-26800D01*
X25500Y-26800D01*
X25608Y-26800D01*
X25609Y-26800D01*
X26500Y-26800D01*
X26608Y-26800D01*
X26609Y-26800D01*
X27500Y-26800D01*
X27608Y-26800D01*
X27609Y-26800D01*
X28050Y-26800D01*
X28050Y-26249D01*
X28050Y-26141D01*
X28050Y-29120D01*
X23050Y-29120D01*
X23050Y-28391D01*
X23050Y-28390D01*
X23050Y-27499D01*
X23050Y-27391D01*
X23050Y-27390D01*
X23050Y-26950D01*
X22499Y-26950D01*
X22391Y-26949D01*
X22390Y-26950D01*
X21675Y-26950D01*
X21675Y-13415D01*
X21610Y-13259D01*
X21491Y-13139D01*
X21334Y-13075D01*
X21165Y-13074D01*
X21009Y-13139D01*
X20889Y-13258D01*
X20825Y-13415D01*
X20824Y-13584D01*
X20889Y-13740D01*
X21008Y-13860D01*
X21165Y-13924D01*
X21334Y-13925D01*
X21490Y-13860D01*
X21610Y-13741D01*
X21674Y-13584D01*
X21675Y-13415D01*
X21675Y-26950D01*
X21499Y-26950D01*
X21391Y-26949D01*
X21390Y-26950D01*
X20499Y-26950D01*
X20391Y-26949D01*
X20390Y-26950D01*
X19499Y-26950D01*
X19391Y-26949D01*
X19390Y-26950D01*
X18925Y-26950D01*
X18925Y-17015D01*
X18925Y-16115D01*
X18860Y-15959D01*
X18741Y-15839D01*
X18584Y-15775D01*
X18415Y-15774D01*
X18259Y-15839D01*
X18139Y-15958D01*
X18075Y-16115D01*
X18074Y-16284D01*
X18139Y-16440D01*
X18258Y-16560D01*
X18415Y-16624D01*
X18584Y-16625D01*
X18740Y-16560D01*
X18860Y-16441D01*
X18924Y-16284D01*
X18925Y-16115D01*
X18925Y-17015D01*
X18860Y-16859D01*
X18741Y-16739D01*
X18584Y-16675D01*
X18415Y-16674D01*
X18259Y-16739D01*
X18139Y-16858D01*
X18075Y-17015D01*
X18074Y-17184D01*
X18139Y-17340D01*
X18258Y-17460D01*
X18415Y-17524D01*
X18584Y-17525D01*
X18740Y-17460D01*
X18860Y-17341D01*
X18924Y-17184D01*
X18925Y-17015D01*
X18925Y-26950D01*
X18499Y-26950D01*
X18391Y-26949D01*
X18390Y-26950D01*
X17499Y-26950D01*
X17475Y-26949D01*
X17475Y-23115D01*
X17410Y-22959D01*
X17291Y-22839D01*
X17134Y-22775D01*
X16965Y-22774D01*
X16809Y-22839D01*
X16689Y-22958D01*
X16625Y-23115D01*
X16624Y-23284D01*
X16689Y-23440D01*
X16808Y-23560D01*
X16965Y-23624D01*
X17134Y-23625D01*
X17290Y-23560D01*
X17410Y-23441D01*
X17474Y-23284D01*
X17475Y-23115D01*
X17475Y-26949D01*
X17391Y-26949D01*
X17390Y-26950D01*
X16499Y-26950D01*
X16391Y-26949D01*
X16390Y-26950D01*
X15499Y-26950D01*
X15391Y-26949D01*
X15390Y-26950D01*
X14950Y-26950D01*
X14950Y-27203D01*
X14885Y-27184D01*
X14815Y-27255D01*
X14815Y-27114D01*
X14787Y-27018D01*
X14581Y-26945D01*
X14363Y-26956D01*
X14212Y-27018D01*
X14184Y-27114D01*
X14500Y-27429D01*
X14815Y-27114D01*
X14815Y-27255D01*
X14570Y-27500D01*
X14885Y-27815D01*
X14950Y-27796D01*
X14950Y-28203D01*
X14885Y-28184D01*
X14815Y-28255D01*
X14815Y-28114D01*
X14787Y-28018D01*
X14739Y-28001D01*
X14787Y-27981D01*
X14815Y-27885D01*
X14500Y-27570D01*
X14184Y-27885D01*
X14212Y-27981D01*
X14260Y-27998D01*
X14212Y-28018D01*
X14184Y-28114D01*
X14500Y-28429D01*
X14815Y-28114D01*
X14815Y-28255D01*
X14570Y-28500D01*
X14885Y-28815D01*
X14950Y-28796D01*
X14950Y-29050D01*
X15500Y-29050D01*
X15608Y-29050D01*
X15609Y-29050D01*
X16500Y-29050D01*
X16608Y-29050D01*
X16609Y-29050D01*
X17500Y-29050D01*
X17608Y-29050D01*
X17609Y-29050D01*
X18500Y-29050D01*
X18608Y-29050D01*
X18609Y-29050D01*
X19500Y-29050D01*
X19608Y-29050D01*
X19609Y-29050D01*
X20500Y-29050D01*
X20608Y-29050D01*
X20609Y-29050D01*
X21500Y-29050D01*
X21608Y-29050D01*
X21609Y-29050D01*
X22500Y-29050D01*
X22608Y-29050D01*
X22609Y-29050D01*
X23050Y-29050D01*
X23050Y-28499D01*
X23050Y-28391D01*
X23050Y-29120D01*
X14815Y-29120D01*
X14815Y-28885D01*
X14500Y-28570D01*
X14429Y-28641D01*
X14429Y-28500D01*
X14114Y-28184D01*
X14050Y-28203D01*
X14050Y-28150D01*
X14050Y-28150D01*
X14050Y-27796D01*
X14114Y-27815D01*
X14429Y-27500D01*
X14114Y-27184D01*
X14050Y-27203D01*
X14050Y-26950D01*
X13499Y-26950D01*
X13391Y-26949D01*
X13390Y-26950D01*
X12950Y-26950D01*
X12950Y-27500D01*
X12949Y-27608D01*
X12950Y-27609D01*
X12950Y-28200D01*
X12949Y-28249D01*
X12949Y-28849D01*
X12950Y-28849D01*
X12950Y-29050D01*
X13200Y-29050D01*
X13249Y-29050D01*
X13849Y-29050D01*
X13849Y-29050D01*
X14050Y-29050D01*
X14050Y-28799D01*
X14050Y-28796D01*
X14114Y-28815D01*
X14429Y-28500D01*
X14429Y-28641D01*
X14184Y-28885D01*
X14212Y-28981D01*
X14418Y-29054D01*
X14636Y-29043D01*
X14787Y-28981D01*
X14815Y-28885D01*
X14815Y-29120D01*
X12879Y-29120D01*
X12879Y-26879D01*
X14200Y-26879D01*
X14306Y-26858D01*
X14394Y-26800D01*
X14550Y-26800D01*
X14550Y-10200D01*
X14394Y-10200D01*
X14306Y-10141D01*
X14200Y-10120D01*
X12879Y-10120D01*
X12879Y-7879D01*
X39120Y-7879D01*
X39120Y-29120D01*
M02*
