M48
;DRILL file {Pcbnew (2013-07-07 BZR 4022)-stable} date 10/22/2014 12:40:21 PM
;FORMAT={-:-/ absolute / metric / decimal}
FMAT,2
METRIC,TZ
T1C0.635
T2C1.016
%
G90
G05
M71
T1
X43.307Y-58.928
X46.99Y-41.148
X46.99Y-43.434
X53.975Y-34.29
X58.801Y-30.48
X60.198Y-32.385
X60.325Y-25.4
X61.468Y-35.306
X61.595Y-33.782
X66.294Y-29.337
X73.787Y-33.782
X78.994Y-36.576
X79.121Y-54.102
X79.248Y-34.417
X80.645Y-40.767
X80.645Y-43.815
X82.804Y-64.897
X83.312Y-61.722
X85.598Y-42.164
X86.868Y-57.912
X88.646Y-62.103
X89.535Y-39.497
X92.837Y-40.132
X94.234Y-41.529
X95.504Y-40.132
X96.647Y-41.529
T2
X34.29Y-21.59
X34.29Y-24.13
X34.29Y-69.85
X34.29Y-72.39
X36.83Y-21.59
X36.83Y-24.13
X36.83Y-69.85
X36.83Y-72.39
X39.37Y-21.59
X39.37Y-24.13
X39.37Y-69.85
X39.37Y-72.39
X41.91Y-21.59
X41.91Y-24.13
X41.91Y-69.85
X41.91Y-72.39
X44.45Y-21.59
X44.45Y-24.13
X44.45Y-69.85
X44.45Y-72.39
X46.99Y-21.59
X46.99Y-24.13
X46.99Y-69.85
X46.99Y-72.39
X49.53Y-21.59
X49.53Y-24.13
X49.53Y-69.85
X49.53Y-72.39
X52.07Y-21.59
X52.07Y-24.13
X52.07Y-69.85
X52.07Y-72.39
X54.61Y-21.59
X54.61Y-24.13
X54.61Y-69.85
X54.61Y-72.39
X57.15Y-21.59
X57.15Y-24.13
X57.15Y-66.675
X57.15Y-69.85
X57.15Y-72.39
X59.69Y-66.675
X62.23Y-66.675
X64.77Y-66.675
X67.31Y-66.675
X69.85Y-38.735
X69.85Y-41.275
X69.85Y-43.815
X69.85Y-46.355
X69.85Y-48.895
X69.85Y-51.435
X69.85Y-53.975
X69.85Y-56.515
X69.85Y-66.675
X72.39Y-38.735
X72.39Y-41.275
X72.39Y-43.815
X72.39Y-46.355
X72.39Y-48.895
X72.39Y-51.435
X72.39Y-53.975
X72.39Y-56.515
X75.438Y-71.12
X79.502Y-71.12
X87.63Y-21.59
X87.63Y-24.13
X87.63Y-69.85
X87.63Y-72.39
X90.17Y-21.59
X90.17Y-24.13
X90.17Y-69.85
X90.17Y-72.39
X95.25Y-21.59
X95.25Y-24.13
X95.25Y-26.67
X95.25Y-29.21
X95.25Y-31.75
X95.25Y-62.23
X95.25Y-64.77
X95.25Y-67.31
X95.25Y-69.85
X95.25Y-72.39
X97.79Y-21.59
X97.79Y-24.13
X97.79Y-26.67
X97.79Y-29.21
X97.79Y-31.75
X97.79Y-62.23
X97.79Y-64.77
X97.79Y-67.31
X97.79Y-69.85
X97.79Y-72.39
T0
M30
