EESchema Schematic File Version 2
LIBS:power
LIBS:device
LIBS:transistors
LIBS:conn
LIBS:linear
LIBS:regul
LIBS:74xx
LIBS:cmos4000
LIBS:adc-dac
LIBS:memory
LIBS:xilinx
LIBS:microcontrollers
LIBS:dsp
LIBS:microchip
LIBS:analog_switches
LIBS:motorola
LIBS:texas
LIBS:intel
LIBS:audio
LIBS:interface
LIBS:digital-audio
LIBS:philips
LIBS:display
LIBS:cypress
LIBS:siliconi
LIBS:opto
LIBS:atmel
LIBS:contrib
LIBS:valves
LIBS:AnabatHPF-cache
EELAYER 25 0
EELAYER END
$Descr A4 11693 8268
encoding utf-8
Sheet 1 1
Title ""
Date ""
Rev ""
Comp ""
Comment1 ""
Comment2 ""
Comment3 ""
Comment4 ""
$EndDescr
$Comp
L TLC084D U1
U 1 1 582CFCEB
P 3900 2100
F 0 "U1" H 3900 2300 50  0000 L CNN
F 1 "TLC084D" H 3900 1900 50  0000 L CNN
F 2 "Housings_SOIC:SOIC-14_3.9x8.7mm_Pitch1.27mm" H 3850 2200 50  0001 C CNN
F 3 "" H 3950 2300 50  0000 C CNN
	1    3900 2100
	1    0    0    -1  
$EndComp
$Comp
L TLC084D U1
U 2 1 582CFD84
P 6050 2100
F 0 "U1" H 6050 2300 50  0000 L CNN
F 1 "TLC084D" H 6050 1900 50  0000 L CNN
F 2 "Housings_SOIC:SOIC-14_3.9x8.7mm_Pitch1.27mm" H 6000 2200 50  0001 C CNN
F 3 "" H 6100 2300 50  0000 C CNN
	2    6050 2100
	1    0    0    -1  
$EndComp
$Comp
L TLC084D U1
U 3 1 582CFE2F
P 3900 3700
F 0 "U1" H 3900 3900 50  0000 L CNN
F 1 "TLC084D" H 3900 3500 50  0000 L CNN
F 2 "Housings_SOIC:SOIC-14_3.9x8.7mm_Pitch1.27mm" H 3850 3800 50  0001 C CNN
F 3 "" H 3950 3900 50  0000 C CNN
	3    3900 3700
	1    0    0    -1  
$EndComp
$Comp
L TLC084D U1
U 4 1 582CFEE2
P 6050 3700
F 0 "U1" H 6050 3900 50  0000 L CNN
F 1 "TLC084D" H 6050 3500 50  0000 L CNN
F 2 "Housings_SOIC:SOIC-14_3.9x8.7mm_Pitch1.27mm" H 6000 3800 50  0001 C CNN
F 3 "" H 6100 3900 50  0000 C CNN
	4    6050 3700
	1    0    0    -1  
$EndComp
$Comp
L R R2
U 1 1 582D0203
P 3400 2250
F 0 "R2" V 3480 2250 50  0000 C CNN
F 1 "33k" V 3400 2250 50  0000 C CNN
F 2 "Resistors_SMD:R_0603_HandSoldering" V 3330 2250 50  0001 C CNN
F 3 "" H 3400 2250 50  0000 C CNN
	1    3400 2250
	1    0    0    -1  
$EndComp
$Comp
L R R4
U 1 1 582D0314
P 5700 1700
F 0 "R4" V 5780 1700 50  0000 C CNN
F 1 "10.248k" V 5700 1700 50  0000 C CNN
F 2 "Resistors_SMD:R_0603_HandSoldering" V 5630 1700 50  0001 C CNN
F 3 "" H 5700 1700 50  0000 C CNN
	1    5700 1700
	0    1    1    0   
$EndComp
$Comp
L R R5
U 1 1 582D03A5
P 3450 3850
F 0 "R5" V 3530 3850 50  0000 C CNN
F 1 "15.005k" V 3450 3850 50  0000 C CNN
F 2 "Resistors_SMD:R_0603_HandSoldering" V 3380 3850 50  0001 C CNN
F 3 "" H 3450 3850 50  0000 C CNN
	1    3450 3850
	1    0    0    -1  
$EndComp
$Comp
L R R7
U 1 1 582D043C
P 5600 3850
F 0 "R7" V 5680 3850 50  0000 C CNN
F 1 "40.998k" V 5600 3850 50  0000 C CNN
F 2 "Resistors_SMD:R_0603_HandSoldering" V 5530 3850 50  0001 C CNN
F 3 "" H 5600 3850 50  0000 C CNN
	1    5600 3850
	1    0    0    -1  
$EndComp
$Comp
L R R1
U 1 1 582D0FEB
P 2800 2000
F 0 "R1" V 2880 2000 50  0000 C CNN
F 1 "10k" V 2800 2000 50  0000 C CNN
F 2 "Resistors_SMD:R_0603_HandSoldering" V 2730 2000 50  0001 C CNN
F 3 "" H 2800 2000 50  0000 C CNN
	1    2800 2000
	0    1    1    0   
$EndComp
$Comp
L R R3
U 1 1 582D0FF1
P 5600 2250
F 0 "R3" V 5680 2250 50  0000 C CNN
F 1 "10.986k" V 5600 2250 50  0000 C CNN
F 2 "Resistors_SMD:R_0603_HandSoldering" V 5530 2250 50  0001 C CNN
F 3 "" H 5600 2250 50  0000 C CNN
	1    5600 2250
	1    0    0    -1  
$EndComp
$Comp
L R R6
U 1 1 582D0FF7
P 3550 3300
F 0 "R6" V 3630 3300 50  0000 C CNN
F 1 "7.503k" V 3550 3300 50  0000 C CNN
F 2 "Resistors_SMD:R_0603_HandSoldering" V 3480 3300 50  0001 C CNN
F 3 "" H 3550 3300 50  0000 C CNN
	1    3550 3300
	0    1    1    0   
$EndComp
$Comp
L R R8
U 1 1 582D0FFD
P 5650 3300
F 0 "R8" V 5730 3300 50  0000 C CNN
F 1 "2.746k" V 5650 3300 50  0000 C CNN
F 2 "Resistors_SMD:R_0603_HandSoldering" V 5580 3300 50  0001 C CNN
F 3 "" H 5650 3300 50  0000 C CNN
	1    5650 3300
	0    1    1    0   
$EndComp
$Comp
L R R9
U 1 1 582D1003
P 4700 5050
F 0 "R9" V 4780 5050 50  0000 C CNN
F 1 "10k" V 4700 5050 50  0000 C CNN
F 2 "Resistors_SMD:R_0603_HandSoldering" V 4630 5050 50  0001 C CNN
F 3 "" H 4700 5050 50  0000 C CNN
	1    4700 5050
	1    0    0    -1  
$EndComp
$Comp
L C C1
U 1 1 582D1035
P 3000 2250
F 0 "C1" H 3025 2350 50  0000 L CNN
F 1 "150p" H 3100 2250 50  0000 L CNN
F 2 "Capacitors_SMD:C_0603_HandSoldering" H 3038 2100 50  0001 C CNN
F 3 "" H 3000 2250 50  0000 C CNN
	1    3000 2250
	-1   0    0    1   
$EndComp
$Comp
L C C2
U 1 1 582D1090
P 3200 2000
F 0 "C2" H 3225 2100 50  0000 L CNN
F 1 "470p" H 3225 1900 50  0000 L CNN
F 2 "Capacitors_SMD:C_0603_HandSoldering" H 3238 1850 50  0001 C CNN
F 3 "" H 3200 2000 50  0000 C CNN
	1    3200 2000
	0    -1   -1   0   
$EndComp
$Comp
L C C4
U 1 1 582D10C5
P 4850 2000
F 0 "C4" H 4875 2100 50  0000 L CNN
F 1 "1n" H 4875 1900 50  0000 L CNN
F 2 "Capacitors_SMD:C_0603_HandSoldering" H 4888 1850 50  0001 C CNN
F 3 "" H 4850 2000 50  0000 C CNN
	1    4850 2000
	0    -1   -1   0   
$EndComp
$Comp
L C C5
U 1 1 582D1100
P 5350 2000
F 0 "C5" H 5375 2100 50  0000 L CNN
F 1 "1n" H 5375 1900 50  0000 L CNN
F 2 "Capacitors_SMD:C_0603_HandSoldering" H 5388 1850 50  0001 C CNN
F 3 "" H 5350 2000 50  0000 C CNN
	1    5350 2000
	0    -1   -1   0   
$EndComp
$Comp
L C C7
U 1 1 582D1163
P 3200 3600
F 0 "C7" H 3225 3700 50  0000 L CNN
F 1 "1n" H 3225 3500 50  0000 L CNN
F 2 "Capacitors_SMD:C_0603_HandSoldering" H 3238 3450 50  0001 C CNN
F 3 "" H 3200 3600 50  0000 C CNN
	1    3200 3600
	0    -1   -1   0   
$EndComp
$Comp
L C C3
U 1 1 582D12F8
P 4150 1650
F 0 "C3" H 4175 1750 50  0000 L CNN
F 1 "100n" H 4175 1550 50  0000 L CNN
F 2 "Capacitors_SMD:C_0603_HandSoldering" H 4188 1500 50  0001 C CNN
F 3 "" H 4150 1650 50  0000 C CNN
	1    4150 1650
	1    0    0    -1  
$EndComp
$Comp
L C C6
U 1 1 582D12FE
P 2700 3600
F 0 "C6" H 2725 3700 50  0000 L CNN
F 1 "1n" H 2725 3500 50  0000 L CNN
F 2 "Capacitors_SMD:C_0603_HandSoldering" H 2738 3450 50  0001 C CNN
F 3 "" H 2700 3600 50  0000 C CNN
	1    2700 3600
	0    -1   -1   0   
$EndComp
$Comp
L C C9
U 1 1 582D1304
P 5350 3600
F 0 "C9" H 5375 3700 50  0000 L CNN
F 1 "1n" H 5375 3500 50  0000 L CNN
F 2 "Capacitors_SMD:C_0603_HandSoldering" H 5388 3450 50  0001 C CNN
F 3 "" H 5350 3600 50  0000 C CNN
	1    5350 3600
	0    -1   -1   0   
$EndComp
$Comp
L C C8
U 1 1 582D130A
P 4850 3600
F 0 "C8" H 4875 3700 50  0000 L CNN
F 1 "1n" H 4875 3500 50  0000 L CNN
F 2 "Capacitors_SMD:C_0603_HandSoldering" H 4888 3450 50  0001 C CNN
F 3 "" H 4850 3600 50  0000 C CNN
	1    4850 3600
	0    -1   -1   0   
$EndComp
$Comp
L C C11
U 1 1 582D1310
P 4950 5350
F 0 "C11" H 4975 5450 50  0000 L CNN
F 1 "100n" H 4975 5250 50  0000 L CNN
F 2 "Capacitors_SMD:C_0603_HandSoldering" H 4988 5200 50  0001 C CNN
F 3 "" H 4950 5350 50  0000 C CNN
	1    4950 5350
	1    0    0    -1  
$EndComp
$Comp
L CP1 C10
U 1 1 582D1390
P 4350 5200
F 0 "C10" H 4375 5300 50  0000 L CNN
F 1 "1u" H 4375 5100 50  0000 L CNN
F 2 "Capacitors_Tantalum_SMD:TantalC_SizeA_EIA-3216_HandSoldering" H 4350 5200 50  0001 C CNN
F 3 "" H 4350 5200 50  0000 C CNN
	1    4350 5200
	1    0    0    -1  
$EndComp
$Comp
L VCC #PWR01
U 1 1 582D1480
P 4100 5350
F 0 "#PWR01" H 4100 5200 50  0001 C CNN
F 1 "VCC" H 4100 5500 50  0000 C CNN
F 2 "" H 4100 5350 50  0000 C CNN
F 3 "" H 4100 5350 50  0000 C CNN
	1    4100 5350
	-1   0    0    1   
$EndComp
$Comp
L GND #PWR02
U 1 1 582D14F8
P 3700 5350
F 0 "#PWR02" H 3700 5100 50  0001 C CNN
F 1 "GND" H 3700 5200 50  0000 C CNN
F 2 "" H 3700 5350 50  0000 C CNN
F 3 "" H 3700 5350 50  0000 C CNN
	1    3700 5350
	1    0    0    -1  
$EndComp
$Comp
L PWR_FLAG #FLG03
U 1 1 582DA536
P 4100 5150
F 0 "#FLG03" H 4100 5245 50  0001 C CNN
F 1 "PWR_FLAG" H 4100 5330 50  0000 C CNN
F 2 "" H 4100 5150 50  0000 C CNN
F 3 "" H 4100 5150 50  0000 C CNN
	1    4100 5150
	1    0    0    -1  
$EndComp
$Comp
L PWR_FLAG #FLG04
U 1 1 582DA57C
P 3700 5150
F 0 "#FLG04" H 3700 5245 50  0001 C CNN
F 1 "PWR_FLAG" H 3700 5330 50  0000 C CNN
F 2 "" H 3700 5150 50  0000 C CNN
F 3 "" H 3700 5150 50  0000 C CNN
	1    3700 5150
	1    0    0    -1  
$EndComp
Wire Wire Line
	3700 5150 3700 5350
Wire Wire Line
	4100 5150 4100 5350
$Comp
L VCC #PWR05
U 1 1 582DA7F0
P 4350 4900
F 0 "#PWR05" H 4350 4750 50  0001 C CNN
F 1 "VCC" H 4350 5050 50  0000 C CNN
F 2 "" H 4350 4900 50  0000 C CNN
F 3 "" H 4350 4900 50  0000 C CNN
	1    4350 4900
	1    0    0    -1  
$EndComp
$Comp
L GND #PWR06
U 1 1 582DA846
P 4350 5500
F 0 "#PWR06" H 4350 5250 50  0001 C CNN
F 1 "GND" H 4350 5350 50  0000 C CNN
F 2 "" H 4350 5500 50  0000 C CNN
F 3 "" H 4350 5500 50  0000 C CNN
	1    4350 5500
	1    0    0    -1  
$EndComp
Wire Wire Line
	4700 5200 5150 5200
Wire Wire Line
	4350 5500 4950 5500
Connection ~ 4700 5500
Wire Wire Line
	4350 4900 4700 4900
Wire Wire Line
	4350 4900 4350 5050
Wire Wire Line
	4350 5350 4350 5500
Connection ~ 4950 5200
Text GLabel 2600 2000 0    60   Input ~ 0
Input
Wire Wire Line
	2600 2000 2650 2000
Wire Wire Line
	2950 2000 3050 2000
Wire Wire Line
	3000 2100 3000 2000
Connection ~ 3000 2000
Wire Wire Line
	3350 2000 3600 2000
Wire Wire Line
	3400 2100 3400 2000
Connection ~ 3400 2000
Wire Wire Line
	3000 2400 3400 2400
Wire Wire Line
	3600 2200 3600 2700
Wire Wire Line
	3600 2700 4250 2700
Wire Wire Line
	4250 2700 4250 2100
Wire Wire Line
	4200 2100 4450 2100
Wire Wire Line
	3100 2600 3200 2600
Wire Wire Line
	3200 2400 3200 2900
Connection ~ 3200 2400
$Comp
L VCC #PWR07
U 1 1 582DE732
P 3800 1500
F 0 "#PWR07" H 3800 1350 50  0001 C CNN
F 1 "VCC" H 3800 1650 50  0000 C CNN
F 2 "" H 3800 1500 50  0000 C CNN
F 3 "" H 3800 1500 50  0000 C CNN
	1    3800 1500
	1    0    0    -1  
$EndComp
Wire Wire Line
	3800 1500 3800 1800
$Comp
L GND #PWR08
U 1 1 582DE7AA
P 3800 2450
F 0 "#PWR08" H 3800 2200 50  0001 C CNN
F 1 "GND" H 3800 2300 50  0000 C CNN
F 2 "" H 3800 2450 50  0000 C CNN
F 3 "" H 3800 2450 50  0000 C CNN
	1    3800 2450
	1    0    0    -1  
$EndComp
Wire Wire Line
	3800 2400 3800 2450
$Comp
L GND #PWR09
U 1 1 582DFC97
P 4150 1800
F 0 "#PWR09" H 4150 1550 50  0001 C CNN
F 1 "GND" H 4150 1650 50  0000 C CNN
F 2 "" H 4150 1800 50  0000 C CNN
F 3 "" H 4150 1800 50  0000 C CNN
	1    4150 1800
	1    0    0    -1  
$EndComp
Wire Wire Line
	3800 1500 4150 1500
Wire Wire Line
	5750 2200 5750 2450
Wire Wire Line
	5750 2450 6400 2450
Wire Wire Line
	6400 2450 6400 1700
Wire Wire Line
	6350 2100 6550 2100
Wire Wire Line
	6400 1700 5850 1700
Connection ~ 6400 2100
Wire Wire Line
	5000 2000 5200 2000
Wire Wire Line
	5500 2000 5750 2000
Wire Wire Line
	5600 2100 5600 2000
Connection ~ 5600 2000
Wire Wire Line
	5550 1700 5100 1700
Wire Wire Line
	5100 1700 5100 2000
Connection ~ 5100 2000
Connection ~ 4250 2100
Wire Wire Line
	4450 2100 4450 2000
Wire Wire Line
	4450 2000 4700 2000
Wire Wire Line
	3600 3800 3600 4050
Wire Wire Line
	3600 4050 4250 4050
Wire Wire Line
	4250 4050 4250 3300
Wire Wire Line
	4200 3700 4400 3700
Wire Wire Line
	6350 3700 6550 3700
Wire Wire Line
	6400 3300 6400 4050
Wire Wire Line
	6400 4050 5750 4050
Wire Wire Line
	5750 4050 5750 3800
Wire Wire Line
	5500 3600 5750 3600
Wire Wire Line
	5600 3700 5600 3600
Connection ~ 5600 3600
Wire Wire Line
	3350 3600 3600 3600
Wire Wire Line
	3450 3700 3450 3600
Connection ~ 3450 3600
Wire Wire Line
	3450 4000 3450 4300
Wire Wire Line
	5000 3600 5200 3600
Wire Wire Line
	5800 3300 6400 3300
Connection ~ 6400 3700
Wire Wire Line
	5500 3300 5100 3300
Wire Wire Line
	5100 3300 5100 3600
Connection ~ 5100 3600
Wire Wire Line
	2850 3600 3050 3600
Wire Wire Line
	4250 3300 3700 3300
Connection ~ 4250 3700
Wire Wire Line
	3400 3300 2950 3300
Wire Wire Line
	2950 3300 2950 3600
Connection ~ 2950 3600
Text GLabel 6550 2100 2    60   Input ~ 0
A
Text GLabel 2450 3600 0    60   Input ~ 0
A
Text GLabel 6550 3700 2    60   Input ~ 0
Output
Wire Wire Line
	4400 3700 4400 3600
Wire Wire Line
	4400 3600 4700 3600
Wire Wire Line
	2450 3600 2550 3600
$Comp
L R R10
U 1 1 582D04A5
P 4700 5350
F 0 "R10" V 4780 5350 50  0000 C CNN
F 1 "10k" V 4700 5350 50  0000 C CNN
F 2 "Resistors_SMD:R_0603_HandSoldering" V 4630 5350 50  0001 C CNN
F 3 "" H 4700 5350 50  0000 C CNN
	1    4700 5350
	1    0    0    -1  
$EndComp
$Comp
L CONN_01X04 P1
U 1 1 582F089C
P 2500 5250
F 0 "P1" H 2500 5500 50  0000 C CNN
F 1 "CONN_01X04" V 2600 5250 50  0000 C CNN
F 2 "Pin_Headers:Pin_Header_Straight_1x04" H 2500 5250 50  0001 C CNN
F 3 "" H 2500 5250 50  0000 C CNN
	1    2500 5250
	-1   0    0    1   
$EndComp
$Comp
L CONN_01X04 P2
U 1 1 582F0A9B
P 6400 5250
F 0 "P2" H 6400 5500 50  0000 C CNN
F 1 "CONN_01X04" V 6500 5250 50  0000 C CNN
F 2 "Pin_Headers:Pin_Header_Straight_1x04" H 6400 5250 50  0001 C CNN
F 3 "" H 6400 5250 50  0000 C CNN
	1    6400 5250
	1    0    0    1   
$EndComp
$Comp
L GND #PWR010
U 1 1 582F0D00
P 2800 5450
F 0 "#PWR010" H 2800 5200 50  0001 C CNN
F 1 "GND" H 2800 5300 50  0000 C CNN
F 2 "" H 2800 5450 50  0000 C CNN
F 3 "" H 2800 5450 50  0000 C CNN
	1    2800 5450
	1    0    0    -1  
$EndComp
$Comp
L GND #PWR011
U 1 1 582F0D80
P 6100 5450
F 0 "#PWR011" H 6100 5200 50  0001 C CNN
F 1 "GND" H 6100 5300 50  0000 C CNN
F 2 "" H 6100 5450 50  0000 C CNN
F 3 "" H 6100 5450 50  0000 C CNN
	1    6100 5450
	1    0    0    -1  
$EndComp
Text GLabel 2800 5050 1    60   Input ~ 0
HV
Text GLabel 6100 5050 1    60   Input ~ 0
HV
$Comp
L VCC #PWR012
U 1 1 582F10AE
P 3050 5050
F 0 "#PWR012" H 3050 4900 50  0001 C CNN
F 1 "VCC" H 3050 5200 50  0000 C CNN
F 2 "" H 3050 5050 50  0000 C CNN
F 3 "" H 3050 5050 50  0000 C CNN
	1    3050 5050
	1    0    0    -1  
$EndComp
$Comp
L VCC #PWR013
U 1 1 582F10F8
P 5900 5050
F 0 "#PWR013" H 5900 4900 50  0001 C CNN
F 1 "VCC" H 5900 5200 50  0000 C CNN
F 2 "" H 5900 5050 50  0000 C CNN
F 3 "" H 5900 5050 50  0000 C CNN
	1    5900 5050
	1    0    0    -1  
$EndComp
Text GLabel 2850 5300 2    60   Input ~ 0
Input
Text GLabel 6050 5300 0    60   Input ~ 0
Output
Wire Wire Line
	2700 5100 2800 5100
Wire Wire Line
	2800 5100 2800 5050
Wire Wire Line
	2700 5400 2800 5400
Wire Wire Line
	2800 5400 2800 5450
Wire Wire Line
	2700 5300 2850 5300
Wire Wire Line
	2700 5200 3050 5200
Wire Wire Line
	3050 5200 3050 5050
Wire Wire Line
	6100 5050 6100 5100
Wire Wire Line
	6100 5100 6200 5100
Wire Wire Line
	6200 5400 6100 5400
Wire Wire Line
	6100 5400 6100 5450
Wire Wire Line
	6200 5300 6050 5300
Wire Wire Line
	6200 5200 5900 5200
Wire Wire Line
	5900 5200 5900 5050
Text GLabel 5150 5200 2    60   Input ~ 0
Von2
Text GLabel 3250 4100 0    60   Input ~ 0
Von2
Text GLabel 3100 2600 0    60   Input ~ 0
Von2
Wire Wire Line
	3250 4100 3450 4100
$Comp
L C C13
U 1 1 582FA7B9
P 5750 2700
F 0 "C13" H 5775 2800 50  0000 L CNN
F 1 "100n" H 5775 2600 50  0000 L CNN
F 2 "Capacitors_SMD:C_0603_HandSoldering" H 5788 2550 50  0001 C CNN
F 3 "" H 5750 2700 50  0000 C CNN
	1    5750 2700
	0    -1   -1   0   
$EndComp
$Comp
L C C12
U 1 1 582FAAA5
P 5750 4300
F 0 "C12" H 5775 4400 50  0000 L CNN
F 1 "100n" H 5775 4200 50  0000 L CNN
F 2 "Capacitors_SMD:C_0603_HandSoldering" H 5788 4150 50  0001 C CNN
F 3 "" H 5750 4300 50  0000 C CNN
	1    5750 4300
	0    -1   -1   0   
$EndComp
$Comp
L GND #PWR014
U 1 1 582FABA5
P 6100 4300
F 0 "#PWR014" H 6100 4050 50  0001 C CNN
F 1 "GND" H 6100 4150 50  0000 C CNN
F 2 "" H 6100 4300 50  0000 C CNN
F 3 "" H 6100 4300 50  0000 C CNN
	1    6100 4300
	1    0    0    -1  
$EndComp
$Comp
L GND #PWR015
U 1 1 582FAC2D
P 6000 2700
F 0 "#PWR015" H 6000 2450 50  0001 C CNN
F 1 "GND" H 6000 2550 50  0000 C CNN
F 2 "" H 6000 2700 50  0000 C CNN
F 3 "" H 6000 2700 50  0000 C CNN
	1    6000 2700
	1    0    0    -1  
$EndComp
Wire Wire Line
	3200 2900 5600 2900
Wire Wire Line
	5600 2900 5600 2400
Connection ~ 3200 2600
Wire Wire Line
	5600 4000 5600 4300
Wire Wire Line
	5600 4300 3450 4300
Connection ~ 3450 4100
Wire Wire Line
	5900 2700 6000 2700
Wire Wire Line
	5900 4300 6100 4300
Connection ~ 5600 2700
Connection ~ 5600 4300
$EndSCHEMATC
