EESchema Schematic File Version 2
LIBS:power
LIBS:device
LIBS:transistors
LIBS:conn
LIBS:linear
LIBS:regul
LIBS:74xx
LIBS:cmos4000
LIBS:adc-dac
LIBS:memory
LIBS:xilinx
LIBS:special
LIBS:microcontrollers
LIBS:dsp
LIBS:microchip
LIBS:analog_switches
LIBS:motorola
LIBS:texas
LIBS:intel
LIBS:audio
LIBS:interface
LIBS:digital-audio
LIBS:philips
LIBS:display
LIBS:cypress
LIBS:siliconi
LIBS:opto
LIBS:atmel
LIBS:contrib
LIBS:valves
LIBS:Cape01-cache
LIBS:DS3231SN
LIBS:pesd12vl2bt
LIBS:Cape01-cache
EELAYER 27 0
EELAYER END
$Descr A4 11693 8268
encoding utf-8
Sheet 1 1
Title ""
Date "15 oct 2014"
Rev ""
Comp ""
Comment1 ""
Comment2 ""
Comment3 ""
Comment4 ""
$EndDescr
$Comp
L CONN_4 P3
U 1 1 53876BA5
P 5700 5450
F 0 "P3" H 5700 5700 50  0000 C CNN
F 1 "HDR 2X2" V 5750 5450 50  0000 C CNN
F 2 "" H 5700 5450 60  0000 C CNN
F 3 "" H 5700 5450 60  0000 C CNN
	1    5700 5450
	1    0    0    -1  
$EndComp
$Comp
L CONN_4 P4
U 1 1 53876BB4
P 5650 6300
F 0 "P4" H 5650 6550 50  0000 C CNN
F 1 "HDR 2X2" V 5700 6300 50  0000 C CNN
F 2 "" H 5650 6300 60  0000 C CNN
F 3 "" H 5650 6300 60  0000 C CNN
	1    5650 6300
	1    0    0    -1  
$EndComp
$Comp
L CONN_5X2 P2
U 1 1 53876C76
P 5200 2150
F 0 "P2" H 5200 2450 60  0000 C CNN
F 1 "SER HDR 2X5" V 5200 2150 50  0000 C CNN
F 2 "" H 5200 2150 60  0000 C CNN
F 3 "" H 5200 2150 60  0000 C CNN
	1    5200 2150
	1    0    0    -1  
$EndComp
$Comp
L R R1
U 1 1 53876D9C
P 7700 5250
F 0 "R1" H 7800 5250 40  0000 C CNN
F 1 "2.2kΩ" V 7707 5251 40  0000 C CNN
F 2 "~" V 7630 5250 30  0000 C CNN
F 3 "~" H 7700 5250 30  0000 C CNN
	1    7700 5250
	-1   0    0    1   
$EndComp
$Comp
L R R2
U 1 1 53876DAB
P 7950 5250
F 0 "R2" H 8050 5250 40  0000 C CNN
F 1 "2.2kΩ" V 7957 5251 40  0000 C CNN
F 2 "~" V 7880 5250 30  0000 C CNN
F 3 "~" H 7950 5250 30  0000 C CNN
	1    7950 5250
	-1   0    0    1   
$EndComp
$Comp
L R R5
U 1 1 53876DD8
P 3100 4150
F 0 "R5" H 3200 4150 40  0000 C CNN
F 1 "2.2kΩ" V 3107 4151 40  0000 C CNN
F 2 "~" V 3030 4150 30  0000 C CNN
F 3 "~" H 3100 4150 30  0000 C CNN
	1    3100 4150
	-1   0    0    1   
$EndComp
$Comp
L R R6
U 1 1 53876DE7
P 2850 4150
F 0 "R6" H 2750 4150 40  0000 C CNN
F 1 "100kΩ" V 2857 4151 40  0000 C CNN
F 2 "~" V 2780 4150 30  0000 C CNN
F 3 "~" H 2850 4150 30  0000 C CNN
	1    2850 4150
	1    0    0    -1  
$EndComp
$Comp
L R R8
U 1 1 53876E05
P 2100 3550
F 0 "R8" H 2200 3550 40  0000 C CNN
F 1 "100kΩ" V 2107 3551 40  0000 C CNN
F 2 "~" V 2030 3550 30  0000 C CNN
F 3 "~" H 2100 3550 30  0000 C CNN
	1    2100 3550
	-1   0    0    1   
$EndComp
$Comp
L CONN_6 J1
U 1 1 53876EB8
P 3450 7050
F 0 "J1" H 3450 7400 60  0000 C CNN
F 1 "HDR 1X6" V 3500 7050 60  0000 C CNN
F 2 "" H 3450 7050 60  0000 C CNN
F 3 "" H 3450 7050 60  0000 C CNN
	1    3450 7050
	1    0    0    -1  
$EndComp
$Comp
L GND #PWR01
U 1 1 53876F74
P 2900 1650
F 0 "#PWR01" H 2900 1650 30  0001 C CNN
F 1 "GND" H 2900 1580 30  0001 C CNN
F 2 "" H 2900 1650 60  0000 C CNN
F 3 "" H 2900 1650 60  0000 C CNN
	1    2900 1650
	1    0    0    -1  
$EndComp
$Comp
L GND #PWR02
U 1 1 53876F83
P 1550 6450
F 0 "#PWR02" H 1550 6450 30  0001 C CNN
F 1 "GND" H 1550 6380 30  0001 C CNN
F 2 "" H 1550 6450 60  0000 C CNN
F 3 "" H 1550 6450 60  0000 C CNN
	1    1550 6450
	1    0    0    -1  
$EndComp
$Comp
L VDD #PWR03
U 1 1 53876F92
P 900 6800
F 0 "#PWR03" H 900 6900 30  0001 C CNN
F 1 "VDD" H 900 6910 30  0000 C CNN
F 2 "" H 900 6800 60  0000 C CNN
F 3 "" H 900 6800 60  0000 C CNN
	1    900  6800
	0    -1   -1   0   
$EndComp
$Comp
L VDD #PWR04
U 1 1 53876FA1
P 2150 6800
F 0 "#PWR04" H 2150 6900 30  0001 C CNN
F 1 "VDD" H 2150 6910 30  0000 C CNN
F 2 "" H 2150 6800 60  0000 C CNN
F 3 "" H 2150 6800 60  0000 C CNN
	1    2150 6800
	0    1    1    0   
$EndComp
$Comp
L VDD #PWR05
U 1 1 53876FB0
P 6250 4950
F 0 "#PWR05" H 6250 5050 30  0001 C CNN
F 1 "VDD" H 6250 5060 30  0000 C CNN
F 2 "" H 6250 4950 60  0000 C CNN
F 3 "" H 6250 4950 60  0000 C CNN
	1    6250 4950
	-1   0    0    1   
$EndComp
$Comp
L C C1
U 1 1 538775D1
P 1250 1150
F 0 "C1" H 1300 1050 40  0000 L CNN
F 1 "100nF" H 1300 1250 40  0000 L CNN
F 2 "~" H 1288 1000 30  0000 C CNN
F 3 "~" H 1250 1150 60  0000 C CNN
	1    1250 1150
	-1   0    0    1   
$EndComp
$Comp
L C C3
U 1 1 538775EF
P 3100 1350
F 0 "C3" V 3050 1500 40  0000 R CNN
F 1 "100nF " H 3300 1250 40  0000 R CNN
F 2 "~" H 3138 1200 30  0000 C CNN
F 3 "~" H 3100 1350 60  0000 C CNN
	1    3100 1350
	0    -1   1    0   
$EndComp
$Comp
L C C4
U 1 1 538775FE
P 3200 950
F 0 "C4" V 3250 1050 40  0000 L CNN
F 1 "100nF" H 3000 850 40  0000 L CNN
F 2 "~" H 3238 800 30  0000 C CNN
F 3 "~" H 3200 950 60  0000 C CNN
	1    3200 950 
	0    -1   -1   0   
$EndComp
$Comp
L C C5
U 1 1 5387760D
P 3100 1850
F 0 "C5" V 3150 1950 40  0000 L CNN
F 1 "100nF" H 2900 1750 40  0000 L CNN
F 2 "~" H 3138 1700 30  0000 C CNN
F 3 "~" H 3100 1850 60  0000 C CNN
	1    3100 1850
	0    -1   -1   0   
$EndComp
$Comp
L MAX232 U1
U 1 1 538765A5
P 2100 1650
F 0 "U1" H 2100 2500 70  0000 C CNN
F 1 "MAX3232" H 2100 800 70  0000 C CNN
F 2 "" H 2100 1650 60  0000 C CNN
F 3 "" H 2100 1650 60  0000 C CNN
	1    2100 1650
	1    0    0    -1  
$EndComp
$Comp
L RTC_CLK U2
U 1 1 538786D8
P 8900 5850
F 0 "U2" H 8900 5850 60  0000 C BNN
F 1 "DS3231SN" H 8900 5750 60  0000 C TNN
F 2 "" H 8900 5850 60  0000 C CNN
F 3 "" H 8900 5850 60  0000 C CNN
	1    8900 5850
	1    0    0    -1  
$EndComp
$Comp
L C C6
U 1 1 538786F6
P 9850 6500
F 0 "C6" H 9700 6600 40  0000 L CNN
F 1 "100nF" H 9650 6400 40  0000 L CNN
F 2 "~" H 9888 6350 30  0000 C CNN
F 3 "~" H 9850 6500 60  0000 C CNN
	1    9850 6500
	1    0    0    -1  
$EndComp
$Comp
L R R9
U 1 1 53878705
P 7200 1350
F 0 "R9" V 7280 1350 40  0001 C CNN
F 1 "47kΩ" V 7207 1351 40  0000 C CNN
F 2 "~" V 7130 1350 30  0000 C CNN
F 3 "~" H 7200 1350 30  0000 C CNN
	1    7200 1350
	1    0    0    -1  
$EndComp
$Comp
L R R10
U 1 1 53878714
P 9250 1350
F 0 "R10" H 9400 1350 40  0000 C CNN
F 1 "47kΩ" V 9257 1351 40  0000 C CNN
F 2 "~" V 9180 1350 30  0000 C CNN
F 3 "~" H 9250 1350 30  0000 C CNN
	1    9250 1350
	-1   0    0    1   
$EndComp
$Comp
L C C7
U 1 1 53878723
P 10100 5350
F 0 "C7" H 9950 5450 40  0000 L CNN
F 1 "100nF" H 9900 5250 40  0000 L CNN
F 2 "~" H 10138 5200 30  0000 C CNN
F 3 "~" H 10100 5350 60  0000 C CNN
	1    10100 5350
	1    0    0    -1  
$EndComp
$Comp
L GND #PWR06
U 1 1 53878732
P 8900 6850
F 0 "#PWR06" H 8900 6850 30  0001 C CNN
F 1 "GND" H 8900 6780 30  0001 C CNN
F 2 "" H 8900 6850 60  0000 C CNN
F 3 "" H 8900 6850 60  0000 C CNN
	1    8900 6850
	1    0    0    -1  
$EndComp
$Comp
L GND #PWR07
U 1 1 53878741
P 9850 6900
F 0 "#PWR07" H 9850 6900 30  0001 C CNN
F 1 "GND" H 9850 6830 30  0001 C CNN
F 2 "" H 9850 6900 60  0000 C CNN
F 3 "" H 9850 6900 60  0000 C CNN
	1    9850 6900
	1    0    0    -1  
$EndComp
$Comp
L GND #PWR08
U 1 1 53878750
P 10250 6900
F 0 "#PWR08" H 10250 6900 30  0001 C CNN
F 1 "GND" H 10250 6830 30  0001 C CNN
F 2 "" H 10250 6900 60  0000 C CNN
F 3 "" H 10250 6900 60  0000 C CNN
	1    10250 6900
	1    0    0    -1  
$EndComp
$Comp
L GND #PWR09
U 1 1 5387875F
P 10100 5750
F 0 "#PWR09" H 10100 5750 30  0001 C CNN
F 1 "GND" H 10100 5680 30  0001 C CNN
F 2 "" H 10100 5750 60  0000 C CNN
F 3 "" H 10100 5750 60  0000 C CNN
	1    10100 5750
	1    0    0    -1  
$EndComp
$Comp
L GND #PWR010
U 1 1 5387876E
P 10600 6900
F 0 "#PWR010" H 10600 6900 30  0001 C CNN
F 1 "GND" H 10600 6830 30  0001 C CNN
F 2 "" H 10600 6900 60  0000 C CNN
F 3 "" H 10600 6900 60  0000 C CNN
	1    10600 6900
	1    0    0    -1  
$EndComp
$Comp
L BATTERY Bat1
U 1 1 53878BAE
P 10600 6500
F 0 "Bat1" V 10450 6700 50  0000 C CNN
F 1 "CR2032" V 10750 6700 50  0000 C CNN
F 2 "~" H 10600 6500 60  0000 C CNN
F 3 "~" H 10600 6500 60  0000 C CNN
	1    10600 6500
	0    1    1    0   
$EndComp
$Comp
L GND #PWR011
U 1 1 53879DE1
P 6500 5000
F 0 "#PWR011" H 6500 5000 30  0001 C CNN
F 1 "GND" H 6500 4930 30  0001 C CNN
F 2 "" H 6500 5000 60  0000 C CNN
F 3 "" H 6500 5000 60  0000 C CNN
	1    6500 5000
	1    0    0    -1  
$EndComp
$Comp
L PWR_FLAG #FLG012
U 1 1 53879F38
P 6250 4650
F 0 "#FLG012" H 6250 4745 30  0001 C CNN
F 1 "PWR_FLAG" H 6250 4830 30  0000 C CNN
F 2 "" H 6250 4650 60  0000 C CNN
F 3 "" H 6250 4650 60  0000 C CNN
	1    6250 4650
	1    0    0    -1  
$EndComp
$Comp
L PWR_FLAG #FLG013
U 1 1 53879F56
P 6500 4650
F 0 "#FLG013" H 6500 4745 30  0001 C CNN
F 1 "PWR_FLAG" H 6500 4830 30  0000 C CNN
F 2 "" H 6500 4650 60  0000 C CNN
F 3 "" H 6500 4650 60  0000 C CNN
	1    6500 4650
	1    0    0    -1  
$EndComp
$Comp
L DIODE D1
U 1 1 53A06791
P 10250 6500
F 0 "D1" V 10250 6600 40  0000 C CNN
F 1 "D1" H 10250 6400 40  0001 C CNN
F 2 "~" H 10250 6500 60  0000 C CNN
F 3 "~" H 10250 6500 60  0000 C CNN
	1    10250 6500
	0    -1   -1   0   
$EndComp
$Comp
L C C9
U 1 1 53AC5E5F
P 3950 5200
F 0 "C9" H 3850 5300 40  0000 L CNN
F 1 "100nF" H 3750 5100 40  0000 L CNN
F 2 "~" H 3988 5050 30  0000 C CNN
F 3 "~" H 3950 5200 60  0000 C CNN
	1    3950 5200
	1    0    0    -1  
$EndComp
$Comp
L C C10
U 1 1 53AC5E6E
P 1800 5200
F 0 "C10" H 1800 5300 40  0000 L CNN
F 1 "100nF" H 1806 5115 40  0000 L CNN
F 2 "~" H 1838 5050 30  0000 C CNN
F 3 "~" H 1800 5200 60  0000 C CNN
	1    1800 5200
	-1   0    0    1   
$EndComp
$Comp
L R R11
U 1 1 53AC5E7D
P 8750 2750
F 0 "R11" V 8830 2750 40  0000 C CNN
F 1 "470Ω" V 8757 2751 40  0000 C CNN
F 2 "~" V 8680 2750 30  0000 C CNN
F 3 "~" H 8750 2750 30  0000 C CNN
	1    8750 2750
	0    -1   -1   0   
$EndComp
$Comp
L R R12
U 1 1 53AC5E8C
P 8750 2450
F 0 "R12" V 8830 2450 40  0000 C CNN
F 1 "470Ω" V 8757 2451 40  0000 C CNN
F 2 "~" V 8680 2450 30  0000 C CNN
F 3 "~" H 8750 2450 30  0000 C CNN
	1    8750 2450
	0    -1   -1   0   
$EndComp
$Comp
L R R13
U 1 1 53AC5E9B
P 8750 3650
F 0 "R13" V 8830 3650 40  0000 C CNN
F 1 "470Ω" V 8757 3651 40  0000 C CNN
F 2 "~" V 8680 3650 30  0000 C CNN
F 3 "~" H 8750 3650 30  0000 C CNN
	1    8750 3650
	0    -1   -1   0   
$EndComp
$Comp
L R R14
U 1 1 53AC5EAA
P 8750 3950
F 0 "R14" V 8830 3950 40  0000 C CNN
F 1 "470Ω" V 8757 3951 40  0000 C CNN
F 2 "~" V 8680 3950 30  0000 C CNN
F 3 "~" H 8750 3950 30  0000 C CNN
	1    8750 3950
	0    -1   -1   0   
$EndComp
$Comp
L C C11
U 1 1 53B2EE2D
P 3600 3500
F 0 "C11" H 3600 3600 40  0000 L CNN
F 1 "1nF" H 3606 3415 40  0000 L CNN
F 2 "~" H 3638 3350 30  0000 C CNN
F 3 "~" H 3600 3500 60  0000 C CNN
	1    3600 3500
	1    0    0    -1  
$EndComp
$Comp
L C C12
U 1 1 53B2EE6A
P 3950 3500
F 0 "C12" H 3950 3600 40  0000 L CNN
F 1 "100nF" H 3956 3415 40  0000 L CNN
F 2 "~" H 3988 3350 30  0000 C CNN
F 3 "~" H 3950 3500 60  0000 C CNN
	1    3950 3500
	1    0    0    -1  
$EndComp
$Comp
L C C13
U 1 1 53B2EE79
P 1800 3500
F 0 "C13" H 1800 3600 40  0000 L CNN
F 1 "100nF" H 1806 3415 40  0000 L CNN
F 2 "~" H 1838 3350 30  0000 C CNN
F 3 "~" H 1800 3500 60  0000 C CNN
	1    1800 3500
	-1   0    0    1   
$EndComp
Text GLabel 4100 7400 0    39   Output ~ 0
P8_15
Text GLabel 5100 7300 2    39   Output ~ 0
P8_14
Text GLabel 1200 2250 0    39   Output ~ 0
J1_4_A0Rx
Text GLabel 1050 7200 0    39   Input ~ 0
P9_11_A4Rx
Text GLabel 3000 7200 0    39   Output ~ 0
J1_5_A0Tx
Text GLabel 3000 7100 0    39   Input ~ 0
J1_4_A0Rx
Text GLabel 1200 2350 0    39   Output ~ 0
P9_11_A4Rx
Text GLabel 1200 2050 0    39   Input ~ 0
J1_5_A0Tx
Text GLabel 1200 2150 0    39   Input ~ 0
P9_13_A4Tx
Text GLabel 1050 7300 0    39   Output ~ 0
P9_13_A4Tx
Text GLabel 10250 900  2    39   Output ~ 0
P8_12_OCout
Text GLabel 4100 7200 0    39   Input ~ 0
P8_11
Text GLabel 7000 1100 0    39   Input ~ 0
P8_11
Text GLabel 9050 1100 0    39   Input ~ 0
P8_12
Text GLabel 5100 7200 2    39   Input ~ 0
P8_12
$Comp
L GND #PWR014
U 1 1 53B34C2B
P 9550 3500
F 0 "#PWR014" H 9550 3500 30  0001 C CNN
F 1 "GND" H 9550 3430 30  0001 C CNN
F 2 "" H 9550 3500 60  0000 C CNN
F 3 "" H 9550 3500 60  0000 C CNN
	1    9550 3500
	1    0    0    -1  
$EndComp
Text GLabel 8200 900  2    39   Output ~ 0
P8_11_OCout
Text GLabel 9900 2750 2    39   Output ~ 0
P8_13out
Text GLabel 9900 3650 2    39   Output ~ 0
P9_14out
Text GLabel 9900 3950 2    39   Output ~ 0
P9_16out
Text GLabel 4500 3150 2    39   Output ~ 0
U4_15Vout
Text GLabel 5900 3500 0    39   Input ~ 0
P8_12_OCout
Text GLabel 5900 3400 0    39   Input ~ 0
P8_11_OCout
Text GLabel 5900 3600 0    39   Input ~ 0
P8_13out
Text GLabel 5900 3800 0    39   Input ~ 0
P9_14out
Text GLabel 5900 3900 0    39   Input ~ 0
P9_16out
Text GLabel 6900 3800 2    39   Input ~ 0
U4_15Vout
Text GLabel 6900 3500 2    39   Input ~ 0
U3_15Vout
$Comp
L CONN_8X2 P6
U 1 1 53BED187
P 6400 3650
F 0 "P6" H 6400 4100 60  0000 C CNN
F 1 "CONN_8X2" V 6400 3650 50  0000 C CNN
F 2 "" H 6400 3650 60  0000 C CNN
F 3 "" H 6400 3650 60  0000 C CNN
	1    6400 3650
	1    0    0    -1  
$EndComp
$Comp
L GND #PWR015
U 1 1 53BED196
P 5500 4000
F 0 "#PWR015" H 5500 4000 30  0001 C CNN
F 1 "GND" H 5500 3930 30  0001 C CNN
F 2 "" H 5500 4000 60  0000 C CNN
F 3 "" H 5500 4000 60  0000 C CNN
	1    5500 4000
	0    1    1    0   
$EndComp
$Comp
L GND #PWR016
U 1 1 53BED1A5
P 7200 3300
F 0 "#PWR016" H 7200 3300 30  0001 C CNN
F 1 "GND" H 7200 3230 30  0001 C CNN
F 2 "" H 7200 3300 60  0000 C CNN
F 3 "" H 7200 3300 60  0000 C CNN
	1    7200 3300
	0    -1   -1   0   
$EndComp
$Comp
L CONN_1 P11
U 1 1 53BEE785
P 7250 3600
F 0 "P11" H 7330 3600 40  0000 L CNN
F 1 "CONN_1" H 7250 3655 30  0001 C CNN
F 2 "" H 7250 3600 60  0000 C CNN
F 3 "" H 7250 3600 60  0000 C CNN
	1    7250 3600
	1    0    0    -1  
$EndComp
$Comp
L CONN_1 P12
U 1 1 53BEE794
P 7250 3900
F 0 "P12" H 7330 3900 40  0000 L CNN
F 1 "CONN_1" H 7250 3955 30  0001 C CNN
F 2 "" H 7250 3900 60  0000 C CNN
F 3 "" H 7250 3900 60  0000 C CNN
	1    7250 3900
	1    0    0    -1  
$EndComp
$Comp
L CONN_5X2 P1
U 1 1 53876C67
P 5200 1050
F 0 "P1" H 5200 1350 60  0000 C CNN
F 1 "SER HDR 2X5" V 5200 1050 50  0000 C CNN
F 2 "" H 5200 1050 60  0000 C CNN
F 3 "" H 5200 1050 60  0000 C CNN
	1    5200 1050
	1    0    0    -1  
$EndComp
Wire Wire Line
	2900 1350 2900 1350
Wire Wire Line
	3300 1350 3300 1850
Wire Wire Line
	2900 1850 2900 1850
Connection ~ 3300 1550
Connection ~ 3450 1550
Wire Wire Line
	1300 1350 1250 1350
Wire Wire Line
	1250 950  1300 950 
Wire Wire Line
	1300 1450 1250 1450
Wire Wire Line
	1250 1850 1300 1850
Wire Wire Line
	8500 6650 8500 6750
Wire Wire Line
	8500 6750 9300 6750
Wire Wire Line
	9300 6750 9300 6650
Wire Wire Line
	8600 6650 8600 6750
Connection ~ 8600 6750
Wire Wire Line
	8700 6650 8700 6750
Connection ~ 8700 6750
Wire Wire Line
	8800 6650 8800 6750
Connection ~ 8800 6750
Wire Wire Line
	8900 6650 8900 6850
Connection ~ 8900 6750
Wire Wire Line
	9000 6650 9000 6750
Connection ~ 9000 6750
Wire Wire Line
	9100 6650 9100 6750
Connection ~ 9100 6750
Wire Wire Line
	9200 6650 9200 6750
Connection ~ 9200 6750
Wire Wire Line
	10600 6150 10600 6200
Wire Wire Line
	9700 6150 10600 6150
Wire Wire Line
	10250 6300 10250 6150
Connection ~ 10250 6150
Wire Wire Line
	9850 6300 9850 6150
Connection ~ 9850 6150
Wire Wire Line
	10600 6800 10600 6900
Wire Wire Line
	10250 6700 10250 6900
Wire Wire Line
	9850 6700 9850 6900
Wire Wire Line
	10100 4950 10100 5150
Wire Wire Line
	7500 4950 10100 4950
Wire Wire Line
	8900 4950 8900 5050
Wire Wire Line
	7700 4950 7700 5000
Connection ~ 8900 4950
Wire Wire Line
	7950 4950 7950 5000
Connection ~ 7950 4950
Wire Wire Line
	7700 5500 7700 5550
Wire Wire Line
	7500 5550 8100 5550
Wire Wire Line
	7950 5500 7950 5850
Connection ~ 7700 5550
Connection ~ 7950 5850
Connection ~ 7700 4950
Wire Wire Line
	1950 6300 1950 6700
Wire Wire Line
	1150 6300 1950 6300
Wire Wire Line
	1150 6300 1150 6700
Wire Wire Line
	1550 6450 1550 6300
Connection ~ 1550 6300
Wire Wire Line
	900  6800 1150 6800
Wire Wire Line
	3450 950  3450 2650
Wire Wire Line
	3450 950  3400 950 
Wire Wire Line
	2900 950  3000 950 
Wire Wire Line
	6250 4650 6250 4950
Wire Wire Line
	6500 4650 6500 5000
Wire Wire Line
	7700 5850 8100 5850
Wire Wire Line
	1200 2150 1300 2150
Wire Wire Line
	1200 2350 1300 2350
Wire Wire Line
	1150 7300 1050 7300
Wire Wire Line
	1150 7200 1050 7200
Wire Wire Line
	4100 7400 4200 7400
Wire Wire Line
	5100 7300 5000 7300
Wire Wire Line
	3000 7100 3100 7100
Wire Wire Line
	3100 7200 3000 7200
Wire Wire Line
	1200 2050 1300 2050
Wire Wire Line
	1200 2250 1300 2250
Wire Wire Line
	5100 7200 5000 7200
Wire Wire Line
	4200 7200 4100 7200
Wire Wire Line
	9150 4150 9150 3650
Connection ~ 9150 3650
Wire Wire Line
	9550 4150 9550 3950
Connection ~ 9550 3950
Wire Wire Line
	8300 2450 8500 2450
Wire Wire Line
	9550 2900 9550 2750
Connection ~ 9550 2750
Wire Wire Line
	9150 2900 9150 2450
Connection ~ 9150 2450
Wire Wire Line
	9550 3300 9550 3500
Connection ~ 2950 950 
Wire Wire Line
	2950 750  2950 950 
Wire Wire Line
	9000 2750 9900 2750
Wire Wire Line
	9000 2450 9900 2450
Wire Wire Line
	9000 3650 9900 3650
Wire Wire Line
	9000 3950 9900 3950
Wire Wire Line
	6800 3300 7200 3300
Wire Wire Line
	6800 3500 6900 3500
Wire Wire Line
	6800 3700 6900 3700
Wire Wire Line
	6800 3800 6900 3800
Wire Wire Line
	6800 4000 6900 4000
Wire Wire Line
	5500 4000 6000 4000
Wire Wire Line
	5900 3900 6000 3900
Wire Wire Line
	5900 3700 6000 3700
Wire Wire Line
	5900 3800 6000 3800
Wire Wire Line
	5900 3600 6000 3600
Wire Wire Line
	5900 3500 6000 3500
Wire Wire Line
	5900 3400 6000 3400
Wire Wire Line
	5900 3300 6000 3300
Wire Wire Line
	7100 3600 6800 3600
Wire Wire Line
	7100 3900 6800 3900
Wire Wire Line
	5600 1050 5700 1050
Wire Wire Line
	5700 1050 5700 950 
Wire Wire Line
	5700 950  5600 950 
Wire Wire Line
	5600 850  5700 850 
Wire Wire Line
	5700 850  5700 700 
Wire Wire Line
	5700 700  4700 700 
Wire Wire Line
	4800 850  4700 850 
Wire Wire Line
	5600 2150 5700 2150
Wire Wire Line
	5700 2150 5700 2050
Wire Wire Line
	5700 2050 5600 2050
Wire Wire Line
	5600 1950 5700 1950
Wire Wire Line
	5700 1950 5700 1800
Wire Wire Line
	5700 1800 4700 1800
Wire Wire Line
	4700 1800 4700 2250
Wire Wire Line
	4700 2250 4800 2250
Wire Wire Line
	4800 1950 4700 1950
Connection ~ 4700 1950
Wire Wire Line
	10100 5550 10100 5750
$Comp
L CONN_10X2 P9
U 1 1 543AF24A
P 1550 7150
F 0 "P9" H 1550 7700 60  0000 C CNN
F 1 "CONN_10X2" V 1550 7050 50  0000 C CNN
F 2 "" H 1550 7150 60  0000 C CNN
F 3 "" H 1550 7150 60  0000 C CNN
	1    1550 7150
	1    0    0    -1  
$EndComp
$Comp
L CONN_10X2 P8
U 1 1 543AF260
P 4600 7150
F 0 "P8" H 4600 7700 60  0000 C CNN
F 1 "CONN_10X2" V 4600 7050 50  0000 C CNN
F 2 "" H 4600 7150 60  0000 C CNN
F 3 "" H 4600 7150 60  0000 C CNN
	1    4600 7150
	1    0    0    -1  
$EndComp
$Comp
L C C2
U 1 1 538775E0
P 1250 1650
F 0 "C2" H 1300 1550 40  0000 L CNN
F 1 "100nF" H 1300 1750 40  0000 L CNN
F 2 "~" H 1288 1500 30  0000 C CNN
F 3 "~" H 1250 1650 60  0000 C CNN
	1    1250 1650
	-1   0    0    1   
$EndComp
Wire Wire Line
	2900 1550 2900 1650
$Comp
L SMS D4
U 1 1 543BF901
P 1500 3500
F 0 "D4" V 1500 3750 50  0000 C CNN
F 1 "SMS24C" H 1500 3600 40  0000 C CNN
F 2 "~" H 1500 3500 60  0000 C CNN
F 3 "~" H 1500 3500 60  0000 C CNN
	1    1500 3500
	0    -1   -1   0   
$EndComp
$Comp
L SMS D4
U 2 1 543BF910
P 1500 5200
F 0 "D4" V 1500 5450 50  0000 C CNN
F 1 "SMS24C" H 1500 5300 40  0000 C CNN
F 2 "~" H 1500 5200 60  0000 C CNN
F 3 "~" H 1500 5200 60  0000 C CNN
	2    1500 5200
	0    -1   -1   0   
$EndComp
$Comp
L SMS D4
U 3 1 543BF91F
P 4300 5200
F 0 "D4" V 4300 5300 50  0000 C CNN
F 1 "SMS24C" H 4300 5100 40  0000 C CNN
F 2 "~" H 4300 5200 60  0000 C CNN
F 3 "~" H 4300 5200 60  0000 C CNN
	3    4300 5200
	0    -1   -1   0   
$EndComp
$Comp
L SMS D4
U 4 1 543BF92E
P 4650 3850
F 0 "D4" H 4650 3950 50  0000 C CNN
F 1 "SMS24C" H 4650 3750 40  0000 C CNN
F 2 "~" H 4650 3850 60  0000 C CNN
F 3 "~" H 4650 3850 60  0000 C CNN
	4    4650 3850
	0    -1   -1   0   
$EndComp
$Comp
L FDC6330L U4
U 1 1 543BFD5E
P 2850 2850
F 0 "U4" H 2850 2450 60  0000 C CNN
F 1 "FDC6330L" H 2900 2600 60  0000 C CNN
F 2 "~" H 2900 2450 60  0000 C CNN
F 3 "~" H 2900 2450 60  0000 C CNN
	1    2850 2850
	1    0    0    -1  
$EndComp
Wire Wire Line
	2600 3700 2600 3800
Wire Wire Line
	2100 3800 3600 3800
Connection ~ 2600 3800
Wire Wire Line
	1200 3150 2200 3150
Wire Wire Line
	2100 3300 2100 3150
Connection ~ 2100 3150
Wire Wire Line
	1500 3300 1500 3150
Connection ~ 1500 3150
Wire Wire Line
	1800 3150 1800 3300
Connection ~ 1800 3150
Wire Wire Line
	3500 3150 4500 3150
Wire Wire Line
	3600 3300 3600 3150
Connection ~ 3600 3150
Wire Wire Line
	3950 3300 3950 3150
Connection ~ 3950 3150
Wire Wire Line
	4300 3300 4300 3150
Connection ~ 4300 3150
Wire Wire Line
	2850 3900 2850 3700
Wire Wire Line
	3100 3900 3100 3700
Wire Wire Line
	3950 4400 1800 4400
Connection ~ 2850 4400
Wire Wire Line
	3950 3700 3950 4400
Connection ~ 3100 4400
Wire Wire Line
	1800 4400 1800 3700
Wire Wire Line
	3500 3000 3500 3150
Wire Wire Line
	3600 3800 3600 3700
$Comp
L GND #PWR017
U 1 1 543C43EA
P 1500 3950
F 0 "#PWR017" H 1500 3950 30  0001 C CNN
F 1 "GND" H 1500 3880 30  0001 C CNN
F 2 "" H 1500 3950 60  0000 C CNN
F 3 "" H 1500 3950 60  0000 C CNN
	1    1500 3950
	1    0    0    -1  
$EndComp
$Comp
L GND #PWR018
U 1 1 543C43F9
P 4300 4100
F 0 "#PWR018" H 4300 4100 30  0001 C CNN
F 1 "GND" H 4300 4030 30  0001 C CNN
F 2 "" H 4300 4100 60  0000 C CNN
F 3 "" H 4300 4100 60  0000 C CNN
	1    4300 4100
	1    0    0    -1  
$EndComp
Wire Wire Line
	1500 3700 1500 3950
Wire Wire Line
	4300 3700 4300 4100
Wire Wire Line
	4300 3950 3950 3950
Connection ~ 3950 3950
$Comp
L R R3
U 1 1 543C4E4A
P 3100 5850
F 0 "R3" H 3200 5850 40  0000 C CNN
F 1 "2.2kΩ" V 3107 5851 40  0000 C CNN
F 2 "~" V 3030 5850 30  0000 C CNN
F 3 "~" H 3100 5850 30  0000 C CNN
	1    3100 5850
	-1   0    0    1   
$EndComp
$Comp
L R R4
U 1 1 543C4E50
P 2850 5850
F 0 "R4" H 2750 5850 40  0000 C CNN
F 1 "100kΩ" V 2857 5851 40  0000 C CNN
F 2 "~" V 2780 5850 30  0000 C CNN
F 3 "~" H 2850 5850 30  0000 C CNN
	1    2850 5850
	1    0    0    -1  
$EndComp
$Comp
L R R7
U 1 1 543C4E56
P 2100 5250
F 0 "R7" H 2200 5250 40  0000 C CNN
F 1 "100k Ω" V 2107 5251 40  0000 C CNN
F 2 "~" V 2030 5250 30  0000 C CNN
F 3 "~" H 2100 5250 30  0000 C CNN
	1    2100 5250
	-1   0    0    1   
$EndComp
Text GLabel 4500 4850 2    39   Output ~ 0
U3_15Vout
$Comp
L FDC6330L U3
U 1 1 543C4E7B
P 2850 4550
F 0 "U3" H 2850 4150 60  0000 C CNN
F 1 "FDC6330L" H 2900 4300 60  0000 C CNN
F 2 "~" H 2900 4150 60  0000 C CNN
F 3 "~" H 2900 4150 60  0000 C CNN
	1    2850 4550
	1    0    0    -1  
$EndComp
Wire Wire Line
	2600 5400 2600 5500
Wire Wire Line
	2100 5500 3600 5500
Connection ~ 2600 5500
Wire Wire Line
	1200 4850 2200 4850
Wire Wire Line
	2100 5000 2100 4850
Connection ~ 2100 4850
Wire Wire Line
	1500 5000 1500 4850
Connection ~ 1500 4850
Wire Wire Line
	1800 4850 1800 5000
Connection ~ 1800 4850
Wire Wire Line
	3500 4850 4500 4850
Wire Wire Line
	3600 5000 3600 4850
Connection ~ 3600 4850
Wire Wire Line
	3950 5000 3950 4850
Connection ~ 3950 4850
Wire Wire Line
	4300 5000 4300 4850
Connection ~ 4300 4850
Wire Wire Line
	2850 5600 2850 5400
Wire Wire Line
	3100 5600 3100 5400
Wire Wire Line
	3950 6100 1800 6100
Connection ~ 2850 6100
Wire Wire Line
	3950 5400 3950 6100
Connection ~ 3100 6100
Wire Wire Line
	1800 6100 1800 5400
Wire Wire Line
	3500 4700 3500 4850
Wire Wire Line
	3600 5500 3600 5400
$Comp
L GND #PWR019
U 1 1 543C4E9B
P 1500 5650
F 0 "#PWR019" H 1500 5650 30  0001 C CNN
F 1 "GND" H 1500 5580 30  0001 C CNN
F 2 "" H 1500 5650 60  0000 C CNN
F 3 "" H 1500 5650 60  0000 C CNN
	1    1500 5650
	1    0    0    -1  
$EndComp
$Comp
L GND #PWR020
U 1 1 543C4EA1
P 4300 5800
F 0 "#PWR020" H 4300 5800 30  0001 C CNN
F 1 "GND" H 4300 5730 30  0001 C CNN
F 2 "" H 4300 5800 60  0000 C CNN
F 3 "" H 4300 5800 60  0000 C CNN
	1    4300 5800
	1    0    0    -1  
$EndComp
Wire Wire Line
	1500 5400 1500 5650
Wire Wire Line
	4300 5400 4300 5800
Wire Wire Line
	4300 5650 3950 5650
Connection ~ 3950 5650
$Comp
L C C8
U 1 1 53AC5E50
P 3600 5200
F 0 "C8" H 3500 5300 40  0000 L CNN
F 1 "1nF" H 3450 5100 40  0000 L CNN
F 2 "~" H 3638 5050 30  0000 C CNN
F 3 "~" H 3600 5200 60  0000 C CNN
	1    3600 5200
	1    0    0    -1  
$EndComp
Wire Wire Line
	2850 3900 2350 3900
Wire Wire Line
	2350 3900 2350 4200
Wire Wire Line
	2350 4200 1200 4200
Wire Wire Line
	2850 5600 2350 5600
Wire Wire Line
	2350 5600 2350 5850
Wire Wire Line
	2350 5850 1200 5850
$Comp
L SMS D4
U 5 1 543C5591
P 4300 3500
F 0 "D4" H 4300 3600 50  0000 C CNN
F 1 "SMS24C" H 4300 3400 40  0000 C CNN
F 2 "~" H 4300 3500 60  0000 C CNN
F 3 "~" H 4300 3500 60  0000 C CNN
	5    4300 3500
	0    -1   -1   0   
$EndComp
Text GLabel 1200 4200 0    39   Input ~ 0
P8_14
Text GLabel 1200 5850 0    39   Input ~ 0
P8_15
$Comp
L MOS_N Q1
U 1 1 543C5CF8
P 7600 1100
F 0 "Q1" H 7610 1270 60  0000 R CNN
F 1 "2N7002" H 7610 950 60  0000 R CNN
F 2 "~" H 7600 1100 60  0000 C CNN
F 3 "~" H 7600 1100 60  0000 C CNN
	1    7600 1100
	1    0    0    -1  
$EndComp
$Comp
L SMS D5
U 1 1 543C7744
P 10250 1450
F 0 "D5" H 10250 1550 50  0000 C CNN
F 1 "SMS" H 10250 1350 40  0000 C CNN
F 2 "~" H 10250 1450 60  0000 C CNN
F 3 "~" H 10250 1450 60  0000 C CNN
	1    10250 1450
	0    -1   -1   0   
$EndComp
$Comp
L SMS D5
U 2 1 543C7753
P 10550 1450
F 0 "D5" H 10550 1550 50  0000 C CNN
F 1 "SMS" H 10550 1350 40  0000 C CNN
F 2 "~" H 10550 1450 60  0000 C CNN
F 3 "~" H 10550 1450 60  0000 C CNN
	2    10550 1450
	0    -1   -1   0   
$EndComp
$Comp
L SMS D5
U 3 1 543C7762
P 7950 1100
F 0 "D5" H 7950 1200 50  0000 C CNN
F 1 "SMS" H 7950 1000 40  0000 C CNN
F 2 "~" H 7950 1100 60  0000 C CNN
F 3 "~" H 7950 1100 60  0000 C CNN
	3    7950 1100
	0    -1   -1   0   
$EndComp
$Comp
L SMS D5
U 4 1 543C7771
P 10850 1450
F 0 "D5" H 10850 1550 50  0000 C CNN
F 1 "SMS" H 10850 1350 40  0000 C CNN
F 2 "~" H 10850 1450 60  0000 C CNN
F 3 "~" H 10850 1450 60  0000 C CNN
	4    10850 1450
	0    -1   -1   0   
$EndComp
$Comp
L SMS D5
U 5 1 543C7780
P 10000 1100
F 0 "D5" H 10000 1200 50  0000 C CNN
F 1 "SMS" H 10000 1000 40  0000 C CNN
F 2 "~" H 10000 1100 60  0000 C CNN
F 3 "~" H 10000 1100 60  0000 C CNN
	5    10000 1100
	0    -1   -1   0   
$EndComp
$Comp
L MOS_N Q2
U 1 1 543C77AE
P 9650 1100
F 0 "Q2" H 9660 1270 60  0000 R CNN
F 1 "2N7002" H 9660 950 60  0000 R CNN
F 2 "~" H 9650 1100 60  0000 C CNN
F 3 "~" H 9650 1100 60  0000 C CNN
	1    9650 1100
	1    0    0    -1  
$EndComp
Wire Wire Line
	7000 1100 7400 1100
Connection ~ 7200 1100
Wire Wire Line
	7200 1600 7950 1600
Wire Wire Line
	7700 1300 7700 1700
Wire Wire Line
	7700 900  8200 900 
Connection ~ 7950 900 
Wire Wire Line
	9750 900  10250 900 
Connection ~ 10000 900 
Wire Wire Line
	9250 1600 10000 1600
Wire Wire Line
	9750 1300 9750 1700
Wire Wire Line
	9050 1100 9450 1100
Connection ~ 9250 1100
$Comp
L SMS D6
U 1 1 543C87AF
P 9550 4350
F 0 "D6" H 9550 4450 50  0000 C CNN
F 1 "SMS" H 9550 4250 40  0000 C CNN
F 2 "~" H 9550 4350 60  0000 C CNN
F 3 "~" H 9550 4350 60  0000 C CNN
	1    9550 4350
	0    -1   -1   0   
$EndComp
$Comp
L SMS D6
U 2 1 543C87BE
P 9550 3100
F 0 "D6" H 9550 3200 50  0000 C CNN
F 1 "SMS" H 9550 3000 40  0000 C CNN
F 2 "~" H 9550 3100 60  0000 C CNN
F 3 "~" H 9550 3100 60  0000 C CNN
	2    9550 3100
	0    -1   -1   0   
$EndComp
$Comp
L SMS D6
U 3 1 543C87CD
P 9150 3100
F 0 "D6" H 9150 3200 50  0000 C CNN
F 1 "SMS" H 9150 3000 40  0000 C CNN
F 2 "~" H 9150 3100 60  0000 C CNN
F 3 "~" H 9150 3100 60  0000 C CNN
	3    9150 3100
	0    -1   -1   0   
$EndComp
$Comp
L SMS D6
U 4 1 543C87DC
P 8750 3100
F 0 "D6" H 8750 3200 50  0000 C CNN
F 1 "SMS" H 8750 3000 40  0000 C CNN
F 2 "~" H 8750 3100 60  0000 C CNN
F 3 "~" H 8750 3100 60  0000 C CNN
	4    8750 3100
	0    -1   -1   0   
$EndComp
$Comp
L SMS D6
U 5 1 543C87EB
P 9150 4350
F 0 "D6" H 9150 4450 50  0000 C CNN
F 1 "SMS" H 9150 4250 40  0000 C CNN
F 2 "~" H 9150 4350 60  0000 C CNN
F 3 "~" H 9150 4350 60  0000 C CNN
	5    9150 4350
	0    -1   -1   0   
$EndComp
NoConn ~ 8750 2900
Text GLabel 8300 2450 0    39   Input ~ 0
P8_19
Text GLabel 4100 7300 0    39   Input ~ 0
P8_13
Text GLabel 8300 2750 0    39   Input ~ 0
P8_13
Text GLabel 4100 7600 0    39   Input ~ 0
P8_19
Wire Wire Line
	4100 7600 4200 7600
Wire Wire Line
	8300 2750 8500 2750
Wire Wire Line
	4100 7300 4200 7300
Text GLabel 8400 3650 0    39   Input ~ 0
P9_14
Text GLabel 8400 3950 0    39   Input ~ 0
P9_16
Text GLabel 2050 7300 2    39   Input ~ 0
P9_14
Text GLabel 2050 7400 2    39   Input ~ 0
P9_16
Wire Wire Line
	8400 3650 8500 3650
Wire Wire Line
	8400 3950 8500 3950
Wire Wire Line
	1950 7300 2050 7300
Wire Wire Line
	1950 7400 2050 7400
Text GLabel 7150 6000 0    39   Input ~ 0
P9_18sda
Text GLabel 2050 7500 2    39   Input ~ 0
P9_18sda
Text GLabel 7150 5800 0    39   Input ~ 0
P9_17scl
Text GLabel 1050 7500 0    39   Input ~ 0
P9_17scl
Wire Wire Line
	1050 7500 1150 7500
Wire Wire Line
	1950 7500 2050 7500
NoConn ~ 8100 6150
NoConn ~ 9700 5550
NoConn ~ 9700 5850
NoConn ~ 10250 1250
NoConn ~ 10550 1250
NoConn ~ 10850 1250
Wire Wire Line
	1950 6800 2150 6800
$Comp
L VDD #PWR021
U 1 1 543D7247
P 2950 750
F 0 "#PWR021" H 2950 850 30  0001 C CNN
F 1 "VDD" H 2950 860 30  0000 C CNN
F 2 "" H 2950 750 60  0000 C CNN
F 3 "" H 2950 750 60  0000 C CNN
	1    2950 750 
	1    0    0    -1  
$EndComp
$Comp
L VDD #PWR022
U 1 1 543D7256
P 7500 4950
F 0 "#PWR022" H 7500 5050 30  0001 C CNN
F 1 "VDD" H 7500 5060 30  0000 C CNN
F 2 "" H 7500 4950 60  0000 C CNN
F 3 "" H 7500 4950 60  0000 C CNN
	1    7500 4950
	0    -1   -1   0   
$EndComp
$Comp
L VDD #PWR023
U 1 1 543D7265
P 6900 4000
F 0 "#PWR023" H 6900 4100 30  0001 C CNN
F 1 "VDD" V 6900 4150 30  0000 C CNN
F 2 "" H 6900 4000 60  0000 C CNN
F 3 "" H 6900 4000 60  0000 C CNN
	1    6900 4000
	0    1    1    0   
$EndComp
$Comp
L VDD #PWR024
U 1 1 543D7274
P 5900 3300
F 0 "#PWR024" H 5900 3400 30  0001 C CNN
F 1 "VDD" V 5900 3450 30  0000 C CNN
F 2 "" H 5900 3300 60  0000 C CNN
F 3 "" H 5900 3300 60  0000 C CNN
	1    5900 3300
	0    -1   -1   0   
$EndComp
NoConn ~ 4650 3650
Text GLabel 9900 2450 2    39   Input ~ 0
P8_19out
Text GLabel 5900 3700 0    39   Input ~ 0
P8_19out
NoConn ~ 5600 1250
NoConn ~ 5600 1150
NoConn ~ 5600 2350
NoConn ~ 5600 2250
NoConn ~ 1150 6900
NoConn ~ 1150 7000
NoConn ~ 1150 7100
NoConn ~ 1150 7400
NoConn ~ 1950 7200
NoConn ~ 1950 7100
NoConn ~ 1950 7000
NoConn ~ 1950 6900
NoConn ~ 5000 7500
NoConn ~ 5000 7600
NoConn ~ 5000 7400
NoConn ~ 5000 7100
NoConn ~ 5000 7000
NoConn ~ 5000 6900
NoConn ~ 5000 6800
NoConn ~ 5000 6700
NoConn ~ 4200 6700
NoConn ~ 4200 6800
NoConn ~ 4200 6900
NoConn ~ 4200 7000
NoConn ~ 4200 7100
NoConn ~ 4200 7500
NoConn ~ 5300 6150
NoConn ~ 5300 6250
NoConn ~ 5300 6350
NoConn ~ 5300 6450
NoConn ~ 5350 5600
NoConn ~ 5350 5400
NoConn ~ 5350 5300
NoConn ~ 5350 5500
NoConn ~ 3100 6900
NoConn ~ 3100 7000
NoConn ~ 3100 7300
$Comp
L GND #PWR025
U 1 1 543DBD18
P 9750 1700
F 0 "#PWR025" H 9750 1700 30  0001 C CNN
F 1 "GND" H 9750 1630 30  0001 C CNN
F 2 "" H 9750 1700 60  0000 C CNN
F 3 "" H 9750 1700 60  0000 C CNN
	1    9750 1700
	1    0    0    -1  
$EndComp
Text GLabel 6900 3400 2    39   Input ~ 0
U3_15Vin
Wire Wire Line
	6900 3400 6800 3400
Text GLabel 1200 4850 0    39   Input ~ 0
U3_15Vin
Text GLabel 1200 3150 0    39   Input ~ 0
U4_15Vin
Text GLabel 6900 3700 2    39   Input ~ 0
U4_15Vin
Wire Wire Line
	7950 1600 7950 1300
Connection ~ 7700 1600
Wire Wire Line
	10000 1600 10000 1300
Connection ~ 9750 1600
$Comp
L GND #PWR026
U 1 1 543DC7C0
P 7700 1700
F 0 "#PWR026" H 7700 1700 30  0001 C CNN
F 1 "GND" H 7700 1630 30  0001 C CNN
F 2 "" H 7700 1700 60  0000 C CNN
F 3 "" H 7700 1700 60  0000 C CNN
	1    7700 1700
	1    0    0    -1  
$EndComp
Wire Wire Line
	9150 3300 9150 3400
Wire Wire Line
	9150 3400 9550 3400
Connection ~ 9550 3400
$Comp
L GND #PWR027
U 1 1 543DCA64
P 9550 4750
F 0 "#PWR027" H 9550 4750 30  0001 C CNN
F 1 "GND" H 9550 4680 30  0001 C CNN
F 2 "" H 9550 4750 60  0000 C CNN
F 3 "" H 9550 4750 60  0000 C CNN
	1    9550 4750
	1    0    0    -1  
$EndComp
Wire Wire Line
	9550 4550 9550 4750
Wire Wire Line
	9150 4550 9150 4650
Wire Wire Line
	9150 4650 9550 4650
Connection ~ 9550 4650
Text GLabel 2050 7600 2    39   Input ~ 0
P9_20sda
Wire Wire Line
	1950 7600 2050 7600
Text GLabel 1050 7600 0    39   Input ~ 0
P9_19scl
Wire Wire Line
	1050 7600 1150 7600
NoConn ~ 3100 6800
Text GLabel 7150 6500 0    39   Input ~ 0
P9_20sda
Text GLabel 7150 5300 0    39   Input ~ 0
P9_19scl
$Comp
L JUMPER3 JP1
U 1 1 543DCEDA
P 7400 5550
F 0 "JP1" V 7500 5350 40  0000 L CNN
F 1 "JUMPER3" H 7400 5650 40  0000 C CNN
F 2 "~" H 7400 5550 60  0000 C CNN
F 3 "~" H 7400 5550 60  0000 C CNN
	1    7400 5550
	0    -1   -1   0   
$EndComp
$Comp
L JUMPER3 JP2
U 1 1 543DCEE9
P 7400 6250
F 0 "JP2" V 7500 6050 40  0000 L CNN
F 1 "JUMPER3" H 7400 6350 40  0000 C CNN
F 2 "~" H 7400 6250 60  0000 C CNN
F 3 "~" H 7400 6250 60  0000 C CNN
	1    7400 6250
	0    -1   -1   0   
$EndComp
Wire Wire Line
	7700 5850 7700 6250
Wire Wire Line
	7700 6250 7500 6250
Wire Wire Line
	7150 5300 7400 5300
Wire Wire Line
	7150 5800 7400 5800
Wire Wire Line
	7150 6000 7400 6000
Wire Wire Line
	7150 6500 7400 6500
Wire Wire Line
	4550 1050 4800 1050
Wire Wire Line
	4150 1050 4150 950 
Wire Wire Line
	3750 950  4800 950 
Wire Wire Line
	4700 700  4700 1150
Wire Wire Line
	2900 1550 4800 1550
Wire Wire Line
	4800 1550 4800 1250
Wire Wire Line
	4700 1150 4800 1150
Connection ~ 4700 850 
Wire Wire Line
	4000 2050 4800 2050
Wire Wire Line
	4150 2050 4150 2150
Wire Wire Line
	3450 2650 4800 2650
Wire Wire Line
	4800 2650 4800 2350
Wire Wire Line
	4550 1050 4550 850 
Wire Wire Line
	4550 850  3650 850 
Wire Wire Line
	3650 850  3650 2050
Wire Wire Line
	3650 2050 2900 2050
Connection ~ 4550 1050
Wire Wire Line
	2900 2250 3750 2250
Wire Wire Line
	3750 2250 3750 950 
Connection ~ 4150 950 
Wire Wire Line
	2900 2350 4000 2350
Wire Wire Line
	4000 2350 4000 2050
Connection ~ 4150 2050
Wire Wire Line
	2900 2150 3900 2150
Wire Wire Line
	3900 2150 3900 1950
Wire Wire Line
	3900 1950 4550 1950
Wire Wire Line
	4550 1950 4550 2150
Connection ~ 4300 3950
Connection ~ 4300 5650
Wire Wire Line
	4550 2150 4800 2150
$Comp
L PESD D7
U 1 1 543EABC0
P 4150 1250
F 0 "D7" H 4050 1300 40  0000 C CNN
F 1 "PESD" H 4050 1200 30  0000 C CNN
F 2 "~" V 4150 1300 60  0000 C CNN
F 3 "~" V 4150 1300 60  0000 C CNN
	1    4150 1250
	1    0    0    -1  
$EndComp
$Comp
L PESD D7
U 2 1 543EABCF
P 4550 1250
F 0 "D7" H 4450 1300 40  0000 C CNN
F 1 "PESD" H 4450 1200 30  0000 C CNN
F 2 "~" V 4550 1300 60  0000 C CNN
F 3 "~" V 4550 1300 60  0000 C CNN
	2    4550 1250
	1    0    0    -1  
$EndComp
$Comp
L PESD D8
U 1 1 543EABE6
P 4150 2350
F 0 "D8" H 4050 2400 40  0000 C CNN
F 1 "PESD" H 4050 2300 30  0000 C CNN
F 2 "~" V 4150 2400 60  0000 C CNN
F 3 "~" V 4150 2400 60  0000 C CNN
	1    4150 2350
	1    0    0    -1  
$EndComp
$Comp
L PESD D8
U 2 1 543EABEC
P 4550 2350
F 0 "D8" H 4450 2400 40  0000 C CNN
F 1 "PESD" H 4450 2300 30  0000 C CNN
F 2 "~" V 4550 2400 60  0000 C CNN
F 3 "~" V 4550 2400 60  0000 C CNN
	2    4550 2350
	1    0    0    -1  
$EndComp
Wire Wire Line
	4150 1400 4150 1550
Connection ~ 4150 1550
Wire Wire Line
	4550 1400 4550 1550
Connection ~ 4550 1550
Wire Wire Line
	4150 2500 4150 2650
Connection ~ 4150 2650
Wire Wire Line
	4550 2500 4550 2650
Connection ~ 4550 2650
Connection ~ 4550 2150
$EndSCHEMATC
