EESchema Schematic File Version 2
LIBS:AnaChirp-rescue
LIBS:power
LIBS:device
LIBS:transistors
LIBS:conn
LIBS:linear
LIBS:regul
LIBS:74xx
LIBS:cmos4000
LIBS:adc-dac
LIBS:memory
LIBS:xilinx
LIBS:microcontrollers
LIBS:dsp
LIBS:microchip
LIBS:analog_switches
LIBS:motorola
LIBS:texas
LIBS:intel
LIBS:audio
LIBS:interface
LIBS:digital-audio
LIBS:philips
LIBS:display
LIBS:cypress
LIBS:siliconi
LIBS:opto
LIBS:atmel
LIBS:contrib
LIBS:valves
LIBS:CJClib
LIBS:AnaChirp-cache
EELAYER 25 0
EELAYER END
$Descr A4 11693 8268
encoding utf-8
Sheet 1 1
Title "AnaChirp"
Date ""
Rev ""
Comp ""
Comment1 ""
Comment2 ""
Comment3 ""
Comment4 ""
$EndDescr
$Comp
L PIC16F616 U2
U 1 1 56CB2AE6
P 6950 3150
F 0 "U2" H 7150 3200 60  0000 C CNN
F 1 "PIC16F616" H 7250 2000 60  0000 C CNN
F 2 "SMD_Packages:SOIC-14_N" H 7150 3250 60  0001 C CNN
F 3 "" H 7150 3250 60  0000 C CNN
	1    6950 3150
	1    0    0    -1  
$EndComp
$Comp
L Crystal Y1
U 1 1 56CB3F0B
P 6300 3700
F 0 "Y1" H 6300 3850 50  0000 C CNN
F 1 "8MHz" H 6300 3550 50  0000 C CNN
F 2 "Crystals:ABM3" H 6300 3700 50  0001 C CNN
F 3 "" H 6300 3700 50  0000 C CNN
	1    6300 3700
	1    0    0    -1  
$EndComp
$Comp
L C_Small C10
U 1 1 56CB40AA
P 6150 4050
F 0 "C10" H 6160 4120 50  0000 L CNN
F 1 "15p" H 6160 3970 50  0000 L CNN
F 2 "Capacitors_SMD:C_0603_HandSoldering" H 6150 4050 50  0001 C CNN
F 3 "" H 6150 4050 50  0000 C CNN
	1    6150 4050
	1    0    0    -1  
$EndComp
$Comp
L C_Small C11
U 1 1 56CB40F9
P 6450 4050
F 0 "C11" H 6460 4120 50  0000 L CNN
F 1 "15p" H 6460 3970 50  0000 L CNN
F 2 "Capacitors_SMD:C_0603_HandSoldering" H 6450 4050 50  0001 C CNN
F 3 "" H 6450 4050 50  0000 C CNN
	1    6450 4050
	1    0    0    -1  
$EndComp
$Comp
L C C3
U 1 1 56CB4736
P 5300 3950
F 0 "C3" H 5325 4050 50  0000 L CNN
F 1 "1uF" H 5325 3850 50  0000 L CNN
F 2 "Capacitors_SMD:C_0805" H 5338 3800 50  0001 C CNN
F 3 "" H 5300 3950 50  0000 C CNN
	1    5300 3950
	1    0    0    -1  
$EndComp
$Comp
L C C4
U 1 1 56CB484D
P 4650 3100
F 0 "C4" H 4675 3200 50  0000 L CNN
F 1 "1uF" H 4675 3000 50  0000 L CNN
F 2 "Capacitors_SMD:C_0805" H 4688 2950 50  0001 C CNN
F 3 "" H 4650 3100 50  0000 C CNN
	1    4650 3100
	0    -1   -1   0   
$EndComp
$Comp
L C C5
U 1 1 56CB487C
P 5650 3950
F 0 "C5" H 5675 4050 50  0000 L CNN
F 1 "1uF" H 5675 3850 50  0000 L CNN
F 2 "Capacitors_SMD:C_0805" H 5688 3800 50  0001 C CNN
F 3 "" H 5650 3950 50  0000 C CNN
	1    5650 3950
	1    0    0    -1  
$EndComp
$Comp
L C C1
U 1 1 56CB48AC
P 3350 3900
F 0 "C1" H 3375 4000 50  0000 L CNN
F 1 "1uF" H 3375 3800 50  0000 L CNN
F 2 "Capacitors_SMD:C_0805" H 3388 3750 50  0001 C CNN
F 3 "" H 3350 3900 50  0000 C CNN
	1    3350 3900
	1    0    0    -1  
$EndComp
$Comp
L C C2
U 1 1 56CB48E9
P 4000 3100
F 0 "C2" H 4025 3200 50  0000 L CNN
F 1 "1uF" H 4025 3000 50  0000 L CNN
F 2 "Capacitors_SMD:C_0805" H 4038 2950 50  0001 C CNN
F 3 "" H 4000 3100 50  0000 C CNN
	1    4000 3100
	0    -1   -1   0   
$EndComp
$Comp
L ZENER D1
U 1 1 56CB49E9
P 3100 3850
F 0 "D1" H 3100 3950 50  0000 C CNN
F 1 "SMBJ5.0" H 3100 3750 50  0000 C CNN
F 2 "Diodes_SMD:SMB_Handsoldering" H 3100 3850 50  0001 C CNN
F 3 "" H 3100 3850 50  0000 C CNN
	1    3100 3850
	0    1    1    0   
$EndComp
$Comp
L CP1 C12
U 1 1 56CB4BC7
P 7200 2850
F 0 "C12" H 7225 2950 50  0000 L CNN
F 1 "1uF" H 7225 2750 50  0000 L CNN
F 2 "Capacitors_SMD:C_0805" H 7200 2850 50  0001 C CNN
F 3 "" H 7200 2850 50  0000 C CNN
	1    7200 2850
	0    -1   -1   0   
$EndComp
$Comp
L C C13
U 1 1 56CB4C54
P 7200 2600
F 0 "C13" H 7225 2700 50  0000 L CNN
F 1 "100n" H 7225 2500 50  0000 L CNN
F 2 "Capacitors_SMD:C_0603_HandSoldering" H 7238 2450 50  0001 C CNN
F 3 "" H 7200 2600 50  0000 C CNN
	1    7200 2600
	0    -1   -1   0   
$EndComp
$Comp
L POT-RESCUE-AnaChirp RV1
U 1 1 56CB4D0B
P 8750 3450
F 0 "RV1" H 8750 3350 50  0000 C CNN
F 1 "10k" H 8750 3450 50  0000 C CNN
F 2 "CJCfootprint:Bourns_3214X" H 8750 3450 50  0001 C CNN
F 3 "" H 8750 3450 50  0000 C CNN
	1    8750 3450
	1    0    0    -1  
$EndComp
$Comp
L R R15
U 1 1 56CB6781
P 9150 3700
F 0 "R15" V 9230 3700 50  0000 C CNN
F 1 "10R" V 9150 3700 50  0000 C CNN
F 2 "Resistors_SMD:R_0603_HandSoldering" V 9080 3700 50  0001 C CNN
F 3 "" H 9150 3700 50  0000 C CNN
	1    9150 3700
	1    0    0    -1  
$EndComp
$Comp
L R R16
U 1 1 56CB689A
P 9350 3700
F 0 "R16" V 9430 3700 50  0000 C CNN
F 1 "NF" V 9350 3700 50  0000 C CNN
F 2 "Resistors_SMD:R_0603_HandSoldering" V 9280 3700 50  0001 C CNN
F 3 "" H 9350 3700 50  0000 C CNN
	1    9350 3700
	1    0    0    -1  
$EndComp
$Comp
L R R17
U 1 1 56CB6929
P 8600 3900
F 0 "R17" V 8680 3900 50  0000 C CNN
F 1 "2k7" V 8600 3900 50  0000 C CNN
F 2 "Resistors_SMD:R_0603_HandSoldering" V 8530 3900 50  0001 C CNN
F 3 "" H 8600 3900 50  0000 C CNN
	1    8600 3900
	0    -1   -1   0   
$EndComp
$Comp
L R R18
U 1 1 56CB6982
P 8600 4100
F 0 "R18" V 8680 4100 50  0000 C CNN
F 1 "NF" V 8600 4100 50  0000 C CNN
F 2 "Resistors_SMD:R_0603_HandSoldering" V 8530 4100 50  0001 C CNN
F 3 "" H 8600 4100 50  0000 C CNN
	1    8600 4100
	0    -1   -1   0   
$EndComp
$Comp
L C C15
U 1 1 56CB6A69
P 8350 3450
F 0 "C15" H 8375 3550 50  0000 L CNN
F 1 "1uF" H 8375 3350 50  0000 L CNN
F 2 "Capacitors_SMD:C_0805" H 8388 3300 50  0001 C CNN
F 3 "" H 8350 3450 50  0000 C CNN
	1    8350 3450
	0    -1   -1   0   
$EndComp
$Comp
L CONN_01X02 P1
U 1 1 56CBB031
P 2700 3700
F 0 "P1" H 2700 3850 50  0000 C CNN
F 1 "Battery" V 2800 3700 50  0000 C CNN
F 2 "Pin_Headers:Pin_Header_Straight_1x02" H 2700 3700 50  0001 C CNN
F 3 "" H 2700 3700 50  0000 C CNN
	1    2700 3700
	-1   0    0    1   
$EndComp
$Comp
L CONN_01X02 P2
U 1 1 56CC7942
P 9800 3500
F 0 "P2" H 9800 3650 50  0000 C CNN
F 1 "Output" V 9900 3500 50  0000 C CNN
F 2 "Pin_Headers:Pin_Header_Straight_1x02" H 9800 3500 50  0001 C CNN
F 3 "" H 9800 3500 50  0000 C CNN
	1    9800 3500
	1    0    0    -1  
$EndComp
Wire Wire Line
	8100 3450 8200 3450
Wire Wire Line
	9000 3450 9600 3450
Wire Wire Line
	9150 3850 9350 3850
Wire Wire Line
	8750 3900 8750 4100
Wire Wire Line
	8400 3900 8400 4100
Wire Wire Line
	6150 3400 6150 3950
Wire Wire Line
	6150 3400 6750 3400
Connection ~ 6150 3700
Wire Wire Line
	6450 3550 6450 3950
Wire Wire Line
	6450 3550 6750 3550
Connection ~ 6450 3700
Wire Wire Line
	7050 2850 7050 2600
Wire Wire Line
	7350 2600 7350 2850
Connection ~ 3100 3650
Wire Wire Line
	2900 3750 2900 4400
Wire Wire Line
	7350 2850 8000 2850
Wire Wire Line
	7750 2850 7750 3250
$Comp
L GND #PWR01
U 1 1 56CCD0DC
P 8000 2850
F 0 "#PWR01" H 8000 2600 50  0001 C CNN
F 1 "GND" H 8000 2700 50  0000 C CNN
F 2 "" H 8000 2850 50  0000 C CNN
F 3 "" H 8000 2850 50  0000 C CNN
	1    8000 2850
	1    0    0    -1  
$EndComp
Connection ~ 7750 2850
Wire Wire Line
	6750 2850 6750 3250
Connection ~ 6750 2850
Wire Wire Line
	5650 2850 7050 2850
$Comp
L TPS60310_b U1
U 1 1 56CD027F
P 3750 3300
F 0 "U1" H 4250 2950 60  0000 C CNN
F 1 "TPS60310_b" H 4300 2800 60  0000 C CNN
F 2 "CJCfootprint:DGS_10" H 4800 3300 60  0001 C CNN
F 3 "" H 4800 3300 60  0000 C CNN
	1    3750 3300
	1    0    0    -1  
$EndComp
Wire Wire Line
	3550 4400 3550 4050
$Comp
L GND #PWR02
U 1 1 56CD1916
P 4350 4500
F 0 "#PWR02" H 4350 4250 50  0001 C CNN
F 1 "GND" H 4350 4350 50  0000 C CNN
F 2 "" H 4350 4500 50  0000 C CNN
F 3 "" H 4350 4500 50  0000 C CNN
	1    4350 4500
	1    0    0    -1  
$EndComp
Wire Wire Line
	4350 4400 4350 4500
Wire Wire Line
	3350 3650 3350 3750
Connection ~ 3350 3650
Wire Wire Line
	5100 3800 5300 3800
Wire Wire Line
	5300 4100 5300 5100
Connection ~ 4350 4400
Wire Wire Line
	5100 3550 5950 3550
Wire Wire Line
	5650 2850 5650 3800
Wire Wire Line
	5650 4400 5650 4100
Connection ~ 5300 4400
Wire Wire Line
	3350 4400 3350 4050
Connection ~ 3550 4400
Connection ~ 3350 4400
Connection ~ 3100 4400
Wire Wire Line
	2900 4400 6450 4400
Connection ~ 5650 3550
Wire Wire Line
	6150 4400 6150 4150
Connection ~ 5650 4400
Wire Wire Line
	6450 4400 6450 4150
Connection ~ 6150 4400
Wire Wire Line
	9600 4000 9600 3550
Wire Wire Line
	8100 3450 8100 4000
Wire Wire Line
	8400 3900 8450 3900
Wire Wire Line
	8400 4100 8450 4100
Wire Wire Line
	8750 4000 9600 4000
Connection ~ 8750 4000
Connection ~ 8400 4000
Wire Wire Line
	9250 3850 9250 4000
Connection ~ 9250 4000
Connection ~ 9250 3850
Wire Wire Line
	9150 3550 9350 3550
Wire Wire Line
	9250 3550 9250 3450
Connection ~ 9250 3450
Connection ~ 9250 3550
Connection ~ 7050 2850
Connection ~ 7350 2850
Wire Wire Line
	6750 3700 6600 3700
Wire Wire Line
	6600 3700 6600 5000
Wire Wire Line
	5950 5000 6800 5000
Wire Wire Line
	7750 3400 8000 3400
Wire Wire Line
	8000 3400 8000 5000
Wire Wire Line
	7750 3550 7900 3550
Wire Wire Line
	7900 3550 7900 5100
$Comp
L R R20
U 1 1 58325264
P 5950 4850
F 0 "R20" V 6030 4850 50  0000 C CNN
F 1 "10k" V 5950 4850 50  0000 C CNN
F 2 "Resistors_SMD:R_0603_HandSoldering" V 5880 4850 50  0001 C CNN
F 3 "" H 5950 4850 50  0000 C CNN
	1    5950 4850
	1    0    0    -1  
$EndComp
Wire Wire Line
	5950 3550 5950 4700
Wire Wire Line
	3100 4400 3100 4050
Wire Wire Line
	7750 4150 8200 4150
Wire Wire Line
	8200 4150 8200 4000
Wire Wire Line
	8200 4000 8400 4000
Wire Wire Line
	8100 4000 7750 4000
NoConn ~ 5100 4050
NoConn ~ 6750 3850
NoConn ~ 6750 4000
NoConn ~ 6750 4150
NoConn ~ 7750 3850
NoConn ~ 7750 3700
Wire Wire Line
	8750 3300 9000 3300
Wire Wire Line
	9000 3300 9000 3450
Wire Wire Line
	2900 3650 3550 3650
$Comp
L PWR_FLAG #FLG03
U 1 1 5833768F
P 3100 3650
F 0 "#FLG03" H 3100 3745 50  0001 C CNN
F 1 "PWR_FLAG" H 3100 3830 50  0000 C CNN
F 2 "" H 3100 3650 50  0000 C CNN
F 3 "" H 3100 3650 50  0000 C CNN
	1    3100 3650
	1    0    0    -1  
$EndComp
$Comp
L DIL6 P3
U 1 1 58333A83
P 7150 5000
F 0 "P3" H 7150 5200 50  0000 C CNN
F 1 "DIL6" V 7150 5000 50  0000 C CNN
F 2 "CJCfootprint:Harwin_M22_6_female" H 7150 5000 50  0001 C CNN
F 3 "" H 7150 5000 50  0000 C CNN
	1    7150 5000
	1    0    0    -1  
$EndComp
Connection ~ 6600 5000
Wire Wire Line
	5300 5100 6800 5100
Wire Wire Line
	7500 4900 7500 4600
Wire Wire Line
	7500 4600 5950 4600
Connection ~ 5950 4600
Wire Wire Line
	7900 5100 7500 5100
Wire Wire Line
	8000 5000 7500 5000
NoConn ~ 6800 4900
NoConn ~ 10900 4450
$EndSCHEMATC
