G04 #@! TF.FileFunction,Legend,Top*
%FSLAX46Y46*%
G04 Gerber Fmt 4.6, Leading zero omitted, Abs format (unit mm)*
G04 Created by KiCad (PCBNEW 4.0.6) date 04/04/17 14:22:59*
%MOMM*%
%LPD*%
G01*
G04 APERTURE LIST*
%ADD10C,0.100000*%
%ADD11C,0.200000*%
%ADD12C,0.120000*%
%ADD13C,0.150000*%
%ADD14C,0.152400*%
G04 APERTURE END LIST*
D10*
D11*
X182273905Y-85164381D02*
X182845334Y-85164381D01*
X182559619Y-86164381D02*
X182559619Y-85164381D01*
X183178667Y-86164381D02*
X183178667Y-85164381D01*
X183607239Y-86164381D02*
X183607239Y-85640571D01*
X183559620Y-85545333D01*
X183464382Y-85497714D01*
X183321524Y-85497714D01*
X183226286Y-85545333D01*
X183178667Y-85592952D01*
X184083429Y-86164381D02*
X184083429Y-85497714D01*
X184083429Y-85164381D02*
X184035810Y-85212000D01*
X184083429Y-85259619D01*
X184131048Y-85212000D01*
X184083429Y-85164381D01*
X184083429Y-85259619D01*
X184512000Y-86116762D02*
X184607238Y-86164381D01*
X184797714Y-86164381D01*
X184892953Y-86116762D01*
X184940572Y-86021524D01*
X184940572Y-85973905D01*
X184892953Y-85878667D01*
X184797714Y-85831048D01*
X184654857Y-85831048D01*
X184559619Y-85783429D01*
X184512000Y-85688190D01*
X184512000Y-85640571D01*
X184559619Y-85545333D01*
X184654857Y-85497714D01*
X184797714Y-85497714D01*
X184892953Y-85545333D01*
X186131048Y-86164381D02*
X186131048Y-85497714D01*
X186131048Y-85164381D02*
X186083429Y-85212000D01*
X186131048Y-85259619D01*
X186178667Y-85212000D01*
X186131048Y-85164381D01*
X186131048Y-85259619D01*
X186559619Y-86116762D02*
X186654857Y-86164381D01*
X186845333Y-86164381D01*
X186940572Y-86116762D01*
X186988191Y-86021524D01*
X186988191Y-85973905D01*
X186940572Y-85878667D01*
X186845333Y-85831048D01*
X186702476Y-85831048D01*
X186607238Y-85783429D01*
X186559619Y-85688190D01*
X186559619Y-85640571D01*
X186607238Y-85545333D01*
X186702476Y-85497714D01*
X186845333Y-85497714D01*
X186940572Y-85545333D01*
X188607239Y-86164381D02*
X188607239Y-85640571D01*
X188559620Y-85545333D01*
X188464382Y-85497714D01*
X188273905Y-85497714D01*
X188178667Y-85545333D01*
X188607239Y-86116762D02*
X188512001Y-86164381D01*
X188273905Y-86164381D01*
X188178667Y-86116762D01*
X188131048Y-86021524D01*
X188131048Y-85926286D01*
X188178667Y-85831048D01*
X188273905Y-85783429D01*
X188512001Y-85783429D01*
X188607239Y-85735810D01*
X183821524Y-87816762D02*
X183726286Y-87864381D01*
X183535809Y-87864381D01*
X183440571Y-87816762D01*
X183392952Y-87769143D01*
X183345333Y-87673905D01*
X183345333Y-87388190D01*
X183392952Y-87292952D01*
X183440571Y-87245333D01*
X183535809Y-87197714D01*
X183726286Y-87197714D01*
X183821524Y-87245333D01*
X184678667Y-87197714D02*
X184678667Y-87864381D01*
X184250095Y-87197714D02*
X184250095Y-87721524D01*
X184297714Y-87816762D01*
X184392952Y-87864381D01*
X184535810Y-87864381D01*
X184631048Y-87816762D01*
X184678667Y-87769143D01*
X185012000Y-87197714D02*
X185392952Y-87197714D01*
X185154857Y-86864381D02*
X185154857Y-87721524D01*
X185202476Y-87816762D01*
X185297714Y-87864381D01*
X185392952Y-87864381D01*
X185869143Y-87864381D02*
X185773905Y-87816762D01*
X185726286Y-87769143D01*
X185678667Y-87673905D01*
X185678667Y-87388190D01*
X185726286Y-87292952D01*
X185773905Y-87245333D01*
X185869143Y-87197714D01*
X186012001Y-87197714D01*
X186107239Y-87245333D01*
X186154858Y-87292952D01*
X186202477Y-87388190D01*
X186202477Y-87673905D01*
X186154858Y-87769143D01*
X186107239Y-87816762D01*
X186012001Y-87864381D01*
X185869143Y-87864381D01*
X187059620Y-87197714D02*
X187059620Y-87864381D01*
X186631048Y-87197714D02*
X186631048Y-87721524D01*
X186678667Y-87816762D01*
X186773905Y-87864381D01*
X186916763Y-87864381D01*
X187012001Y-87816762D01*
X187059620Y-87769143D01*
X187392953Y-87197714D02*
X187773905Y-87197714D01*
X187535810Y-86864381D02*
X187535810Y-87721524D01*
X187583429Y-87816762D01*
X187678667Y-87864381D01*
X187773905Y-87864381D01*
D12*
X182121000Y-135568000D02*
X181121000Y-135568000D01*
X181121000Y-134208000D02*
X182121000Y-134208000D01*
X198416000Y-133653000D02*
X199116000Y-133653000D01*
X199116000Y-134853000D02*
X198416000Y-134853000D01*
X201906000Y-134792000D02*
X201906000Y-135492000D01*
X200706000Y-135492000D02*
X200706000Y-134792000D01*
X190415000Y-141527000D02*
X191115000Y-141527000D01*
X191115000Y-142727000D02*
X190415000Y-142727000D01*
X191115000Y-144632000D02*
X190415000Y-144632000D01*
X190415000Y-143432000D02*
X191115000Y-143432000D01*
X186863000Y-138413000D02*
X186863000Y-137713000D01*
X188063000Y-137713000D02*
X188063000Y-138413000D01*
X184257000Y-147172000D02*
X183557000Y-147172000D01*
X183557000Y-145972000D02*
X184257000Y-145972000D01*
X172385000Y-139429000D02*
X172385000Y-138729000D01*
X173585000Y-138729000D02*
X173585000Y-139429000D01*
X180890000Y-144067000D02*
X181590000Y-144067000D01*
X181590000Y-145267000D02*
X180890000Y-145267000D01*
X184069000Y-138413000D02*
X184069000Y-137713000D01*
X185269000Y-137713000D02*
X185269000Y-138413000D01*
X184432000Y-122408000D02*
X188682000Y-122408000D01*
X184432000Y-124508000D02*
X188682000Y-124508000D01*
X184432000Y-122408000D02*
X184432000Y-124508000D01*
X193340000Y-125713000D02*
X193340000Y-125013000D01*
X194540000Y-125013000D02*
X194540000Y-125713000D01*
X180513000Y-140953000D02*
X180513000Y-140253000D01*
X181713000Y-140253000D02*
X181713000Y-140953000D01*
X194667000Y-133522000D02*
X194667000Y-134222000D01*
X193467000Y-134222000D02*
X193467000Y-133522000D01*
X173712000Y-135046000D02*
X173712000Y-135746000D01*
X172512000Y-135746000D02*
X172512000Y-135046000D01*
X183399000Y-119641000D02*
X191139000Y-119641000D01*
X191139000Y-119641000D02*
X191139000Y-116861000D01*
X191139000Y-116861000D02*
X183399000Y-116861000D01*
X183399000Y-116861000D02*
X183399000Y-119641000D01*
X182129000Y-119641000D02*
X180739000Y-119641000D01*
X180739000Y-119641000D02*
X180739000Y-118251000D01*
X203510000Y-129816000D02*
X203510000Y-130816000D01*
X202150000Y-130816000D02*
X202150000Y-129816000D01*
X199266000Y-138489000D02*
X198266000Y-138489000D01*
X198266000Y-137129000D02*
X199266000Y-137129000D01*
X192969000Y-133372000D02*
X192969000Y-134372000D01*
X191609000Y-134372000D02*
X191609000Y-133372000D01*
X186963000Y-141574000D02*
X187963000Y-141574000D01*
X187963000Y-142934000D02*
X186963000Y-142934000D01*
X179327000Y-143315000D02*
X178327000Y-143315000D01*
X178327000Y-141955000D02*
X179327000Y-141955000D01*
X175279000Y-141955000D02*
X176279000Y-141955000D01*
X176279000Y-143315000D02*
X175279000Y-143315000D01*
X182883000Y-137981000D02*
X181883000Y-137981000D01*
X181883000Y-136621000D02*
X182883000Y-136621000D01*
X193043000Y-122995000D02*
X192043000Y-122995000D01*
X192043000Y-121635000D02*
X193043000Y-121635000D01*
X192588000Y-124863000D02*
X192588000Y-125863000D01*
X191228000Y-125863000D02*
X191228000Y-124863000D01*
X196345000Y-143061000D02*
X195345000Y-143061000D01*
X195345000Y-141701000D02*
X196345000Y-141701000D01*
X198266000Y-135351000D02*
X199266000Y-135351000D01*
X199266000Y-136711000D02*
X198266000Y-136711000D01*
D13*
X194745000Y-141019000D02*
X194745000Y-140969000D01*
X190595000Y-141019000D02*
X190595000Y-140874000D01*
X190595000Y-135869000D02*
X190595000Y-136014000D01*
X194745000Y-135869000D02*
X194745000Y-136014000D01*
X194745000Y-141019000D02*
X190595000Y-141019000D01*
X194745000Y-135869000D02*
X190595000Y-135869000D01*
X194745000Y-140969000D02*
X196145000Y-140969000D01*
X174601000Y-139376000D02*
X174651000Y-139376000D01*
X174601000Y-135226000D02*
X174746000Y-135226000D01*
X179751000Y-135226000D02*
X179606000Y-135226000D01*
X179751000Y-139376000D02*
X179606000Y-139376000D01*
X174601000Y-139376000D02*
X174601000Y-135226000D01*
X179751000Y-139376000D02*
X179751000Y-135226000D01*
X174651000Y-139376000D02*
X174651000Y-140776000D01*
D14*
X185249572Y-134192524D02*
X185249572Y-132922524D01*
X185539857Y-132922524D01*
X185612429Y-132983000D01*
X185648714Y-133043476D01*
X185685000Y-133164429D01*
X185685000Y-133345857D01*
X185648714Y-133466810D01*
X185612429Y-133527286D01*
X185539857Y-133587762D01*
X185249572Y-133587762D01*
X185975286Y-133043476D02*
X186011572Y-132983000D01*
X186084143Y-132922524D01*
X186265572Y-132922524D01*
X186338143Y-132983000D01*
X186374429Y-133043476D01*
X186410714Y-133164429D01*
X186410714Y-133285381D01*
X186374429Y-133466810D01*
X185939000Y-134192524D01*
X186410714Y-134192524D01*
X180833600Y-133699764D02*
X180579600Y-133095002D01*
X180398172Y-133699764D02*
X180398172Y-132429764D01*
X180688457Y-132429764D01*
X180761029Y-132490240D01*
X180797314Y-132550716D01*
X180833600Y-132671669D01*
X180833600Y-132853097D01*
X180797314Y-132974050D01*
X180761029Y-133034526D01*
X180688457Y-133095002D01*
X180398172Y-133095002D01*
X181087600Y-132429764D02*
X181595600Y-132429764D01*
X181269029Y-133699764D01*
X196231080Y-134107131D02*
X196194794Y-134167608D01*
X196085937Y-134228084D01*
X196013366Y-134228084D01*
X195904509Y-134167608D01*
X195831937Y-134046655D01*
X195795652Y-133925703D01*
X195759366Y-133683798D01*
X195759366Y-133502370D01*
X195795652Y-133260465D01*
X195831937Y-133139512D01*
X195904509Y-133018560D01*
X196013366Y-132958084D01*
X196085937Y-132958084D01*
X196194794Y-133018560D01*
X196231080Y-133079036D01*
X196956794Y-134228084D02*
X196521366Y-134228084D01*
X196739080Y-134228084D02*
X196739080Y-132958084D01*
X196666509Y-133139512D01*
X196593937Y-133260465D01*
X196521366Y-133320941D01*
X202723320Y-135209491D02*
X202687034Y-135269968D01*
X202578177Y-135330444D01*
X202505606Y-135330444D01*
X202396749Y-135269968D01*
X202324177Y-135149015D01*
X202287892Y-135028063D01*
X202251606Y-134786158D01*
X202251606Y-134604730D01*
X202287892Y-134362825D01*
X202324177Y-134241872D01*
X202396749Y-134120920D01*
X202505606Y-134060444D01*
X202578177Y-134060444D01*
X202687034Y-134120920D01*
X202723320Y-134181396D01*
X203013606Y-134181396D02*
X203049892Y-134120920D01*
X203122463Y-134060444D01*
X203303892Y-134060444D01*
X203376463Y-134120920D01*
X203412749Y-134181396D01*
X203449034Y-134302349D01*
X203449034Y-134423301D01*
X203412749Y-134604730D01*
X202977320Y-135330444D01*
X203449034Y-135330444D01*
X191968960Y-142407851D02*
X191932674Y-142468328D01*
X191823817Y-142528804D01*
X191751246Y-142528804D01*
X191642389Y-142468328D01*
X191569817Y-142347375D01*
X191533532Y-142226423D01*
X191497246Y-141984518D01*
X191497246Y-141803090D01*
X191533532Y-141561185D01*
X191569817Y-141440232D01*
X191642389Y-141319280D01*
X191751246Y-141258804D01*
X191823817Y-141258804D01*
X191932674Y-141319280D01*
X191968960Y-141379756D01*
X192222960Y-141258804D02*
X192694674Y-141258804D01*
X192440674Y-141742613D01*
X192549532Y-141742613D01*
X192622103Y-141803090D01*
X192658389Y-141863566D01*
X192694674Y-141984518D01*
X192694674Y-142286899D01*
X192658389Y-142407851D01*
X192622103Y-142468328D01*
X192549532Y-142528804D01*
X192331817Y-142528804D01*
X192259246Y-142468328D01*
X192222960Y-142407851D01*
X190673560Y-146413431D02*
X190637274Y-146473908D01*
X190528417Y-146534384D01*
X190455846Y-146534384D01*
X190346989Y-146473908D01*
X190274417Y-146352955D01*
X190238132Y-146232003D01*
X190201846Y-145990098D01*
X190201846Y-145808670D01*
X190238132Y-145566765D01*
X190274417Y-145445812D01*
X190346989Y-145324860D01*
X190455846Y-145264384D01*
X190528417Y-145264384D01*
X190637274Y-145324860D01*
X190673560Y-145385336D01*
X191326703Y-145687717D02*
X191326703Y-146534384D01*
X191145274Y-145203908D02*
X190963846Y-146111050D01*
X191435560Y-146111050D01*
X187209000Y-136184851D02*
X187172714Y-136245328D01*
X187063857Y-136305804D01*
X186991286Y-136305804D01*
X186882429Y-136245328D01*
X186809857Y-136124375D01*
X186773572Y-136003423D01*
X186737286Y-135761518D01*
X186737286Y-135580090D01*
X186773572Y-135338185D01*
X186809857Y-135217232D01*
X186882429Y-135096280D01*
X186991286Y-135035804D01*
X187063857Y-135035804D01*
X187172714Y-135096280D01*
X187209000Y-135156756D01*
X187898429Y-135035804D02*
X187535572Y-135035804D01*
X187499286Y-135640566D01*
X187535572Y-135580090D01*
X187608143Y-135519613D01*
X187789572Y-135519613D01*
X187862143Y-135580090D01*
X187898429Y-135640566D01*
X187934714Y-135761518D01*
X187934714Y-136063899D01*
X187898429Y-136184851D01*
X187862143Y-136245328D01*
X187789572Y-136305804D01*
X187608143Y-136305804D01*
X187535572Y-136245328D01*
X187499286Y-136184851D01*
X186320000Y-147025571D02*
X186283714Y-147086048D01*
X186174857Y-147146524D01*
X186102286Y-147146524D01*
X185993429Y-147086048D01*
X185920857Y-146965095D01*
X185884572Y-146844143D01*
X185848286Y-146602238D01*
X185848286Y-146420810D01*
X185884572Y-146178905D01*
X185920857Y-146057952D01*
X185993429Y-145937000D01*
X186102286Y-145876524D01*
X186174857Y-145876524D01*
X186283714Y-145937000D01*
X186320000Y-145997476D01*
X186973143Y-145876524D02*
X186828000Y-145876524D01*
X186755429Y-145937000D01*
X186719143Y-145997476D01*
X186646572Y-146178905D01*
X186610286Y-146420810D01*
X186610286Y-146904619D01*
X186646572Y-147025571D01*
X186682857Y-147086048D01*
X186755429Y-147146524D01*
X186900572Y-147146524D01*
X186973143Y-147086048D01*
X187009429Y-147025571D01*
X187045714Y-146904619D01*
X187045714Y-146602238D01*
X187009429Y-146481286D01*
X186973143Y-146420810D01*
X186900572Y-146360333D01*
X186755429Y-146360333D01*
X186682857Y-146420810D01*
X186646572Y-146481286D01*
X186610286Y-146602238D01*
X171207000Y-139659571D02*
X171170714Y-139720048D01*
X171061857Y-139780524D01*
X170989286Y-139780524D01*
X170880429Y-139720048D01*
X170807857Y-139599095D01*
X170771572Y-139478143D01*
X170735286Y-139236238D01*
X170735286Y-139054810D01*
X170771572Y-138812905D01*
X170807857Y-138691952D01*
X170880429Y-138571000D01*
X170989286Y-138510524D01*
X171061857Y-138510524D01*
X171170714Y-138571000D01*
X171207000Y-138631476D01*
X171461000Y-138510524D02*
X171969000Y-138510524D01*
X171642429Y-139780524D01*
X181130780Y-146794431D02*
X181094494Y-146854908D01*
X180985637Y-146915384D01*
X180913066Y-146915384D01*
X180804209Y-146854908D01*
X180731637Y-146733955D01*
X180695352Y-146613003D01*
X180659066Y-146371098D01*
X180659066Y-146189670D01*
X180695352Y-145947765D01*
X180731637Y-145826812D01*
X180804209Y-145705860D01*
X180913066Y-145645384D01*
X180985637Y-145645384D01*
X181094494Y-145705860D01*
X181130780Y-145766336D01*
X181566209Y-146189670D02*
X181493637Y-146129193D01*
X181457352Y-146068717D01*
X181421066Y-145947765D01*
X181421066Y-145887289D01*
X181457352Y-145766336D01*
X181493637Y-145705860D01*
X181566209Y-145645384D01*
X181711352Y-145645384D01*
X181783923Y-145705860D01*
X181820209Y-145766336D01*
X181856494Y-145887289D01*
X181856494Y-145947765D01*
X181820209Y-146068717D01*
X181783923Y-146129193D01*
X181711352Y-146189670D01*
X181566209Y-146189670D01*
X181493637Y-146250146D01*
X181457352Y-146310622D01*
X181421066Y-146431574D01*
X181421066Y-146673479D01*
X181457352Y-146794431D01*
X181493637Y-146854908D01*
X181566209Y-146915384D01*
X181711352Y-146915384D01*
X181783923Y-146854908D01*
X181820209Y-146794431D01*
X181856494Y-146673479D01*
X181856494Y-146431574D01*
X181820209Y-146310622D01*
X181783923Y-146250146D01*
X181711352Y-146189670D01*
X184760440Y-141087051D02*
X184724154Y-141147528D01*
X184615297Y-141208004D01*
X184542726Y-141208004D01*
X184433869Y-141147528D01*
X184361297Y-141026575D01*
X184325012Y-140905623D01*
X184288726Y-140663718D01*
X184288726Y-140482290D01*
X184325012Y-140240385D01*
X184361297Y-140119432D01*
X184433869Y-139998480D01*
X184542726Y-139938004D01*
X184615297Y-139938004D01*
X184724154Y-139998480D01*
X184760440Y-140058956D01*
X185123297Y-141208004D02*
X185268440Y-141208004D01*
X185341012Y-141147528D01*
X185377297Y-141087051D01*
X185449869Y-140905623D01*
X185486154Y-140663718D01*
X185486154Y-140179909D01*
X185449869Y-140058956D01*
X185413583Y-139998480D01*
X185341012Y-139938004D01*
X185195869Y-139938004D01*
X185123297Y-139998480D01*
X185087012Y-140058956D01*
X185050726Y-140179909D01*
X185050726Y-140482290D01*
X185087012Y-140603242D01*
X185123297Y-140663718D01*
X185195869Y-140724194D01*
X185341012Y-140724194D01*
X185413583Y-140663718D01*
X185449869Y-140603242D01*
X185486154Y-140482290D01*
X182413843Y-123873471D02*
X182377557Y-123933948D01*
X182268700Y-123994424D01*
X182196129Y-123994424D01*
X182087272Y-123933948D01*
X182014700Y-123812995D01*
X181978415Y-123692043D01*
X181942129Y-123450138D01*
X181942129Y-123268710D01*
X181978415Y-123026805D01*
X182014700Y-122905852D01*
X182087272Y-122784900D01*
X182196129Y-122724424D01*
X182268700Y-122724424D01*
X182377557Y-122784900D01*
X182413843Y-122845376D01*
X183139557Y-123994424D02*
X182704129Y-123994424D01*
X182921843Y-123994424D02*
X182921843Y-122724424D01*
X182849272Y-122905852D01*
X182776700Y-123026805D01*
X182704129Y-123087281D01*
X183611271Y-122724424D02*
X183683843Y-122724424D01*
X183756414Y-122784900D01*
X183792700Y-122845376D01*
X183828986Y-122966329D01*
X183865271Y-123208233D01*
X183865271Y-123510614D01*
X183828986Y-123752519D01*
X183792700Y-123873471D01*
X183756414Y-123933948D01*
X183683843Y-123994424D01*
X183611271Y-123994424D01*
X183538700Y-123933948D01*
X183502414Y-123873471D01*
X183466129Y-123752519D01*
X183429843Y-123510614D01*
X183429843Y-123208233D01*
X183466129Y-122966329D01*
X183502414Y-122845376D01*
X183538700Y-122784900D01*
X183611271Y-122724424D01*
X193790503Y-128293071D02*
X193754217Y-128353548D01*
X193645360Y-128414024D01*
X193572789Y-128414024D01*
X193463932Y-128353548D01*
X193391360Y-128232595D01*
X193355075Y-128111643D01*
X193318789Y-127869738D01*
X193318789Y-127688310D01*
X193355075Y-127446405D01*
X193391360Y-127325452D01*
X193463932Y-127204500D01*
X193572789Y-127144024D01*
X193645360Y-127144024D01*
X193754217Y-127204500D01*
X193790503Y-127264976D01*
X194516217Y-128414024D02*
X194080789Y-128414024D01*
X194298503Y-128414024D02*
X194298503Y-127144024D01*
X194225932Y-127325452D01*
X194153360Y-127446405D01*
X194080789Y-127506881D01*
X195241931Y-128414024D02*
X194806503Y-128414024D01*
X195024217Y-128414024D02*
X195024217Y-127144024D01*
X194951646Y-127325452D01*
X194879074Y-127446405D01*
X194806503Y-127506881D01*
X180699343Y-143487351D02*
X180663057Y-143547828D01*
X180554200Y-143608304D01*
X180481629Y-143608304D01*
X180372772Y-143547828D01*
X180300200Y-143426875D01*
X180263915Y-143305923D01*
X180227629Y-143064018D01*
X180227629Y-142882590D01*
X180263915Y-142640685D01*
X180300200Y-142519732D01*
X180372772Y-142398780D01*
X180481629Y-142338304D01*
X180554200Y-142338304D01*
X180663057Y-142398780D01*
X180699343Y-142459256D01*
X181425057Y-143608304D02*
X180989629Y-143608304D01*
X181207343Y-143608304D02*
X181207343Y-142338304D01*
X181134772Y-142519732D01*
X181062200Y-142640685D01*
X180989629Y-142701161D01*
X181715343Y-142459256D02*
X181751629Y-142398780D01*
X181824200Y-142338304D01*
X182005629Y-142338304D01*
X182078200Y-142398780D01*
X182114486Y-142459256D01*
X182150771Y-142580209D01*
X182150771Y-142701161D01*
X182114486Y-142882590D01*
X181679057Y-143608304D01*
X182150771Y-143608304D01*
X193577143Y-132166571D02*
X193540857Y-132227048D01*
X193432000Y-132287524D01*
X193359429Y-132287524D01*
X193250572Y-132227048D01*
X193178000Y-132106095D01*
X193141715Y-131985143D01*
X193105429Y-131743238D01*
X193105429Y-131561810D01*
X193141715Y-131319905D01*
X193178000Y-131198952D01*
X193250572Y-131078000D01*
X193359429Y-131017524D01*
X193432000Y-131017524D01*
X193540857Y-131078000D01*
X193577143Y-131138476D01*
X194302857Y-132287524D02*
X193867429Y-132287524D01*
X194085143Y-132287524D02*
X194085143Y-131017524D01*
X194012572Y-131198952D01*
X193940000Y-131319905D01*
X193867429Y-131380381D01*
X194556857Y-131017524D02*
X195028571Y-131017524D01*
X194774571Y-131501333D01*
X194883429Y-131501333D01*
X194956000Y-131561810D01*
X194992286Y-131622286D01*
X195028571Y-131743238D01*
X195028571Y-132045619D01*
X194992286Y-132166571D01*
X194956000Y-132227048D01*
X194883429Y-132287524D01*
X194665714Y-132287524D01*
X194593143Y-132227048D01*
X194556857Y-132166571D01*
X170336143Y-135722571D02*
X170299857Y-135783048D01*
X170191000Y-135843524D01*
X170118429Y-135843524D01*
X170009572Y-135783048D01*
X169937000Y-135662095D01*
X169900715Y-135541143D01*
X169864429Y-135299238D01*
X169864429Y-135117810D01*
X169900715Y-134875905D01*
X169937000Y-134754952D01*
X170009572Y-134634000D01*
X170118429Y-134573524D01*
X170191000Y-134573524D01*
X170299857Y-134634000D01*
X170336143Y-134694476D01*
X171061857Y-135843524D02*
X170626429Y-135843524D01*
X170844143Y-135843524D02*
X170844143Y-134573524D01*
X170771572Y-134754952D01*
X170699000Y-134875905D01*
X170626429Y-134936381D01*
X171715000Y-134996857D02*
X171715000Y-135843524D01*
X171533571Y-134513048D02*
X171352143Y-135420190D01*
X171823857Y-135420190D01*
X182836572Y-116666524D02*
X182836572Y-115396524D01*
X183126857Y-115396524D01*
X183199429Y-115457000D01*
X183235714Y-115517476D01*
X183272000Y-115638429D01*
X183272000Y-115819857D01*
X183235714Y-115940810D01*
X183199429Y-116001286D01*
X183126857Y-116061762D01*
X182836572Y-116061762D01*
X183997714Y-116666524D02*
X183562286Y-116666524D01*
X183780000Y-116666524D02*
X183780000Y-115396524D01*
X183707429Y-115577952D01*
X183634857Y-115698905D01*
X183562286Y-115759381D01*
X202703000Y-128985524D02*
X202449000Y-128380762D01*
X202267572Y-128985524D02*
X202267572Y-127715524D01*
X202557857Y-127715524D01*
X202630429Y-127776000D01*
X202666714Y-127836476D01*
X202703000Y-127957429D01*
X202703000Y-128138857D01*
X202666714Y-128259810D01*
X202630429Y-128320286D01*
X202557857Y-128380762D01*
X202267572Y-128380762D01*
X203428714Y-128985524D02*
X202993286Y-128985524D01*
X203211000Y-128985524D02*
X203211000Y-127715524D01*
X203138429Y-127896952D01*
X203065857Y-128017905D01*
X202993286Y-128078381D01*
X196734000Y-136732524D02*
X196480000Y-136127762D01*
X196298572Y-136732524D02*
X196298572Y-135462524D01*
X196588857Y-135462524D01*
X196661429Y-135523000D01*
X196697714Y-135583476D01*
X196734000Y-135704429D01*
X196734000Y-135885857D01*
X196697714Y-136006810D01*
X196661429Y-136067286D01*
X196588857Y-136127762D01*
X196298572Y-136127762D01*
X197024286Y-135583476D02*
X197060572Y-135523000D01*
X197133143Y-135462524D01*
X197314572Y-135462524D01*
X197387143Y-135523000D01*
X197423429Y-135583476D01*
X197459714Y-135704429D01*
X197459714Y-135825381D01*
X197423429Y-136006810D01*
X196988000Y-136732524D01*
X197459714Y-136732524D01*
X190384000Y-134446524D02*
X190130000Y-133841762D01*
X189948572Y-134446524D02*
X189948572Y-133176524D01*
X190238857Y-133176524D01*
X190311429Y-133237000D01*
X190347714Y-133297476D01*
X190384000Y-133418429D01*
X190384000Y-133599857D01*
X190347714Y-133720810D01*
X190311429Y-133781286D01*
X190238857Y-133841762D01*
X189948572Y-133841762D01*
X190638000Y-133176524D02*
X191109714Y-133176524D01*
X190855714Y-133660333D01*
X190964572Y-133660333D01*
X191037143Y-133720810D01*
X191073429Y-133781286D01*
X191109714Y-133902238D01*
X191109714Y-134204619D01*
X191073429Y-134325571D01*
X191037143Y-134386048D01*
X190964572Y-134446524D01*
X190746857Y-134446524D01*
X190674286Y-134386048D01*
X190638000Y-134325571D01*
X187351240Y-144596364D02*
X187097240Y-143991602D01*
X186915812Y-144596364D02*
X186915812Y-143326364D01*
X187206097Y-143326364D01*
X187278669Y-143386840D01*
X187314954Y-143447316D01*
X187351240Y-143568269D01*
X187351240Y-143749697D01*
X187314954Y-143870650D01*
X187278669Y-143931126D01*
X187206097Y-143991602D01*
X186915812Y-143991602D01*
X188004383Y-143749697D02*
X188004383Y-144596364D01*
X187822954Y-143265888D02*
X187641526Y-144173030D01*
X188113240Y-144173030D01*
X178692380Y-144995144D02*
X178438380Y-144390382D01*
X178256952Y-144995144D02*
X178256952Y-143725144D01*
X178547237Y-143725144D01*
X178619809Y-143785620D01*
X178656094Y-143846096D01*
X178692380Y-143967049D01*
X178692380Y-144148477D01*
X178656094Y-144269430D01*
X178619809Y-144329906D01*
X178547237Y-144390382D01*
X178256952Y-144390382D01*
X179381809Y-143725144D02*
X179018952Y-143725144D01*
X178982666Y-144329906D01*
X179018952Y-144269430D01*
X179091523Y-144208953D01*
X179272952Y-144208953D01*
X179345523Y-144269430D01*
X179381809Y-144329906D01*
X179418094Y-144450858D01*
X179418094Y-144753239D01*
X179381809Y-144874191D01*
X179345523Y-144934668D01*
X179272952Y-144995144D01*
X179091523Y-144995144D01*
X179018952Y-144934668D01*
X178982666Y-144874191D01*
X173472680Y-142937744D02*
X173218680Y-142332982D01*
X173037252Y-142937744D02*
X173037252Y-141667744D01*
X173327537Y-141667744D01*
X173400109Y-141728220D01*
X173436394Y-141788696D01*
X173472680Y-141909649D01*
X173472680Y-142091077D01*
X173436394Y-142212030D01*
X173400109Y-142272506D01*
X173327537Y-142332982D01*
X173037252Y-142332982D01*
X174125823Y-141667744D02*
X173980680Y-141667744D01*
X173908109Y-141728220D01*
X173871823Y-141788696D01*
X173799252Y-141970125D01*
X173762966Y-142212030D01*
X173762966Y-142695839D01*
X173799252Y-142816791D01*
X173835537Y-142877268D01*
X173908109Y-142937744D01*
X174053252Y-142937744D01*
X174125823Y-142877268D01*
X174162109Y-142816791D01*
X174198394Y-142695839D01*
X174198394Y-142393458D01*
X174162109Y-142272506D01*
X174125823Y-142212030D01*
X174053252Y-142151553D01*
X173908109Y-142151553D01*
X173835537Y-142212030D01*
X173799252Y-142272506D01*
X173762966Y-142393458D01*
X180384020Y-137832344D02*
X180130020Y-137227582D01*
X179948592Y-137832344D02*
X179948592Y-136562344D01*
X180238877Y-136562344D01*
X180311449Y-136622820D01*
X180347734Y-136683296D01*
X180384020Y-136804249D01*
X180384020Y-136985677D01*
X180347734Y-137106630D01*
X180311449Y-137167106D01*
X180238877Y-137227582D01*
X179948592Y-137227582D01*
X180819449Y-137106630D02*
X180746877Y-137046153D01*
X180710592Y-136985677D01*
X180674306Y-136864725D01*
X180674306Y-136804249D01*
X180710592Y-136683296D01*
X180746877Y-136622820D01*
X180819449Y-136562344D01*
X180964592Y-136562344D01*
X181037163Y-136622820D01*
X181073449Y-136683296D01*
X181109734Y-136804249D01*
X181109734Y-136864725D01*
X181073449Y-136985677D01*
X181037163Y-137046153D01*
X180964592Y-137106630D01*
X180819449Y-137106630D01*
X180746877Y-137167106D01*
X180710592Y-137227582D01*
X180674306Y-137348534D01*
X180674306Y-137590439D01*
X180710592Y-137711391D01*
X180746877Y-137771868D01*
X180819449Y-137832344D01*
X180964592Y-137832344D01*
X181037163Y-137771868D01*
X181073449Y-137711391D01*
X181109734Y-137590439D01*
X181109734Y-137348534D01*
X181073449Y-137227582D01*
X181037163Y-137167106D01*
X180964592Y-137106630D01*
X194961080Y-122439944D02*
X194707080Y-121835182D01*
X194525652Y-122439944D02*
X194525652Y-121169944D01*
X194815937Y-121169944D01*
X194888509Y-121230420D01*
X194924794Y-121290896D01*
X194961080Y-121411849D01*
X194961080Y-121593277D01*
X194924794Y-121714230D01*
X194888509Y-121774706D01*
X194815937Y-121835182D01*
X194525652Y-121835182D01*
X195323937Y-122439944D02*
X195469080Y-122439944D01*
X195541652Y-122379468D01*
X195577937Y-122318991D01*
X195650509Y-122137563D01*
X195686794Y-121895658D01*
X195686794Y-121411849D01*
X195650509Y-121290896D01*
X195614223Y-121230420D01*
X195541652Y-121169944D01*
X195396509Y-121169944D01*
X195323937Y-121230420D01*
X195287652Y-121290896D01*
X195251366Y-121411849D01*
X195251366Y-121714230D01*
X195287652Y-121835182D01*
X195323937Y-121895658D01*
X195396509Y-121956134D01*
X195541652Y-121956134D01*
X195614223Y-121895658D01*
X195650509Y-121835182D01*
X195686794Y-121714230D01*
X190879663Y-128238764D02*
X190625663Y-127634002D01*
X190444235Y-128238764D02*
X190444235Y-126968764D01*
X190734520Y-126968764D01*
X190807092Y-127029240D01*
X190843377Y-127089716D01*
X190879663Y-127210669D01*
X190879663Y-127392097D01*
X190843377Y-127513050D01*
X190807092Y-127573526D01*
X190734520Y-127634002D01*
X190444235Y-127634002D01*
X191605377Y-128238764D02*
X191169949Y-128238764D01*
X191387663Y-128238764D02*
X191387663Y-126968764D01*
X191315092Y-127150192D01*
X191242520Y-127271145D01*
X191169949Y-127331621D01*
X192077091Y-126968764D02*
X192149663Y-126968764D01*
X192222234Y-127029240D01*
X192258520Y-127089716D01*
X192294806Y-127210669D01*
X192331091Y-127452573D01*
X192331091Y-127754954D01*
X192294806Y-127996859D01*
X192258520Y-128117811D01*
X192222234Y-128178288D01*
X192149663Y-128238764D01*
X192077091Y-128238764D01*
X192004520Y-128178288D01*
X191968234Y-128117811D01*
X191931949Y-127996859D01*
X191895663Y-127754954D01*
X191895663Y-127452573D01*
X191931949Y-127210669D01*
X191968234Y-127089716D01*
X192004520Y-127029240D01*
X192077091Y-126968764D01*
X195301803Y-144687804D02*
X195047803Y-144083042D01*
X194866375Y-144687804D02*
X194866375Y-143417804D01*
X195156660Y-143417804D01*
X195229232Y-143478280D01*
X195265517Y-143538756D01*
X195301803Y-143659709D01*
X195301803Y-143841137D01*
X195265517Y-143962090D01*
X195229232Y-144022566D01*
X195156660Y-144083042D01*
X194866375Y-144083042D01*
X196027517Y-144687804D02*
X195592089Y-144687804D01*
X195809803Y-144687804D02*
X195809803Y-143417804D01*
X195737232Y-143599232D01*
X195664660Y-143720185D01*
X195592089Y-143780661D01*
X196753231Y-144687804D02*
X196317803Y-144687804D01*
X196535517Y-144687804D02*
X196535517Y-143417804D01*
X196462946Y-143599232D01*
X196390374Y-143720185D01*
X196317803Y-143780661D01*
X198972103Y-140120884D02*
X198718103Y-139516122D01*
X198536675Y-140120884D02*
X198536675Y-138850884D01*
X198826960Y-138850884D01*
X198899532Y-138911360D01*
X198935817Y-138971836D01*
X198972103Y-139092789D01*
X198972103Y-139274217D01*
X198935817Y-139395170D01*
X198899532Y-139455646D01*
X198826960Y-139516122D01*
X198536675Y-139516122D01*
X199697817Y-140120884D02*
X199262389Y-140120884D01*
X199480103Y-140120884D02*
X199480103Y-138850884D01*
X199407532Y-139032312D01*
X199334960Y-139153265D01*
X199262389Y-139213741D01*
X199988103Y-138971836D02*
X200024389Y-138911360D01*
X200096960Y-138850884D01*
X200278389Y-138850884D01*
X200350960Y-138911360D01*
X200387246Y-138971836D01*
X200423531Y-139092789D01*
X200423531Y-139213741D01*
X200387246Y-139395170D01*
X199951817Y-140120884D01*
X200423531Y-140120884D01*
X192724429Y-143021564D02*
X192724429Y-144049659D01*
X192760714Y-144170611D01*
X192797000Y-144231088D01*
X192869571Y-144291564D01*
X193014714Y-144291564D01*
X193087286Y-144231088D01*
X193123571Y-144170611D01*
X193159857Y-144049659D01*
X193159857Y-143021564D01*
X193921857Y-144291564D02*
X193486429Y-144291564D01*
X193704143Y-144291564D02*
X193704143Y-143021564D01*
X193631572Y-143202992D01*
X193559000Y-143323945D01*
X193486429Y-143384421D01*
X172658429Y-136605524D02*
X172658429Y-137633619D01*
X172694714Y-137754571D01*
X172731000Y-137815048D01*
X172803571Y-137875524D01*
X172948714Y-137875524D01*
X173021286Y-137815048D01*
X173057571Y-137754571D01*
X173093857Y-137633619D01*
X173093857Y-136605524D01*
X173420429Y-136726476D02*
X173456715Y-136666000D01*
X173529286Y-136605524D01*
X173710715Y-136605524D01*
X173783286Y-136666000D01*
X173819572Y-136726476D01*
X173855857Y-136847429D01*
X173855857Y-136968381D01*
X173819572Y-137149810D01*
X173384143Y-137875524D01*
X173855857Y-137875524D01*
D13*
D14*
M02*
