(module HPFupper (layer F.Cu) (tedit 58E2B898)
  (fp_text reference REF** (at 0 2.4) (layer F.SilkS)
    (effects (font (size 1.27 0.762) (thickness 0.1524)))
  )
  (fp_text value HPFupper (at 0 -3.6) (layer F.Fab)
    (effects (font (size 1 1) (thickness 0.15)))
  )
  (pad 0 thru_hole circle (at 11.1125 0) (size 5 5) (drill 3.2) (layers *.Cu *.Mask))
  (pad 0 thru_hole circle (at -11.1125 0) (size 5 5) (drill 3.2) (layers *.Cu *.Mask))
)
