PCBNEW-LibModule-V1  7/15/2014 11:29:05 AM
# encoding utf-8
Units mm
$INDEX
Battery holder
$EndINDEX
$MODULE Battery holder
Po 0 0 0 15 53C5566D 00000000 ~~
Li Battery holder
Sc 0
AR 
Op 0 0 0
T0 0 -2.54 1.5 1.5 0 0.15 N V 21 N "BAT_REC"
T1 0 0 1.5 1.5 0 0.15 N V 21 N "3V3"
DS -11.43 1.27 12.7 1.27 0.15 21
DS 12.7 1.27 12.7 7.62 0.15 21
DS 12.7 7.62 -11.43 7.62 0.15 21
DS -11.43 1.27 -11.43 7.62 0.15 21
$PAD
Sh "2" C 1.524 1.524 0 0 0
Dr 1 0 0
At STD N 00E0FFFF
Ne 0 ""
Po -4.31 3.04
$EndPAD
$PAD
Sh "3" C 1.524 1.524 0 0 0
Dr 1 0 0
At STD N 00E0FFFF
Ne 0 ""
Po 5.85 3.04
$EndPAD
$PAD
Sh "1" C 1.524 1.524 0 0 0
Dr 1 0 0
At STD N 00E0FFFF
Ne 0 ""
Po 0.77 6.25
$EndPAD
$EndMODULE Battery holder
$EndLIBRARY
