PCBNEW-LibModule-V1  6/10/2014 12:40:44 PM
# encoding utf-8
Units mm
$INDEX
RTC BATT HOLDER
RTC_BATT_HOLDER
$EndINDEX
$MODULE RTC BATT HOLDER
Po 0 0 0 15 539740EF 00000000 ~~
Li RTC BATT HOLDER
Sc 0
AR 
Op 0 0 0
T0 0 -6.35 1 1 0 0.15 N V 21 N "RTC BATT HOLDER"
T1 0 0 1 1 0 0.15 N V 21 N "VAL**"
$PAD
Sh "1" C 1.5 1.5 0 0 0
Dr 1 0 0
At STD N 00E0FFFF
Ne 0 ""
Po 5 0
$EndPAD
$PAD
Sh "2" C 1.5 1.5 0 0 0
Dr 1 0 0
At STD N 00E0FFFF
Ne 0 ""
Po -5 0
$EndPAD
$PAD
Sh "3" C 1.5 1.5 0 0 0
Dr 1 0 0
At STD N 00E0FFFF
Ne 0 ""
Po 0 -3.81
$EndPAD
$EndMODULE RTC BATT HOLDER
$MODULE RTC_BATT_HOLDER
Po 0 0 0 15 53974304 00000000 ~~
Li RTC_BATT_HOLDER
Sc 0
AR 
Op 0 0 0
T0 0 -6.35 1 1 0 0.15 N V 21 N "RTC BATT HOLDER"
T1 0 0 1 1 0 0.15 N V 21 N "VAL**"
DS -11.43 -5.08 11.43 -5.08 0.15 21
DS 11.43 -5.08 11.43 1.27 0.15 21
DS 11.43 1.27 -11.43 1.27 0.15 21
DS -11.43 1.27 -11.43 -5.08 0.15 21
$PAD
Sh "1" C 1.5 1.5 0 0 0
Dr 1 0 0
At STD N 00E0FFFF
Ne 0 ""
Po 5 0
$EndPAD
$PAD
Sh "2" C 1.5 1.5 0 0 0
Dr 1 0 0
At STD N 00E0FFFF
Ne 0 ""
Po -5 0
$EndPAD
$PAD
Sh "3" C 1.5 1.5 0 0 0
Dr 1 0 0
At STD N 00E0FFFF
Ne 0 ""
Po 0 -3.81
$EndPAD
$EndMODULE RTC_BATT_HOLDER
$EndLIBRARY
