PCBNEW-LibModule-V1  7/15/2014 12:52:50 PM
# encoding utf-8
Units mm
$INDEX
PIN_ARRAY_1
$EndINDEX
$MODULE PIN_ARRAY_1
Po 0 0 0 15 53C56A5E 00000000 ~~
Li PIN_ARRAY_1
Cd 1 pin
Kw CONN DEV
Sc 0
AR 
Op 0 0 0
T0 0 0 0.762 0.762 0 0.1524 N V 21 N "Via"
T1 0 0 0.762 0.762 0 0.1524 N I 21 N "Val**"
$PAD
Sh "1" R 0.75 0.75 0 0 0
Dr 0.5 0 0
At STD N 00E0FFFF
Ne 0 ""
Po 0 0
.ZoneConnection 2
$EndPAD
$SHAPE3D
Na "pin_array\\pin_1.wrl"
Sc 1 1 1
Of 0 0 0
Ro 0 0 0
$EndSHAPE3D
$EndMODULE PIN_ARRAY_1
$EndLIBRARY
